


                     eT 1.7 - an electronic structure program

  ------------------------------------------------------------------------
   Author list in alphabetical order:
  ------------------------------------------------------------------------
   J. H. Andersen, A. Balbi, S. Coriani, S. D. Folkestad, T. Giovannini, 
   L. Goletto, T. S. Haugland, A. Hutcheson, I-M. Høyvik, E. F. Kjønstad, 
   H. Koch, R. Matveeva, T. Moitra, R. H. Myhre, A. C. Paul, S. Roet, 
   E. RoncaM. Scavino, A. K. Schnack-Petersen, A. S. Skeidsvoll, Å. 
   H. Tveten
  ------------------------------------------------------------------------
   J. Chem. Phys. 152, 184103 (2020); https://doi.org/10.1063/5.0004713


   This is eT 1.7.0 Hydra
  ------------------------------------------------------------
  Configuration date: 2022-04-07 12:33:31 UTC -07:00
  Git branch:         release-v1.7.0
  Git hash:           c5c382d7d23365463896a87c37298e4a37e4c962
  Fortran compiler:   GNU 11.2.0
  C compiler:         GNU 11.2.0
  C++ compiler:       GNU 11.2.0
  LAPACK type:        SYSTEM_NATIVE
  BLAS type:          SYSTEM_NATIVE
  64-bit integers:    OFF
  OpenMP:             ON
  PCM:                OFF
  Forced batching:    OFF
  Runtime checks:     OFF
  ------------------------------------------------------------

  Calculation started: 2022-04-07 12:35:34 UTC -07:00


  :: Input file
  ================

     Note: geometry section is excluded from this print

     system
       name: H2O
     end system

     do
       excited state
     end do

     method
       hf
       ccsd
     end method

     solver cholesky
       threshold: 1.0d-8
     end solver cholesky

     solver scf
       energy threshold:   1.0d-8
       gradient threshold: 1.0d-8
     end solver scf

     solver cc gs
       omega threshold:  1.0d-8
       energy threshold: 1.0d-8
     end solver cc gs

     solver cc es
       singlet states:           10
       residual threshold:       1.0d-3
       energy threshold:         1.0d-3
       core excitation:          {1}
     end solver cc es


  Running on 2 OMP threads
  Memory available for calculation: 8.000000 GB


  :: RHF wavefunction
  ======================

     ==============================================================================
                                     Geometry (angstrom)
     ==============================================================================
        Atom           X                  Y                  Z         # in input
     ==============================================================================
        Basis: cc-pvdz
        1  O     1.405913559800     1.572886779400     0.000000000000        1
        2  H     2.375913559800     1.572886779400     0.000000000000        2
        3  H     1.082583748100     2.018536686100    -0.798595012200        3
     ==============================================================================

     ==============================================================================
                                     Geometry (a.u.)
     ==============================================================================
        Atom           X                  Y                  Z         # in input
     ==============================================================================
        Basis: cc-pvdz
        1  O     2.656791582834     2.972325238015     0.000000000000        1
        2  H     4.489825923662     2.972325238015     0.000000000000        2
        3  H     2.045786790814     3.814481509116    -1.509125857502        3
     ==============================================================================

  - Cholesky decomposition of AO overlap to get linearly independent AOs:

     Linear dependence threshold:             0.10E-05
     Number of atomic orbitals:               24
     Number of orthonormal atomic orbitals:   24

  - Molecular orbital details:

     Number of occupied orbitals:         5
     Number of virtual orbitals:         19
     Number of molecular orbitals:       24


  :: Hartree-Fock engine
  =========================

  Drives the calculation of the Hartree-Fock state.

  This is a RHF ground state calculation.
  The following tasks will be performed:

     1) Generate initial SAD density
     2) Calculation of reference state (SCF-DIIS algorithm)


  1) Generate initial SAD density


  2) Calculation of reference state (SCF-DIIS algorithm)

  - Setting initial AO density to sad

     Energy of initial guess:               -75.866198362400
     Number of electrons in guess:           10.000000000000

  - Screening and integral thresholds:

     Coulomb screening threshold:    0.1000E-13
     Exchange screening threshold:   0.1000E-11
     ERI cutoff:                     0.1000E-13
     One-electron integral  cutoff:  0.1000E-18
     Cumulative Fock threshold:      0.1000E+01

  - SCF solver settings:

     Maximum iterations:                   100
     Acceleration type:                   diis

  - Convergence thresholds

     Residual threshold:            0.1000E-07
     Energy threshold:              0.1000E-07

  - DIIS tool settings:

     DIIS dimension:   8

     Storage (solver scf_errors): memory
     Storage (solver scf_parameters): memory

  Iteration       Energy (a.u.)      Max(grad.)    Delta E (a.u.)
  ---------------------------------------------------------------
     1           -75.985777420248     0.8287E-01     0.7599E+02
     2           -76.015347578889     0.6105E-01     0.2957E-01
     3           -76.024828749727     0.3930E-02     0.9481E-02
     4           -76.025021279948     0.1385E-02     0.1925E-03
     5           -76.025035736432     0.2488E-03     0.1446E-04
     6           -76.025036230731     0.3574E-04     0.4943E-06
     7           -76.025036241546     0.2056E-05     0.1082E-07
     8           -76.025036241596     0.2503E-06     0.4962E-10
     9           -76.025036241597     0.4551E-07     0.8242E-12
    10           -76.025036241597     0.1172E-07     0.0000E+00
    11           -76.025036241597     0.1875E-08     0.5684E-13
  ---------------------------------------------------------------
  Convergence criterion met in 11 iterations!

  - Summary of RHF wavefunction energetics (a.u.):

     HOMO-LUMO gap:                  0.674454973018
     Nuclear repulsion energy:       9.062772529384
     Electronic energy:            -85.087808770981
     Total energy:                 -76.025036241597

  - Timings for the RHF ground state calculation

     Total wall time (sec):              0.20400
     Total cpu time (sec):               0.24740


  :: CCSD wavefunction
  =======================

     Bath orbital(s):         False

   - Number of orbitals:

     Occupied orbitals:    5
     Virtual orbitals:     19
     Molecular orbitals:   24
     Atomic orbitals:      24

   - Number of ground state amplitudes:

     Single excitation amplitudes:  95
     Double excitation amplitudes:  4560


  Cholesky-decomposing electron repulsion integrals
  =================================================

  Cholesky decomposition of electronic repulsion integrals solver
  ---------------------------------------------------------------

  Performs a Cholesky decomposition of the two-electron electronic repulsion 
  integrals in the atomic orbital basis,

  (ab|cd) = sum_J L_ab^J L_cd^J.

  Once the Cholesky basis has been determined, the vectors L^J are constructed 
  and stored to disk. These may either be used directly, or be transformed 
  to the MO basis for use in post-HF calculations. For more information, 
  see S. D. Folkestad, E. F. Kjønstad and H. Koch, JCP, 150(19), (2019)

  - Cholesky decomposition settings:

     Target threshold is:   0.10E-07
     Span factor:           0.10E-01
     Max qual:                  1000

  - Cholesky decomposition ao details:

     Total number of AOs:                    24
     Total number of shell pairs:            78
     Total number of AO pairs:              300

     Significant shell pairs:                78
     Significant AO pairs:                  300

     Construct shell pairs:                  78
     Construct AO pairs:                    300

  Iter.  #Sign. ao pairs / shell pairs   Max diagonal    #Qualified    #Cholesky    Cholesky array size
  -------------------------------------------------------------------------------------------------------
     1               285 /      71       0.47383E+01         151             30              8550
     2               217 /      59       0.47048E-01         236             99             21483
     3               140 /      46       0.43027E-03         164            159             22260
     4                64 /      16       0.36747E-05         120            229             14656
     5                 0 /       0       0.35637E-07          22            246                 0
  -------------------------------------------------------------------------------------------------------

  - Summary of Cholesky decomposition of electronic repulsion integrals:

     Final number of Cholesky vectors: 246

 - Testing the Cholesky decomposition decomposition electronic repulsion integrals:

     Maximal difference between approximate and actual diagonal:              0.8822E-08
     Minimal element of difference between approximate and actual diagonal:  -0.1238E-14

  - Settings for integral handling:

     Cholesky vectors in memory: True
     ERI matrix in memory:       True

  - Finished decomposing the ERIs.

     Total wall time (sec):              0.12300
     Total cpu time (sec):               0.12144


  Determining CC cluster amplitudes
  =================================

   - DIIS coupled cluster ground state solver
  ----------------------------------------------

  A DIIS CC ground state amplitude equations solver. It uses an extrapolation 
  of previous quasi-Newton perturbation theory estimates of the next amplitudes. 
  See Helgaker et al., Molecular Electronic Structure Theory, Chapter 
  13.

  - CC ground state solver settings:

  - Convergence thresholds

     Residual threshold:            0.1000E-07
     Energy threshold:              0.1000E-07
     Max number of iterations:      100

  - DIIS tool settings:

     DIIS dimension:   8

     Storage (cc_gs_diis_errors): file
     Storage (cc_gs_diis_parameters): file

  Iteration    Energy (a.u.)        |omega|       Delta E (a.u.)
  ---------------------------------------------------------------
    1           -76.229433605582     0.7598E-01     0.7623E+02
    2           -76.234330382022     0.2151E-01     0.4897E-02
    3           -76.238324008099     0.5150E-02     0.3994E-02
    4           -76.238794884373     0.1190E-02     0.4709E-03
    5           -76.238803110797     0.2634E-03     0.8226E-05
    6           -76.238813611255     0.1007E-03     0.1050E-04
    7           -76.238811126128     0.2439E-04     0.2485E-05
    8           -76.238810351082     0.5246E-05     0.7750E-06
    9           -76.238810202224     0.1222E-05     0.1489E-06
   10           -76.238810140690     0.2782E-06     0.6153E-07
   11           -76.238810158985     0.6393E-07     0.1829E-07
   12           -76.238810157319     0.1056E-07     0.1666E-08
   13           -76.238810157808     0.2377E-08     0.4894E-09
  ---------------------------------------------------------------
  Convergence criterion met in 13 iterations!

  - Ground state summary:

     Final ground state energy (a.u.):   -76.238810157808

     Correlation energy (a.u.):           -0.213773916211

     Largest single amplitudes:
     -----------------------------------
        a       i         t(a,i)
     -----------------------------------
        1      4       -0.007953307721
       13      3        0.007367935491
        2      3       -0.005688549906
       14      4       -0.004960954995
        7      3        0.004497029885
        5      2       -0.004367005439
        1      2        0.004196897638
       10      5       -0.003213895557
        4      4        0.003096953922
        6      5       -0.003026833289
     ------------------------------------

     Largest double amplitudes:
     --------------------------------------------------
        a      i       b      j         t(ai,bj)
     --------------------------------------------------
        6      5       6      5       -0.051470799953
        5      4       5      4       -0.037315090446
        3      3       3      3       -0.036072984817
        4      3       4      3       -0.030421732536
        5      4       6      5       -0.029544172883
        2      3       2      3       -0.029438773475
        3      4       3      4       -0.025060375323
        7      3       6      5       -0.022218090699
        4      3       3      4        0.022029016330
        2      3       6      5       -0.021756348576
     --------------------------------------------------

  - Finished solving the CCSD ground state equations

     Total wall time (sec):              0.29000
     Total cpu time (sec):               0.13435


  Determining CC excited state amplitudes
  =======================================

  Davidson eigenvalue equation solver
  -----------------------------------

  A Davidson solver that solves an eigenvalue equation: M x = omega x. 
  This equation is solved in a reduced space. A description of the algorithm 
  can be found in E. R. Davidson, J. Comput. Phys. 17, 87 (1975).

   - Davidson tool settings:

     Number of parameters:                 4655
     Number of requested solutions:          10
     Max reduced space dimension:           100

     Storage (cc_es_davidson_trials): memory
     Storage (cc_es_davidson_transforms): memory

  - Davidson solver settings

     Number of singlet states:              10
     Max number of iterations:             100

  Iteration:                  1
  Reduced space dimension:   10

  Root  Eigenvalue (Re)   Eigenvalue (Im)    |residual|   Delta E (Re)
  -------------------------------------------------------------------------
     1  20.303757824866    0.000000000000     0.9395E+00   0.2030E+02
     2  20.332913844878    0.000000000000     0.9246E+00   0.2033E+02
     3  20.838888020342    0.000000000000     0.9264E+00   0.2084E+02
     4  20.861217567757    0.000000000000     0.9656E+00   0.2086E+02
     5  20.881454911297    0.000000000000     0.8001E+00   0.2088E+02
     6  21.010195642732    0.000000000000     0.9151E+00   0.2101E+02
     7  21.160795676818    0.000000000000     0.9155E+00   0.2116E+02
     8  21.494741367553    0.000000000000     0.9320E+00   0.2149E+02
     9  21.505474499454    0.000000000000     0.9571E+00   0.2151E+02
    10  21.751053404198    0.000000000000     0.9501E+00   0.2175E+02
  -------------------------------------------------------------------------

  Iteration:                  2
  Reduced space dimension:   20

  Root  Eigenvalue (Re)   Eigenvalue (Im)    |residual|   Delta E (Re)
  -------------------------------------------------------------------------
     1  19.787016642760    0.000000000000     0.1990E+00   0.5167E+00
     2  19.855891982037    0.000000000000     0.2063E+00   0.4770E+00
     3  20.306725331496    0.000000000000     0.2217E+00   0.5322E+00
     4  20.320269476161    0.000000000000     0.2301E+00   0.5409E+00
     5  20.557834151933    0.000000000000     0.2613E+00   0.3236E+00
     6  20.577500065131    0.000000000000     0.2360E+00   0.4327E+00
     7  20.700580167055    0.000000000000     0.2194E+00   0.4602E+00
     8  20.997276475718    0.000000000000     0.2413E+00   0.4975E+00
     9  21.058117524544    0.000000000000     0.2935E+00   0.4474E+00
    10  21.200994612161    0.000000000000     0.2017E+00   0.5501E+00
  -------------------------------------------------------------------------

  Iteration:                  3
  Reduced space dimension:   30

  Root  Eigenvalue (Re)   Eigenvalue (Im)    |residual|   Delta E (Re)
  -------------------------------------------------------------------------
     1  19.775301804429    0.000000000000     0.4881E-01   0.1171E-01
     2  19.841295669396    0.000000000000     0.5019E-01   0.1460E-01
     3  20.294307851734    0.000000000000     0.6429E-01   0.1242E-01
     4  20.304418872389    0.000000000000     0.6551E-01   0.1585E-01
     5  20.549460822358    0.000000000000     0.3932E-01   0.8373E-02
     6  20.560899807551    0.000000000000     0.4875E-01   0.1660E-01
     7  20.682854962328    0.000000000000     0.5717E-01   0.1773E-01
     8  20.946286777950    0.000000000000     0.9176E-01   0.5099E-01
     9  20.972175730897    0.000000000000     0.1104E+00   0.8594E-01
    10  21.188559281383    0.000000000000     0.6236E-01   0.1244E-01
  -------------------------------------------------------------------------

  Iteration:                  4
  Reduced space dimension:   40

  Root  Eigenvalue (Re)   Eigenvalue (Im)    |residual|   Delta E (Re)
  -------------------------------------------------------------------------
     1  19.779374149657    0.000000000000     0.1937E-01   0.4072E-02
     2  19.845230659471    0.000000000000     0.1965E-01   0.3935E-02
     3  20.298796054871    0.000000000000     0.2541E-01   0.4488E-02
     4  20.308789593693    0.000000000000     0.2850E-01   0.4371E-02
     5  20.553168436832    0.000000000000     0.1055E-01   0.3708E-02
     6  20.564642350352    0.000000000000     0.2531E-01   0.3743E-02
     7  20.685691724449    0.000000000000     0.2038E-01   0.2837E-02
     8  20.947181385857    0.000000000000     0.4224E-01   0.8946E-03
     9  20.969158369767    0.000000000000     0.4319E-01   0.3017E-02
    10  21.191924020597    0.000000000000     0.7166E-01   0.3365E-02
  -------------------------------------------------------------------------

  Iteration:                  5
  Reduced space dimension:   50

  Root  Eigenvalue (Re)   Eigenvalue (Im)    |residual|   Delta E (Re)
  -------------------------------------------------------------------------
     1  19.780163239932    0.000000000000     0.2869E-02   0.7891E-03
     2  19.846055037229    0.000000000000     0.3439E-02   0.8244E-03
     3  20.299291607446    0.000000000000     0.4750E-02   0.4956E-03
     4  20.309611398227    0.000000000000     0.6954E-02   0.8218E-03
     5  20.553600513688    0.000000000000     0.4331E-02   0.4321E-03
     6  20.565637683155    0.000000000000     0.6545E-02   0.9953E-03
     7  20.686787539282    0.000000000000     0.6472E-02   0.1096E-02
     8  20.952431197787    0.000000000000     0.3793E-01   0.5250E-02
     9  20.971637077803    0.000000000000     0.1986E-01   0.2479E-02
    10  21.061912421240    0.000000000000     0.4772E+00   0.1300E+00
  -------------------------------------------------------------------------

  Iteration:                  6
  Reduced space dimension:   60

  Root  Eigenvalue (Re)   Eigenvalue (Im)    |residual|   Delta E (Re)
  -------------------------------------------------------------------------
     1  19.780173842048    0.000000000000     0.6581E-03   0.1060E-04
     2  19.846073680571    0.000000000000     0.9806E-03   0.1864E-04
     3  20.299223161478    0.000000000000     0.1741E-02   0.6845E-04
     4  20.309419211477    0.000000000000     0.2152E-02   0.1922E-03
     5  20.553607270713    0.000000000000     0.1080E-02   0.6757E-05
     6  20.565475280849    0.000000000000     0.2420E-02   0.1624E-03
     7  20.686710647133    0.000000000000     0.3577E-02   0.7689E-04
     8  20.948685096458    0.000000000000     0.3717E-01   0.3746E-02
     9  20.972221251728    0.000000000000     0.1159E-01   0.5842E-03
    10  20.986408651113    0.000000000000     0.2205E+00   0.7550E-01
  -------------------------------------------------------------------------

  Iteration:                  7
  Reduced space dimension:   68

  Root  Eigenvalue (Re)   Eigenvalue (Im)    |residual|   Delta E (Re)
  -------------------------------------------------------------------------
     1  19.780183844082    0.000000000000     0.5627E-03   0.1000E-04
     2  19.846066060518    0.000000000000     0.9011E-03   0.7620E-05
     3  20.299202745188    0.000000000000     0.6247E-03   0.2042E-04
     4  20.309350970519    0.000000000000     0.6976E-03   0.6824E-04
     5  20.553606207211    0.000000000000     0.3071E-03   0.1064E-05
     6  20.565457549871    0.000000000000     0.1207E-02   0.1773E-04
     7  20.686628451731    0.000000000000     0.1390E-02   0.8220E-04
     8  20.945242497234    0.000000000000     0.1417E-01   0.3443E-02
     9  20.960190975980    0.000000000000     0.2814E+00   0.1203E-01
    10  20.971248966419    0.000000000000     0.1062E-01   0.1516E-01
  -------------------------------------------------------------------------

  Iteration:                  8
  Reduced space dimension:   73

  Root  Eigenvalue (Re)   Eigenvalue (Im)    |residual|   Delta E (Re)
  -------------------------------------------------------------------------
     1  19.780184439711    0.000000000000     0.5647E-03   0.5956E-06
     2  19.846066332033    0.000000000000     0.8970E-03   0.2715E-06
     3  20.299196916369    0.000000000000     0.5169E-03   0.5829E-05
     4  20.309350521984    0.000000000000     0.6802E-03   0.4485E-06
     5  20.553605087465    0.000000000000     0.2566E-03   0.1120E-05
     6  20.565454191360    0.000000000000     0.5339E-03   0.3359E-05
     7  20.686622134060    0.000000000000     0.5776E-03   0.6318E-05
     8  20.932052988104    0.000000000000     0.1348E+00   0.1319E-01
     9  20.945834466626    0.000000000000     0.7967E-02   0.1436E-01
    10  20.966134823242    0.000000000000     0.1045E+00   0.5114E-02
  -------------------------------------------------------------------------

  Iteration:                  9
  Reduced space dimension:   76

  Root  Eigenvalue (Re)   Eigenvalue (Im)    |residual|   Delta E (Re)
  -------------------------------------------------------------------------
     1  19.780184150073    0.000000000000     0.5576E-03   0.2896E-06
     2  19.846066332033    0.000000000000     0.8970E-03   0.5684E-13
     3  20.299196916369    0.000000000000     0.5169E-03   0.7816E-13
     4  20.309350271442    0.000000000000     0.6802E-03   0.2505E-06
     5  20.553603778317    0.000000000000     0.2708E-03   0.1309E-05
     6  20.565454309086    0.000000000000     0.3436E-03   0.1177E-06
     7  20.686622134060    0.000000000000     0.5776E-03   0.1066E-13
     8  20.924482428923    0.000000000000     0.7157E-01   0.7571E-02
     9  20.926025200893    0.000000000000     0.1648E+00   0.1981E-01
    10  20.946070153491    0.000000000000     0.3878E-02   0.2006E-01
  -------------------------------------------------------------------------

  Iteration:                 10
  Reduced space dimension:   79

  Root  Eigenvalue (Re)   Eigenvalue (Im)    |residual|   Delta E (Re)
  -------------------------------------------------------------------------
     1  19.780184283235    0.000000000000     0.5577E-03   0.1332E-06
     2  19.846066332033    0.000000000000     0.8970E-03   0.7105E-13
     3  20.299196916369    0.000000000000     0.5169E-03   0.2132E-13
     4  20.309351245706    0.000000000000     0.6802E-03   0.9743E-06
     5  20.553602655290    0.000000000000     0.2710E-03   0.1123E-05
     6  20.565452905596    0.000000000000     0.3506E-03   0.1403E-05
     7  20.686622134060    0.000000000000     0.5776E-03   0.7105E-14
     8  20.920557652640    0.000000000000     0.5335E-01   0.3925E-02
     9  20.923186412482    0.000000000000     0.2748E-01   0.2839E-02
    10  20.946054933516    0.000000000000     0.1533E-02   0.1522E-04
  -------------------------------------------------------------------------

  Iteration:                 11
  Reduced space dimension:   82

  Root  Eigenvalue (Re)   Eigenvalue (Im)    |residual|   Delta E (Re)
  -------------------------------------------------------------------------
     1  19.780184737944    0.000000000000     0.5548E-03   0.4547E-06
     2  19.846066332033    0.000000000000     0.8970E-03   0.4263E-13
     3  20.299196916369    0.000000000000     0.5169E-03   0.4263E-13
     4  20.309351616570    0.000000000000     0.6742E-03   0.3709E-06
     5  20.553601303000    0.000000000000     0.2590E-03   0.1352E-05
     6  20.565452376563    0.000000000000     0.3458E-03   0.5290E-06
     7  20.686622134060    0.000000000000     0.5776E-03   0.1421E-13
     8  20.920508666899    0.000000000000     0.2327E-01   0.4899E-04
     9  20.922986384660    0.000000000000     0.9821E-02   0.2000E-03
    10  20.946065377482    0.000000000000     0.2665E-02   0.1044E-04
  -------------------------------------------------------------------------

  Iteration:                 12
  Reduced space dimension:   85

  Root  Eigenvalue (Re)   Eigenvalue (Im)    |residual|   Delta E (Re)
  -------------------------------------------------------------------------
     1  19.780185110883    0.000000000000     0.5508E-03   0.3729E-06
     2  19.846066332033    0.000000000000     0.8970E-03   0.1066E-13
     3  20.299196916369    0.000000000000     0.5169E-03   0.1066E-13
     4  20.309351753181    0.000000000000     0.6720E-03   0.1366E-06
     5  20.553601517023    0.000000000000     0.2577E-03   0.2140E-06
     6  20.565452371029    0.000000000000     0.3477E-03   0.5534E-08
     7  20.686622134060    0.000000000000     0.5776E-03   0.9237E-13
     8  20.920502389020    0.000000000000     0.1188E-01   0.6278E-05
     9  20.922978426829    0.000000000000     0.3548E-02   0.7958E-05
    10  20.945827597427    0.000000000000     0.8000E-02   0.2378E-03
  -------------------------------------------------------------------------

  Iteration:                 13
  Reduced space dimension:   88

  Root  Eigenvalue (Re)   Eigenvalue (Im)    |residual|   Delta E (Re)
  -------------------------------------------------------------------------
     1  19.780185104639    0.000000000000     0.5507E-03   0.6244E-08
     2  19.846066332033    0.000000000000     0.8970E-03   0.2487E-13
     3  20.299196916369    0.000000000000     0.5169E-03   0.6040E-13
     4  20.309351962698    0.000000000000     0.6688E-03   0.2095E-06
     5  20.553602668167    0.000000000000     0.2641E-03   0.1151E-05
     6  20.565452239316    0.000000000000     0.3485E-03   0.1317E-06
     7  20.686622134060    0.000000000000     0.5776E-03   0.5684E-13
     8  20.920477373865    0.000000000000     0.5839E-02   0.2502E-04
     9  20.922978109524    0.000000000000     0.1129E-02   0.3173E-06
    10  20.945345202823    0.000000000000     0.1584E-01   0.4824E-03
  -------------------------------------------------------------------------

  Iteration:                 14
  Reduced space dimension:   91

  Root  Eigenvalue (Re)   Eigenvalue (Im)    |residual|   Delta E (Re)
  -------------------------------------------------------------------------
     1  19.780185100038    0.000000000000     0.5508E-03   0.4601E-08
     2  19.846066332033    0.000000000000     0.8970E-03   0.4974E-13
     3  20.299196916369    0.000000000000     0.5169E-03   0.4619E-13
     4  20.309352365030    0.000000000000     0.6680E-03   0.4023E-06
     5  20.553604130742    0.000000000000     0.2514E-03   0.1463E-05
     6  20.565452038672    0.000000000000     0.3480E-03   0.2006E-06
     7  20.686622134060    0.000000000000     0.5776E-03   0.2132E-13
     8  20.920503883700    0.000000000000     0.2995E-02   0.2651E-04
     9  20.922977470360    0.000000000000     0.3293E-03   0.6392E-06
    10  20.945408001509    0.000000000000     0.1168E-01   0.6280E-04
  -------------------------------------------------------------------------

  Iteration:                 15
  Reduced space dimension:   93

  Root  Eigenvalue (Re)   Eigenvalue (Im)    |residual|   Delta E (Re)
  -------------------------------------------------------------------------
     1  19.780185367919    0.000000000000     0.5504E-03   0.2679E-06
     2  19.846066332033    0.000000000000     0.8970E-03   0.2487E-13
     3  20.299196916369    0.000000000000     0.5169E-03   0.1776E-13
     4  20.309352458991    0.000000000000     0.6681E-03   0.9396E-07
     5  20.553604130742    0.000000000000     0.2514E-03   0.3908E-13
     6  20.565451748765    0.000000000000     0.3493E-03   0.2899E-06
     7  20.686622134060    0.000000000000     0.5776E-03   0.1421E-13
     8  20.920490864708    0.000000000000     0.1423E-02   0.1302E-04
     9  20.922977470360    0.000000000000     0.3293E-03   0.6040E-13
    10  20.945474383266    0.000000000000     0.4707E-02   0.6638E-04
  -------------------------------------------------------------------------

  Iteration:                 16
  Reduced space dimension:   95

  Root  Eigenvalue (Re)   Eigenvalue (Im)    |residual|   Delta E (Re)
  -------------------------------------------------------------------------
     1  19.780185384022    0.000000000000     0.5504E-03   0.1610E-07
     2  19.846066332033    0.000000000000     0.8970E-03   0.5329E-13
     3  20.299196916369    0.000000000000     0.5169E-03   0.1634E-12
     4  20.309352618430    0.000000000000     0.6687E-03   0.1594E-06
     5  20.553604130741    0.000000000000     0.2514E-03   0.5329E-13
     6  20.565451408330    0.000000000000     0.3504E-03   0.3404E-06
     7  20.686622134060    0.000000000000     0.5776E-03   0.5684E-13
     8  20.920463556173    0.000000000000     0.6506E-03   0.2731E-04
     9  20.922977470360    0.000000000000     0.3293E-03   0.7105E-14
    10  20.945468755115    0.000000000000     0.1600E-02   0.5628E-05
  -------------------------------------------------------------------------

  Iteration:                 17
  Reduced space dimension:   96

  Root  Eigenvalue (Re)   Eigenvalue (Im)    |residual|   Delta E (Re)
  -------------------------------------------------------------------------
     1  19.780185384022    0.000000000000     0.5504E-03   0.1243E-12
     2  19.846066332033    0.000000000000     0.8970E-03   0.7816E-13
     3  20.299196916369    0.000000000000     0.5169E-03   0.1528E-12
     4  20.309352618430    0.000000000000     0.6687E-03   0.3553E-14
     5  20.553604130742    0.000000000000     0.2514E-03   0.6395E-13
     6  20.565451408330    0.000000000000     0.3504E-03   0.1421E-13
     7  20.686622134060    0.000000000000     0.5776E-03   0.8527E-13
     8  20.920463556173    0.000000000000     0.6506E-03   0.2132E-13
     9  20.922977470360    0.000000000000     0.3293E-03   0.3553E-13
    10  20.945454885801    0.000000000000     0.5500E-03   0.1387E-04
  -------------------------------------------------------------------------
  Convergence criterion met in 17 iterations!

  - Excitation vector amplitudes:

     Electronic state nr. 1

     Energy (Hartree):                 19.780185384022
     Fraction singles (|R1|/|R|):       0.944422389772

     Largest single amplitudes:
     -----------------------------------
        a       i         R(a,i)
     -----------------------------------
        1      1        0.923170595335
        4      1       -0.173565744545
        5      1        0.075875559238
       11      1       -0.038863804689
       14      1       -0.038631514378
        9      1       -0.027281910027
       18      1        0.007517318120
       17      1        0.001982962140
        2      1       -0.000000004855
        7      1       -0.000000001310
     ------------------------------------

     Largest double amplitudes:
     --------------------------------------------------
        a      i       b      j         R(ai,bj)
     --------------------------------------------------
        1      1       6      5        0.148375260008
        1      1       5      4        0.128216598637
        1      1       7      3        0.106199343596
        1      1       2      3        0.104388648617
        1      1       3      3        0.080472471796
        1      1       1      2       -0.079655783452
        1      1       1      4        0.061478613278
        1      1      13      3        0.060843476572
        1      1       4      4       -0.060462562004
        1      1      11      2        0.055467285811
     --------------------------------------------------

     Electronic state nr. 2

     Energy (Hartree):                 19.846066332033
     Fraction singles (|R1|/|R|):       0.946103219111

     Largest single amplitudes:
     -----------------------------------
        a       i         R(a,i)
     -----------------------------------
        2      1        0.906332549030
        3      1        0.221714268456
        7      1        0.147879547186
       13      1        0.049942202583
       19      1        0.011402340024
       12      1        0.004774673855
        1      1        0.000000005600
        5      1        0.000000001504
       11      1       -0.000000000740
        4      1        0.000000000556
     ------------------------------------

     Largest double amplitudes:
     --------------------------------------------------
        a      i       b      j         R(ai,bj)
     --------------------------------------------------
        2      1       6      5        0.143940713500
        2      1       5      4        0.122454950205
        2      1       2      3        0.115505263723
        2      1       7      3        0.104507636995
        2      1       3      3        0.077356012323
        2      1       1      2       -0.065623260657
        2      1       4      4       -0.061303121021
        2      1       1      4        0.057493920521
        2      1      13      3        0.055406338093
        2      1      11      2        0.052816889628
     --------------------------------------------------

     Electronic state nr. 3

     Energy (Hartree):                 20.299196916369
     Fraction singles (|R1|/|R|):       0.940929945283

     Largest single amplitudes:
     -----------------------------------
        a       i         R(a,i)
     -----------------------------------
        3      1        0.907497798649
        2      1       -0.222071985088
        7      1        0.085762692037
       13      1        0.071257112672
       12      1        0.005443296203
       19      1        0.004300684954
        4      1        0.000000044746
        5      1       -0.000000008665
        1      1        0.000000008323
        6      1        0.000000008187
     ------------------------------------

     Largest double amplitudes:
     --------------------------------------------------
        a      i       b      j         R(ai,bj)
     --------------------------------------------------
        3      1       6      5        0.139003063038
        3      1       5      4        0.120749686668
        3      1       3      3        0.107509895177
        3      1       7      3        0.102769496318
        3      1       2      3        0.092228140901
        3      1       4      4       -0.070581498437
        3      1      13      3        0.064891339882
        3      1       1      2       -0.064259724430
        3      1       1      4        0.058156561554
        3      1       4      2        0.057823703928
     --------------------------------------------------

     Electronic state nr. 4

     Energy (Hartree):                 20.309352618430
     Fraction singles (|R1|/|R|):       0.940891261396

     Largest single amplitudes:
     -----------------------------------
        a       i         R(a,i)
     -----------------------------------
        4      1        0.909154473157
        1      1        0.171799035356
        5      1       -0.152660246898
       14      1        0.070861963165
        9      1       -0.017551089346
       11      1       -0.017443320257
       18      1       -0.012698413428
       17      1       -0.009973589653
        3      1       -0.000000053331
        2      1        0.000000011944
     ------------------------------------

     Largest double amplitudes:
     --------------------------------------------------
        a      i       b      j         R(ai,bj)
     --------------------------------------------------
        4      1       6      5        0.137207520542
        4      1       5      4        0.118664802410
        4      1       7      3        0.105168853855
        4      1       2      3        0.102527092037
        4      1       3      3        0.100332171287
        4      1       4      4       -0.077117667755
        4      1      13      3        0.068343787818
        4      1       4      2        0.066577306633
        4      1       1      2       -0.059654139022
        3      1       4      3        0.059089981979
     --------------------------------------------------

     Electronic state nr. 5

     Energy (Hartree):                 20.553604130742
     Fraction singles (|R1|/|R|):       0.954897197769

     Largest single amplitudes:
     -----------------------------------
        a       i         R(a,i)
     -----------------------------------
        6      1        0.954303892640
       10      1        0.033652366041
       15      1       -0.000507009353
        5      1       -0.000000258370
        4      1       -0.000000031261
        1      1        0.000000012869
       14      1        0.000000012726
       11      1       -0.000000010318
        9      1       -0.000000009925
        7      1       -0.000000009216
     ------------------------------------

     Largest double amplitudes:
     --------------------------------------------------
        a      i       b      j         R(ai,bj)
     --------------------------------------------------
        6      1       6      5        0.171223384836
        6      1       5      4        0.115796724417
        6      1       7      3        0.092437603124
        6      1       2      3        0.083043652600
        6      1       1      2       -0.056942025960
        6      1       3      3        0.055667873758
        6      1      11      2        0.055177235693
        6      1       4      4       -0.051447889649
        6      1      13      3        0.050884594112
        6      1       1      4        0.044101664279
     --------------------------------------------------

     Electronic state nr. 6

     Energy (Hartree):                 20.565451408330
     Fraction singles (|R1|/|R|):       0.952373677337

     Largest single amplitudes:
     -----------------------------------
        a       i         R(a,i)
     -----------------------------------
        5      1        0.936973520039
        4      1        0.148920179023
       11      1        0.046484279714
       14      1       -0.045348192242
        1      1       -0.038485010873
       18      1        0.028846401158
        9      1        0.019706965062
       17      1        0.000449574133
        6      1        0.000000253013
        7      1        0.000000019261
     ------------------------------------

     Largest double amplitudes:
     --------------------------------------------------
        a      i       b      j         R(ai,bj)
     --------------------------------------------------
        5      1       6      5        0.141705353263
        5      1       5      4        0.140378319487
        5      1       7      3        0.093712760362
        5      1       2      3        0.082654463755
        5      1       3      3        0.060070588638
        5      1       1      2       -0.059774782147
        5      1      13      3        0.052290100215
        5      1      11      2        0.050315694278
        5      1       4      4       -0.043690187331
        5      1       4      2        0.040571117101
     --------------------------------------------------

     Electronic state nr. 7

     Energy (Hartree):                 20.686622134060
     Fraction singles (|R1|/|R|):       0.954137667535

     Largest single amplitudes:
     -----------------------------------
        a       i         R(a,i)
     -----------------------------------
        7      1       -0.937237546859
        3      1        0.109950681070
        2      1        0.098698999411
       13      1       -0.091329949536
       19      1       -0.040740474187
       12      1        0.011527302200
        5      1        0.000000019157
        6      1       -0.000000008769
        9      1       -0.000000003800
        4      1        0.000000003086
     ------------------------------------

     Largest double amplitudes:
     --------------------------------------------------
        a      i       b      j         R(ai,bj)
     --------------------------------------------------
        7      1       6      5       -0.142287579058
        7      1       5      4       -0.115084946864
        7      1       7      3       -0.113322299279
        7      1       2      3       -0.067359884685
        7      1       1      2        0.058848464245
        7      1      13      3       -0.052775907716
        7      1      11      2       -0.052409762312
        7      1       4      4        0.051355526583
        7      1       4      2       -0.044603444822
        7      1       3      3       -0.043434941518
     --------------------------------------------------

     Electronic state nr. 8

     Energy (Hartree):                 20.920463556173
     Fraction singles (|R1|/|R|):       0.109352858683

     Largest single amplitudes:
     -----------------------------------
        a       i         R(a,i)
     -----------------------------------
        9      1       -0.095240576540
       11      1       -0.041621621031
        1      1        0.026165831202
       14      1       -0.015400394286
        5      1        0.012372602359
       18      1        0.007192098114
        4      1       -0.005001250797
       17      1        0.001810526075
       10      1        0.000000002686
       15      1        0.000000002366
     ------------------------------------

     Largest double amplitudes:
     --------------------------------------------------
        a      i       b      j         R(ai,bj)
     --------------------------------------------------
        1      1       1      4       -0.526620872003
        2      1       2      4        0.431553350194
        4      1       1      4        0.249106955117
        1      1       4      4        0.234519793830
        3      1       2      4        0.232532187648
        2      1       3      4        0.222191519709
        2      1       7      4        0.199119118350
        7      1       2      4        0.184792382815
        2      1       1      3       -0.149096978442
        5      1       1      4       -0.145092749162
     --------------------------------------------------

     Electronic state nr. 9

     Energy (Hartree):                 20.922977470360
     Fraction singles (|R1|/|R|):       0.015995642442

     Largest single amplitudes:
     -----------------------------------
        a       i         R(a,i)
     -----------------------------------
       10      1       -0.010462916798
       15      1       -0.008648197113
        6      1       -0.008461479535
        9      1       -0.000000014911
       11      1       -0.000000006594
        1      1        0.000000004067
       14      1       -0.000000002234
        8      1        0.000000002147
        5      1        0.000000001837
        4      1       -0.000000001189
     ------------------------------------

     Largest double amplitudes:
     --------------------------------------------------
        a      i       b      j         R(ai,bj)
     --------------------------------------------------
        1      1       1      5       -0.534805091585
        2      1       2      5        0.483414507723
        2      1       3      5        0.246884996786
        1      1       4      5        0.241809647879
        3      1       2      5        0.241018315294
        4      1       1      5        0.236040500540
        2      1       7      5        0.230968402390
        7      1       2      5        0.215296553278
        1      1       5      5       -0.143991377349
        5      1       1      5       -0.128086964313
     --------------------------------------------------

     Electronic state nr. 10

     Energy (Hartree):                 20.945454885801
     Fraction singles (|R1|/|R|):       0.882380960633

     Largest single amplitudes:
     -----------------------------------
        a       i         R(a,i)
     -----------------------------------
        8      1       -0.881663587659
       16      1       -0.035573555945
        2      1       -0.000000001371
       11      1        0.000000001120
       10      1        0.000000000689
        6      1        0.000000000667
       13      1       -0.000000000644
        3      1       -0.000000000636
        5      1        0.000000000553
       12      1        0.000000000466
     ------------------------------------

     Largest double amplitudes:
     --------------------------------------------------
        a      i       b      j         R(ai,bj)
     --------------------------------------------------
        2      1       1      5       -0.222954450778
        8      1       6      5       -0.140024195540
        1      1       2      5        0.120813171499
        8      1       5      4       -0.120512248693
        3      1       1      5       -0.113048603703
        8      1       7      3       -0.102147925700
        7      1       1      5       -0.097332975223
        2      1       4      5        0.093592059639
        8      1       2      3       -0.092012947818
        8      1       3      3       -0.086482302587
     --------------------------------------------------

  - CCSD excitation energies:

                                      Excitation energy
                          ------------------------------------------
      State                (Hartree)             (eV)
     ---------------------------------------------------------------
        1                 19.780185384022      538.246260031786
        2                 19.846066332033      540.038971939476
        3                 20.299196916369      552.369283187302
        4                 20.309352618430      552.645633916389
        5                 20.553604130742      559.292056103875
        6                 20.565451408330      559.614436947616
        7                 20.686622134060      562.911660339792
        8                 20.920463556173      569.274809544376
        9                 20.922977470360      569.343216633719
       10                 20.945454885801      569.954858262034
     ---------------------------------------------------------------
     eV/Hartree (CODATA 2014): 27.21138602

  ------------------------------------------------------------

  Peak memory usage during the execution of eT: 15.165724 MB

  Total wall time in eT (sec):              2.19000
  Total cpu time in eT (sec):               1.55886

  Calculation ended: 2022-04-07 12:35:36 UTC -07:00

  - Implementation references:

     eT: https://doi.org/10.1063/5.0004713
     Cholesky decomposition of ERIs: https://doi.org/10.1063/1.5083802

  eT terminated successfully!
