


                     eT 1.7 - an electronic structure program

  ------------------------------------------------------------------------
   Author list in alphabetical order:
  ------------------------------------------------------------------------
   J. H. Andersen, A. Balbi, S. Coriani, S. D. Folkestad, T. Giovannini, 
   L. Goletto, T. S. Haugland, A. Hutcheson, I-M. Høyvik, E. F. Kjønstad, 
   H. Koch, R. Matveeva, T. Moitra, R. H. Myhre, A. C. Paul, S. Roet, 
   E. RoncaM. Scavino, A. K. Schnack-Petersen, A. S. Skeidsvoll, Å. 
   H. Tveten
  ------------------------------------------------------------------------
   J. Chem. Phys. 152, 184103 (2020); https://doi.org/10.1063/5.0004713


   This is eT 1.7.0 Hydra
  ------------------------------------------------------------
  Configuration date: 2022-04-07 12:33:31 UTC -07:00
  Git branch:         release-v1.7.0
  Git hash:           c5c382d7d23365463896a87c37298e4a37e4c962
  Fortran compiler:   GNU 11.2.0
  C compiler:         GNU 11.2.0
  C++ compiler:       GNU 11.2.0
  LAPACK type:        SYSTEM_NATIVE
  BLAS type:          SYSTEM_NATIVE
  64-bit integers:    OFF
  OpenMP:             ON
  PCM:                OFF
  Forced batching:    OFF
  Runtime checks:     OFF
  ------------------------------------------------------------

  Calculation started: 2022-04-07 12:35:51 UTC -07:00


  :: Input file
  ================

     Note: geometry section is excluded from this print

     system
        name: H2O He
        charge: 0
     end system

     do
       ground state
       excited state
     end do

     memory
        available: 8
     end memory

     solver cholesky
        threshold: 1.0d-12
     end solver cholesky

     solver scf
        algorithm:          scf-diis
        energy threshold:   1.0d-11
        gradient threshold: 1.0d-11
     end solver scf

     method
        hf
        mlcc2
     end method

     solver cc gs
        omega threshold:  1.0d-11
        energy threshold: 1.0d-11
     end solver cc gs

     solver cc es
        algorithm:          davidson
        singlet states:     2
        residual threshold: 1.0d-11
        energy threshold:   1.0d-11
        right eigenvectors
        core excitation: {1}
     end solver cc es

     active atoms
        selection type: range
        cc2: [1,4]
     end active atoms

     mlcc
        cc2 orbitals: cholesky
     end mlcc


  Running on 2 OMP threads
  Memory available for calculation: 8.000000 GB


  :: RHF wavefunction
  ======================

     ==============================================================================
                                     Geometry (angstrom)
     ==============================================================================
        Atom           X                  Y                  Z         # in input
     ==============================================================================
        Basis: cc-pvdz
        1  H     0.866810000000     0.601440000000     5.000000000000        1
        2  H    -0.866810000000     0.601440000000     5.000000000000        2
        3  O     0.000000000000    -0.075790000000     5.000000000000        3
        4 He     0.100000000000    -0.020000000000     7.530000000000        4
     ==============================================================================

     ==============================================================================
                                     Geometry (a.u.)
     ==============================================================================
        Atom           X                  Y                  Z         # in input
     ==============================================================================
        Basis: cc-pvdz
        1  H     1.638033502034     1.136556880358     9.448630622825        1
        2  H    -1.638033502034     1.136556880358     9.448630622825        2
        3  O     0.000000000000    -0.143222342981     9.448630622825        3
        4 He     0.188972612457    -0.037794522491    14.229637717975        4
     ==============================================================================

  - Cholesky decomposition of AO overlap to get linearly independent AOs:

     Linear dependence threshold:             0.10E-05
     Number of atomic orbitals:               29
     Number of orthonormal atomic orbitals:   29

  - Molecular orbital details:

     Number of occupied orbitals:         6
     Number of virtual orbitals:         23
     Number of molecular orbitals:       29


  :: Hartree-Fock engine
  =========================

  Drives the calculation of the Hartree-Fock state.

  This is a RHF ground state calculation.
  The following tasks will be performed:

     1) Generate initial SAD density
     2) Calculation of reference state (SCF-DIIS algorithm)


  1) Generate initial SAD density


  2) Calculation of reference state (SCF-DIIS algorithm)

  - Setting initial AO density to sad

     Energy of initial guess:               -78.492022836321
     Number of electrons in guess:           12.000000000000

  - Screening and integral thresholds:

     Coulomb screening threshold:    0.1000E-16
     Exchange screening threshold:   0.1000E-14
     ERI cutoff:                     0.1000E-16
     One-electron integral  cutoff:  0.1000E-21
     Cumulative Fock threshold:      0.1000E+01

  - SCF solver settings:

     Maximum iterations:                   100
     Acceleration type:                   diis

  - Convergence thresholds

     Residual threshold:            0.1000E-10
     Energy threshold:              0.1000E-10

  - DIIS tool settings:

     DIIS dimension:   8

     Storage (solver scf_errors): memory
     Storage (solver scf_parameters): memory

  Iteration       Energy (a.u.)      Max(grad.)    Delta E (a.u.)
  ---------------------------------------------------------------
     1           -78.796606592585     0.9786E-01     0.7880E+02
     2           -78.828675852654     0.7077E-01     0.3207E-01
     3           -78.843487343819     0.6747E-02     0.1481E-01
     4           -78.843814479549     0.2753E-02     0.3271E-03
     5           -78.843850612079     0.3973E-03     0.3613E-04
     6           -78.843851670925     0.5220E-04     0.1059E-05
     7           -78.843851692779     0.6096E-05     0.2185E-07
     8           -78.843851693528     0.2137E-05     0.7488E-09
     9           -78.843851693630     0.3151E-06     0.1028E-09
    10           -78.843851693631     0.2637E-07     0.4263E-12
    11           -78.843851693631     0.5634E-08     0.2842E-13
    12           -78.843851693631     0.1415E-08     0.4263E-13
    13           -78.843851693631     0.6806E-09     0.2842E-13
    14           -78.843851693631     0.1491E-09     0.1421E-13
    15           -78.843851693631     0.2501E-10     0.2842E-13
    16           -78.843851693631     0.5168E-11     0.0000E+00
  ---------------------------------------------------------------
  Convergence criterion met in 16 iterations!

  - Summary of RHF wavefunction energetics (a.u.):

     HOMO-LUMO gap:                  0.645629080245
     Nuclear repulsion energy:      12.116100574587
     Electronic energy:            -90.959952268218
     Total energy:                 -78.843851693631

  - Timings for the RHF ground state calculation

     Total wall time (sec):              0.39000
     Total cpu time (sec):               0.45699


  :: MLCC2 wavefunction
  ========================

     Bath orbital(s):         False

   - Number of orbitals:

     Occupied orbitals:    6
     Virtual orbitals:     23
     Molecular orbitals:   29
     Atomic orbitals:      29


  Cholesky-decomposing electron repulsion integrals
  =================================================

  Cholesky decomposition of electronic repulsion integrals solver
  ---------------------------------------------------------------

  Performs a Cholesky decomposition of the two-electron electronic repulsion 
  integrals in the atomic orbital basis,

  (ab|cd) = sum_J L_ab^J L_cd^J.

  Once the Cholesky basis has been determined, the vectors L^J are constructed 
  and stored to disk. These may either be used directly, or be transformed 
  to the MO basis for use in post-HF calculations. For more information, 
  see S. D. Folkestad, E. F. Kjønstad and H. Koch, JCP, 150(19), (2019)

  - Cholesky decomposition settings:

     Target threshold is:   0.10E-11
     Span factor:           0.10E-01
     Max qual:                  1000

  - Cholesky decomposition ao details:

     Total number of AOs:                    29
     Total number of shell pairs:           120
     Total number of AO pairs:              435

     Significant shell pairs:               118
     Significant AO pairs:                  431

     Construct shell pairs:                 120
     Construct AO pairs:                    435

  Iter.  #Sign. ao pairs / shell pairs   Max diagonal    #Qualified    #Cholesky    Cholesky array size
  -------------------------------------------------------------------------------------------------------
     1               406 /     108       0.47383E+01         147             42             17052
     2               319 /      93       0.47165E-01         234            111             35409
     3               250 /      76       0.46944E-03         178            183             45750
     4               187 /      55       0.38270E-05         145            265             49555
     5                87 /      25       0.38106E-07          78            324             28188
     6                21 /       3       0.37202E-09          43            349              7329
     7                 0 /       0       0.36652E-11           7            354                 0
  -------------------------------------------------------------------------------------------------------

  - Summary of Cholesky decomposition of electronic repulsion integrals:

     Final number of Cholesky vectors: 354

 - Testing the Cholesky decomposition decomposition electronic repulsion integrals:

     Maximal difference between approximate and actual diagonal:              0.7161E-12
     Minimal element of difference between approximate and actual diagonal:  -0.1238E-14

  - Settings for integral handling:

     Cholesky vectors in memory: True
     ERI matrix in memory:       False

  - Finished decomposing the ERIs.

     Total wall time (sec):              0.30400
     Total cpu time (sec):               0.22544

     The smallest diagonal after decomposition is:  -0.1245E-15

     The smallest diagonal after decomposition is:  -0.1404E-14

  - MLCC2 orbital partitioning:

     Orbital type: cholesky

     Number occupied cc2 orbitals:    6
     Number virtual cc2 orbitals:    23

     Number occupied ccs orbitals:    0
     Number virtual ccs orbitals:     0

  Warning: no ccs orbitals in mlcc2 calculation, recomended to run standard 
           cc2 code.


  Determining CC cluster amplitudes
  =================================

   - DIIS coupled cluster ground state solver
  ----------------------------------------------

  A DIIS CC ground state amplitude equations solver. It uses an extrapolation 
  of previous quasi-Newton perturbation theory estimates of the next amplitudes. 
  See Helgaker et al., Molecular Electronic Structure Theory, Chapter 
  13.

  - CC ground state solver settings:

  - Convergence thresholds

     Residual threshold:            0.1000E-10
     Energy threshold:              0.1000E-10
     Max number of iterations:      100

  - DIIS tool settings:

     DIIS dimension:   8

     Storage (cc_gs_diis_errors): file
     Storage (cc_gs_diis_parameters): file

  Iteration    Energy (a.u.)        |omega|       Delta E (a.u.)
  ---------------------------------------------------------------
    1           -79.084241931608     0.3734E-01     0.7908E+02
    2           -79.085431671929     0.7567E-02     0.1190E-02
    3           -79.085759807021     0.9940E-03     0.3281E-03
    4           -79.085768585650     0.1833E-03     0.8779E-05
    5           -79.085769937826     0.3615E-04     0.1352E-05
    6           -79.085769725742     0.6004E-05     0.2121E-06
    7           -79.085769729164     0.2063E-05     0.3422E-08
    8           -79.085769729229     0.3646E-06     0.6527E-10
    9           -79.085769729230     0.3393E-07     0.9095E-12
   10           -79.085769729553     0.4633E-08     0.3225E-09
   11           -79.085769729585     0.9303E-09     0.3266E-10
   12           -79.085769729575     0.2416E-09     0.1073E-10
   13           -79.085769729575     0.4926E-10     0.4547E-12
   14           -79.085769729576     0.6371E-11     0.3979E-12
  ---------------------------------------------------------------
  Convergence criterion met in 14 iterations!

  - Ground state summary:

     Final ground state energy (a.u.):   -79.085769729576

     Correlation energy (a.u.):           -0.241918035945

     Largest single amplitudes:
     -----------------------------------
        a       i         t(a,i)
     -----------------------------------
        1      5        0.015071367764
       14      4       -0.009516336778
        7      4       -0.008547796584
       15      5        0.006232215147
        5      6        0.005875107061
        6      2       -0.005220429230
       13      5       -0.005212699582
        2      4       -0.005071084624
       11      6       -0.003616248565
        4      5        0.003233309229
     ------------------------------------

  - Finished solving the MLCC2 ground state equations

     Total wall time (sec):              0.18800
     Total cpu time (sec):               0.09469


  Determining CC excited state amplitudes
  =======================================

  Davidson eigenvalue equation solver
  -----------------------------------

  A Davidson solver that solves an eigenvalue equation: M x = omega x. 
  This equation is solved in a reduced space. A description of the algorithm 
  can be found in E. R. Davidson, J. Comput. Phys. 17, 87 (1975).

   - Davidson tool settings:

     Number of parameters:                 9729
     Number of requested solutions:           2
     Max reduced space dimension:           100

     Storage (cc_es_davidson_trials): memory
     Storage (cc_es_davidson_transforms): memory

  - Davidson solver settings

     Number of singlet states:               2
     Max number of iterations:             100

  Iteration:                  1
  Reduced space dimension:    2

  Root  Eigenvalue (Re)   Eigenvalue (Im)    |residual|   Delta E (Re)
  -------------------------------------------------------------------------
     1  20.320582403887    0.000000000000     0.1089E+01   0.2032E+02
     2  20.384108490492    0.000000000000     0.1091E+01   0.2038E+02
  -------------------------------------------------------------------------

  Iteration:                  2
  Reduced space dimension:    4

  Root  Eigenvalue (Re)   Eigenvalue (Im)    |residual|   Delta E (Re)
  -------------------------------------------------------------------------
     1  19.733651506144    0.000000000000     0.1813E+00   0.5869E+00
     2  19.802527575957    0.000000000000     0.2004E+00   0.5816E+00
  -------------------------------------------------------------------------

  Iteration:                  3
  Reduced space dimension:    6

  Root  Eigenvalue (Re)   Eigenvalue (Im)    |residual|   Delta E (Re)
  -------------------------------------------------------------------------
     1  19.723739113498    0.000000000000     0.3292E-01   0.9912E-02
     2  19.789226303070    0.000000000000     0.4135E-01   0.1330E-01
  -------------------------------------------------------------------------

  Iteration:                  4
  Reduced space dimension:    8

  Root  Eigenvalue (Re)   Eigenvalue (Im)    |residual|   Delta E (Re)
  -------------------------------------------------------------------------
     1  19.723202499079    0.000000000000     0.2589E-01   0.5366E-03
     2  19.788155539826    0.000000000000     0.3988E-01   0.1071E-02
  -------------------------------------------------------------------------

  Iteration:                  5
  Reduced space dimension:   10

  Root  Eigenvalue (Re)   Eigenvalue (Im)    |residual|   Delta E (Re)
  -------------------------------------------------------------------------
     1  19.723884502906    0.000000000000     0.6711E-02   0.6820E-03
     2  19.789378288984    0.000000000000     0.8787E-02   0.1223E-02
  -------------------------------------------------------------------------

  Iteration:                  6
  Reduced space dimension:   12

  Root  Eigenvalue (Re)   Eigenvalue (Im)    |residual|   Delta E (Re)
  -------------------------------------------------------------------------
     1  19.723942791686    0.000000000000     0.1858E-02   0.5829E-04
     2  19.789429406935    0.000000000000     0.4671E-02   0.5112E-04
  -------------------------------------------------------------------------

  Iteration:                  7
  Reduced space dimension:   14

  Root  Eigenvalue (Re)   Eigenvalue (Im)    |residual|   Delta E (Re)
  -------------------------------------------------------------------------
     1  19.723943939768    0.000000000000     0.7199E-03   0.1148E-05
     2  19.789356610823    0.000000000000     0.1576E-02   0.7280E-04
  -------------------------------------------------------------------------

  Iteration:                  8
  Reduced space dimension:   16

  Root  Eigenvalue (Re)   Eigenvalue (Im)    |residual|   Delta E (Re)
  -------------------------------------------------------------------------
     1  19.723940242569    0.000000000000     0.2017E-03   0.3697E-05
     2  19.789335555386    0.000000000000     0.3969E-03   0.2106E-04
  -------------------------------------------------------------------------

  Iteration:                  9
  Reduced space dimension:   18

  Root  Eigenvalue (Re)   Eigenvalue (Im)    |residual|   Delta E (Re)
  -------------------------------------------------------------------------
     1  19.723936518266    0.000000000000     0.5122E-04   0.3724E-05
     2  19.789326483683    0.000000000000     0.3970E-04   0.9072E-05
  -------------------------------------------------------------------------

  Iteration:                 10
  Reduced space dimension:   20

  Root  Eigenvalue (Re)   Eigenvalue (Im)    |residual|   Delta E (Re)
  -------------------------------------------------------------------------
     1  19.723936464244    0.000000000000     0.7999E-05   0.5402E-07
     2  19.789326460656    0.000000000000     0.1066E-04   0.2303E-07
  -------------------------------------------------------------------------

  Iteration:                 11
  Reduced space dimension:   22

  Root  Eigenvalue (Re)   Eigenvalue (Im)    |residual|   Delta E (Re)
  -------------------------------------------------------------------------
     1  19.723936424920    0.000000000000     0.2897E-05   0.3932E-07
     2  19.789326419503    0.000000000000     0.1840E-05   0.4115E-07
  -------------------------------------------------------------------------

  Iteration:                 12
  Reduced space dimension:   24

  Root  Eigenvalue (Re)   Eigenvalue (Im)    |residual|   Delta E (Re)
  -------------------------------------------------------------------------
     1  19.723936409221    0.000000000000     0.5930E-06   0.1570E-07
     2  19.789326454697    0.000000000000     0.5789E-06   0.3519E-07
  -------------------------------------------------------------------------

  Iteration:                 13
  Reduced space dimension:   26

  Root  Eigenvalue (Re)   Eigenvalue (Im)    |residual|   Delta E (Re)
  -------------------------------------------------------------------------
     1  19.723936411039    0.000000000000     0.1954E-06   0.1819E-08
     2  19.789326449240    0.000000000000     0.6128E-07   0.5456E-08
  -------------------------------------------------------------------------

  Iteration:                 14
  Reduced space dimension:   28

  Root  Eigenvalue (Re)   Eigenvalue (Im)    |residual|   Delta E (Re)
  -------------------------------------------------------------------------
     1  19.723936409489    0.000000000000     0.1943E-07   0.1550E-08
     2  19.789326448827    0.000000000000     0.1338E-07   0.4130E-09
  -------------------------------------------------------------------------

  Iteration:                 15
  Reduced space dimension:   30

  Root  Eigenvalue (Re)   Eigenvalue (Im)    |residual|   Delta E (Re)
  -------------------------------------------------------------------------
     1  19.723936409520    0.000000000000     0.8351E-08   0.3120E-10
     2  19.789326448864    0.000000000000     0.3840E-08   0.3667E-10
  -------------------------------------------------------------------------

  Iteration:                 16
  Reduced space dimension:   32

  Root  Eigenvalue (Re)   Eigenvalue (Im)    |residual|   Delta E (Re)
  -------------------------------------------------------------------------
     1  19.723936409602    0.000000000000     0.9200E-09   0.8238E-10
     2  19.789326448866    0.000000000000     0.1390E-08   0.2181E-11
  -------------------------------------------------------------------------

  Iteration:                 17
  Reduced space dimension:   34

  Root  Eigenvalue (Re)   Eigenvalue (Im)    |residual|   Delta E (Re)
  -------------------------------------------------------------------------
     1  19.723936409608    0.000000000000     0.2664E-09   0.5805E-11
     2  19.789326448864    0.000000000000     0.1247E-09   0.2146E-11
  -------------------------------------------------------------------------

  Iteration:                 18
  Reduced space dimension:   36

  Root  Eigenvalue (Re)   Eigenvalue (Im)    |residual|   Delta E (Re)
  -------------------------------------------------------------------------
     1  19.723936409605    0.000000000000     0.4961E-10   0.3670E-11
     2  19.789326448864    0.000000000000     0.1849E-10   0.3908E-13
  -------------------------------------------------------------------------

  Iteration:                 19
  Reduced space dimension:   38

  Root  Eigenvalue (Re)   Eigenvalue (Im)    |residual|   Delta E (Re)
  -------------------------------------------------------------------------
     1  19.723936409604    0.000000000000     0.1309E-10   0.3979E-12
     2  19.789326448864    0.000000000000     0.6435E-11   0.5329E-13
  -------------------------------------------------------------------------

  Iteration:                 20
  Reduced space dimension:   39

  Root  Eigenvalue (Re)   Eigenvalue (Im)    |residual|   Delta E (Re)
  -------------------------------------------------------------------------
     1  19.723936409604    0.000000000000     0.1043E-11   0.9948E-13
     2  19.789326448864    0.000000000000     0.3115E-11   0.3553E-14
  -------------------------------------------------------------------------
  Convergence criterion met in 20 iterations!

  - Excitation vector amplitudes:

     Electronic state nr. 1

     Energy (Hartree):                 19.723936409604
     Fraction singles (|R1|/|R|):       0.946108068001

     MLCC diagnostics:

     |R1^internal|/|R| =       0.946108068001
     |R1^internal|/|R1| =      1.000000000000

     Largest single amplitudes:
     -----------------------------------
        a       i         R(a,i)
     -----------------------------------
        1      1       -0.933544110056
        4      1       -0.131196255992
        6      1       -0.060924883088
       13      1       -0.041658777682
       15      1        0.027266910851
        9      1       -0.009868333770
       10      1        0.007575319032
       11      1        0.006226655290
        8      1        0.003068858335
       22      1       -0.002642782596
     ------------------------------------

     Electronic state nr. 2

     Energy (Hartree):                 19.789326448864
     Fraction singles (|R1|/|R|):       0.949391066449

     MLCC diagnostics:

     |R1^internal|/|R| =       0.949391066449
     |R1^internal|/|R1| =      1.000000000000

     Largest single amplitudes:
     -----------------------------------
        a       i         R(a,i)
     -----------------------------------
        2      1       -0.926615633658
        3      1       -0.168553111330
        7      1        0.110760119593
       14      1        0.043749964888
       12      1       -0.010462925050
       23      1       -0.004757759273
        4      1        0.001024417319
        5      1        0.000802726288
       17      1       -0.000743169587
        1      1       -0.000572766359
     ------------------------------------

  - MLCC2 excitation energies:

                                      Excitation energy
                          ------------------------------------------
      State                (Hartree)             (eV)
     ---------------------------------------------------------------
        1                 19.723936409604      536.715647475670
        2                 19.789326448864      538.495001075838
     ---------------------------------------------------------------
     eV/Hartree (CODATA 2014): 27.21138602

  ------------------------------------------------------------

  Peak memory usage during the execution of eT: 23.147332 MB

  :: There was 1 warning during the execution of eT. ::

  Total wall time in eT (sec):              1.25000
  Total cpu time in eT (sec):               1.08151

  Calculation ended: 2022-04-07 12:35:53 UTC -07:00

  - Implementation references:

     eT: https://doi.org/10.1063/5.0004713
     MLCC2 and MLCCSD: https://doi.org/10.1021/acs.jctc.9b00701
     Cholesky decomposition of ERIs: https://doi.org/10.1063/1.5083802

  eT terminated successfully!
