   0.0000000000000000        0.0000000000000000        0.0000000000000000        0.0000000000000000        0.0000000000000000        0.0000000000000000        0.0000000000000000     
   2.0000000000000000E-002   0.0000000000000000        0.0000000000000000        0.0000000000000000        0.0000000000000000        9.2979367089351755E-002   0.0000000000000000     
   4.0000000000000001E-002   0.0000000000000000        0.0000000000000000        0.0000000000000000        0.0000000000000000       0.34036907780773029        0.0000000000000000     
   5.9999999999999998E-002   0.0000000000000000        0.0000000000000000        0.0000000000000000        0.0000000000000000       0.65018963932007712        0.0000000000000000     
   8.0000000000000002E-002   0.0000000000000000        0.0000000000000000        0.0000000000000000        0.0000000000000000       0.90301513570771297        0.0000000000000000     
  0.10000000000000001        0.0000000000000000        0.0000000000000000        0.0000000000000000        0.0000000000000000        1.0000000000000000        0.0000000000000000     
  0.12000000000000000        0.0000000000000000        0.0000000000000000        0.0000000000000000        0.0000000000000000       0.90301513570771319        0.0000000000000000     
  0.14000000000000001        0.0000000000000000        0.0000000000000000        0.0000000000000000        0.0000000000000000       0.65018963932007723        0.0000000000000000     
  0.16000000000000000        0.0000000000000000        0.0000000000000000        0.0000000000000000        0.0000000000000000       0.34036907780773046        0.0000000000000000     
  0.17999999999999999        0.0000000000000000        0.0000000000000000        0.0000000000000000        0.0000000000000000        9.2979367089351825E-002   0.0000000000000000     
  0.20000000000000001        0.0000000000000000        0.0000000000000000        0.0000000000000000        0.0000000000000000        1.4382643239712584E-032   0.0000000000000000     
  0.22000000000000000        0.0000000000000000        0.0000000000000000        0.0000000000000000        0.0000000000000000        0.0000000000000000        0.0000000000000000     
  0.23999999999999999        0.0000000000000000        0.0000000000000000        0.0000000000000000        0.0000000000000000        0.0000000000000000        0.0000000000000000     
  0.26000000000000001        0.0000000000000000        0.0000000000000000        0.0000000000000000        0.0000000000000000        0.0000000000000000        0.0000000000000000     
  0.28000000000000003        0.0000000000000000        0.0000000000000000        0.0000000000000000        0.0000000000000000        0.0000000000000000        0.0000000000000000     
  0.29999999999999999        0.0000000000000000        0.0000000000000000        0.0000000000000000        0.0000000000000000        0.0000000000000000        0.0000000000000000     
  0.32000000000000001        0.0000000000000000        0.0000000000000000        0.0000000000000000        0.0000000000000000        0.0000000000000000        0.0000000000000000     
  0.34000000000000002        0.0000000000000000        0.0000000000000000        0.0000000000000000        0.0000000000000000        0.0000000000000000        0.0000000000000000     
  0.35999999999999999        0.0000000000000000        0.0000000000000000        0.0000000000000000        0.0000000000000000        0.0000000000000000        0.0000000000000000     
  0.38000000000000000        0.0000000000000000        0.0000000000000000        0.0000000000000000        0.0000000000000000        0.0000000000000000        0.0000000000000000     
  0.40000000000000002        0.0000000000000000        0.0000000000000000        0.0000000000000000        0.0000000000000000        0.0000000000000000        0.0000000000000000     
  0.41999999999999998        0.0000000000000000        0.0000000000000000        0.0000000000000000        0.0000000000000000        0.0000000000000000        0.0000000000000000     
  0.44000000000000000        0.0000000000000000        0.0000000000000000        0.0000000000000000        0.0000000000000000        0.0000000000000000        0.0000000000000000     
  0.46000000000000002        0.0000000000000000        0.0000000000000000        0.0000000000000000        0.0000000000000000        0.0000000000000000        0.0000000000000000     
  0.47999999999999998        0.0000000000000000        0.0000000000000000        0.0000000000000000        0.0000000000000000        0.0000000000000000        0.0000000000000000     
  0.50000000000000000        0.0000000000000000        0.0000000000000000        0.0000000000000000        0.0000000000000000        0.0000000000000000        0.0000000000000000     
