   0.0000000000000000       -2.6267594656331772E-004   0.0000000000000000       0.77436812382174858        0.0000000000000000        2.3689445405068454E-003   0.0000000000000000     
   2.0000000000000000E-002  -2.6267594656331772E-004  -5.4161429597448019E-015  0.77436812382174858       -3.0925278041563180E-013   2.3689445405068454E-003   5.8525556377060287E-014
   4.0000000000000001E-002  -2.6268620511621377E-004   7.6537233617742284E-009  0.77436619545191365        1.8476524978537991E-007   2.3689852763766339E-003  -7.8811189743071327E-009
   5.9999999999999998E-002  -2.6253897728317765E-004   3.4235364450862494E-008  0.77432669314865699        8.9739343468146234E-007   2.8292305493096137E-003  -7.1087002029247490E-007
   8.0000000000000002E-002  -2.6152356380587660E-004   7.0410566653650026E-008  0.77410926576288297        2.5240366461021734E-006   4.9734854536183093E-003  -8.7878559041731745E-006
  0.10000000000000001       -2.5831884709232034E-004   7.2647023073040451E-008  0.77349819709700895        5.4937372652676586E-006   1.0328854152291456E-002  -4.1934978687369409E-005
  0.12000000000000000       -2.5161347424346170E-004   5.6439468704537889E-009  0.77240326564012052        9.8153005578523558E-006   2.0124018855966597E-002  -1.0984218998326585E-004
  0.14000000000000001       -2.4117860092881527E-004  -9.3988770531896028E-008  0.77103935465484885        1.4565378058767703E-005   3.4791529925684017E-002  -1.8769420185137369E-004
  0.16000000000000000       -2.2828120465279156E-004  -1.5483253477092561E-007  0.76983981254195677        1.8237519377383300E-005   5.3778040909904234E-002  -2.3695149896380864E-004
  0.17999999999999999       -2.1480568182496995E-004  -1.6547167628039978E-007  0.76914166745582224        1.9847728330713558E-005   7.5737831331878169E-002  -2.5079234946728639E-004
  0.20000000000000001       -2.0187428953366560E-004  -1.6621754960921174E-007  0.76894375631565082        1.9617900986513924E-005   9.9029482915497624E-002  -2.5046140642416646E-004
  0.22000000000000000       -1.8929195531891541E-004  -1.7318387982892503E-007  0.76894133231321726        1.8678203618453559E-005  0.12231889073777324       -2.4895797466461742E-004
  0.23999999999999999       -1.7664471763739753E-004  -1.8115934168404333E-007  0.76893209672351059        1.7712944255775833E-005  0.14505735763769678       -2.4694135347809194E-004
  0.26000000000000001       -1.6390419006345747E-004  -1.9045670533160333E-007  0.76891499782809580        1.6707846475932358E-005  0.16720130572107905       -2.4444151688960813E-004
  0.28000000000000003       -1.5104206512028817E-004  -2.0132190540545544E-007  0.76888891641852808        1.5661402336360128E-005  0.18876163592076978       -2.4148439989667928E-004
  0.29999999999999999       -1.3803222681574301E-004  -2.1390798978739489E-007  0.76885283460755205        1.4588785703711033E-005  0.20980091205942131       -2.3808546573997943E-004
  0.32000000000000001       -1.2485346353191540E-004  -2.2828213465825873E-007  0.76880600768319929        1.3523873365052234E-005  0.23042132672441085       -2.3424558432393787E-004
  0.34000000000000002       -1.1149238011964879E-004  -2.4444827064353214E-007  0.76874809936417909        1.2519794781077939E-005  0.25074415039824771       -2.2995213107936639E-004
  0.35999999999999999       -9.7946246792823821E-005  -2.6233414521104471E-007  0.76867923635176449        1.1650716024600876E-005  0.27088283841128202       -2.2518633189913583E-004
  0.38000000000000000       -8.4225979627261527E-005  -2.8166527054808855E-007  0.76859993614844657        1.1019173251411500E-005  0.29091317904288871       -2.1993451311872868E-004
  0.40000000000000002       -7.0360112211953485E-005  -3.0164236525458512E-007  0.76851085606193870        1.0772113014060066E-005  0.31084467452988918       -2.1419772098356881E-004
  0.41999999999999998       -5.6401302032049738E-005  -3.2034898513617606E-007  0.76841228788050264        1.1123226967528375E-005  0.33059777978623117       -2.0799304716177835E-004
  0.44000000000000000       -4.2437631417091559E-005  -3.3379972683032284E-007  0.76830326016508588        1.2369185807195137E-005  0.34999177511272705       -2.0134187508227846E-004
  0.46000000000000002       -2.8612387161619512E-005  -3.3440095786194465E-007  0.76817997402689830        1.4874981522465172E-005  0.36874785563503565       -1.9424439212639602E-004
  0.47999999999999998       -1.5159984757651124E-005  -3.0818219832251444E-007  0.76803303003244738        1.8991454401172612E-005  0.38651101850255998       -1.8664344847336468E-004
  0.50000000000000000       -2.4756405670456338E-006  -2.2925951749486976E-007  0.76784239341170313        2.4856471832231425E-005  0.40289162993043703       -1.7838041105012635E-004
