


                     eT 1.7 - an electronic structure program

  ------------------------------------------------------------------------
   Author list in alphabetical order:
  ------------------------------------------------------------------------
   J. H. Andersen, A. Balbi, S. Coriani, S. D. Folkestad, T. Giovannini, 
   L. Goletto, T. S. Haugland, A. Hutcheson, I-M. Høyvik, E. F. Kjønstad, 
   H. Koch, R. Matveeva, T. Moitra, R. H. Myhre, A. C. Paul, S. Roet, 
   E. RoncaM. Scavino, A. K. Schnack-Petersen, A. S. Skeidsvoll, Å. 
   H. Tveten
  ------------------------------------------------------------------------
   J. Chem. Phys. 152, 184103 (2020); https://doi.org/10.1063/5.0004713


   This is eT 1.7.0 Hydra
  ------------------------------------------------------------
  Configuration date: 2022-04-07 12:33:31 UTC -07:00
  Git branch:         release-v1.7.0
  Git hash:           c5c382d7d23365463896a87c37298e4a37e4c962
  Fortran compiler:   GNU 11.2.0
  C compiler:         GNU 11.2.0
  C++ compiler:       GNU 11.2.0
  LAPACK type:        SYSTEM_NATIVE
  BLAS type:          SYSTEM_NATIVE
  64-bit integers:    OFF
  OpenMP:             ON
  PCM:                OFF
  Forced batching:    OFF
  Runtime checks:     OFF
  ------------------------------------------------------------

  Calculation started: 2022-04-07 12:34:46 UTC -07:00


  :: Input file
  ================

     Note: geometry section is excluded from this print

     system
        name: HOF He
     end system

     do
       ground state
       mean value
     end do

     cc mean value
        dipole
     end cc mean value

     memory
        available: 8
     end memory

     method
        hf
        cc2
     end method

     ! Solver settings:

     solver scf
        algorithm: scf-diis
        gradient threshold: 1.0d-11
        energy threshold: 1.0d-11
     end solver scf

     solver cc gs
        omega threshold: 1.0d-11
        energy threshold: 1.0d-11
     end solver cc gs

     solver cc multipliers
        threshold: 1.0d-11
        algorithm: diis
     end solver cc multipliers

     solver cholesky
        threshold: 1.0d-11
     end solver cholesky


  Running on 2 OMP threads
  Memory available for calculation: 8.000000 GB


  :: RHF wavefunction
  ======================

     ==============================================================================
                                     Geometry (angstrom)
     ==============================================================================
        Atom           X                  Y                  Z         # in input
     ==============================================================================
        Basis: cc-pvdz
        1  H     0.866810000000     0.601440000000     5.000000000000        1
        2  F    -0.866810000000     0.601440000000     5.000000000000        2
        3  O     0.000000000000    -0.075790000000     5.000000000000        3
        4 He     0.100000000000     0.100000000000     7.500000000000        4
     ==============================================================================

     ==============================================================================
                                     Geometry (a.u.)
     ==============================================================================
        Atom           X                  Y                  Z         # in input
     ==============================================================================
        Basis: cc-pvdz
        1  H     1.638033502034     1.136556880358     9.448630622825        1
        2  F    -1.638033502034     1.136556880358     9.448630622825        2
        3  O     0.000000000000    -0.143222342981     9.448630622825        3
        4 He     0.188972612457     0.188972612457    14.172945934238        4
     ==============================================================================

  - Cholesky decomposition of AO overlap to get linearly independent AOs:

     Linear dependence threshold:             0.10E-05
     Number of atomic orbitals:               38
     Number of orthonormal atomic orbitals:   38

  - Molecular orbital details:

     Number of occupied orbitals:        10
     Number of virtual orbitals:         28
     Number of molecular orbitals:       38


  :: Hartree-Fock engine
  =========================

  Drives the calculation of the Hartree-Fock state.

  This is a RHF ground state calculation.
  The following tasks will be performed:

     1) Generate initial SAD density
     2) Calculation of reference state (SCF-DIIS algorithm)


  1) Generate initial SAD density


  2) Calculation of reference state (SCF-DIIS algorithm)

  - Setting initial AO density to sad

     Energy of initial guess:              -178.316435989155
     Number of electrons in guess:           20.000000000000

  - Screening and integral thresholds:

     Coulomb screening threshold:    0.1000E-16
     Exchange screening threshold:   0.1000E-14
     ERI cutoff:                     0.1000E-16
     One-electron integral  cutoff:  0.1000E-21
     Cumulative Fock threshold:      0.1000E+01

  - SCF solver settings:

     Maximum iterations:                   100
     Acceleration type:                   diis

  - Convergence thresholds

     Residual threshold:            0.1000E-10
     Energy threshold:              0.1000E-10

  - DIIS tool settings:

     DIIS dimension:   8

     Storage (solver scf_errors): memory
     Storage (solver scf_parameters): memory

  Iteration       Energy (a.u.)      Max(grad.)    Delta E (a.u.)
  ---------------------------------------------------------------
     1          -177.452460025510     0.7565E-01     0.1775E+03
     2          -177.479057956534     0.1129E-01     0.2660E-01
     3          -177.480052448592     0.4142E-02     0.9945E-03
     4          -177.480180104061     0.1387E-02     0.1277E-03
     5          -177.480194080187     0.4312E-03     0.1398E-04
     6          -177.480195433667     0.8262E-04     0.1353E-05
     7          -177.480195516708     0.2289E-04     0.8304E-07
     8          -177.480195527015     0.4801E-05     0.1031E-07
     9          -177.480195527844     0.1045E-05     0.8289E-09
    10          -177.480195527874     0.2388E-06     0.3078E-10
    11          -177.480195527875     0.5236E-07     0.7958E-12
    12          -177.480195527875     0.9618E-08     0.1421E-12
    13          -177.480195527875     0.4310E-08     0.8527E-13
    14          -177.480195527875     0.1983E-08     0.2842E-13
    15          -177.480195527875     0.6772E-09     0.8527E-13
    16          -177.480195527875     0.1634E-09     0.0000E+00
    17          -177.480195527875     0.4727E-10     0.1137E-12
    18          -177.480195527875     0.8075E-11     0.2842E-13
  ---------------------------------------------------------------
  Convergence criterion met in 18 iterations!

  - Summary of RHF wavefunction energetics (a.u.):

     HOMO-LUMO gap:                  0.600390987894
     Nuclear repulsion energy:      48.499011140892
     Electronic energy:           -225.979206668767
     Total energy:                -177.480195527875

  - Timings for the RHF ground state calculation

     Total wall time (sec):              1.55300
     Total cpu time (sec):               1.23142


  :: CC2 wavefunction
  ======================

     Bath orbital(s):         False

   - Number of orbitals:

     Occupied orbitals:    10
     Virtual orbitals:     28
     Molecular orbitals:   38
     Atomic orbitals:      38

   - Number of ground state amplitudes:

     Single excitation amplitudes:  280
     Double excitation amplitudes:  39340


  Cholesky-decomposing electron repulsion integrals
  =================================================

  Cholesky decomposition of electronic repulsion integrals solver
  ---------------------------------------------------------------

  Performs a Cholesky decomposition of the two-electron electronic repulsion 
  integrals in the atomic orbital basis,

  (ab|cd) = sum_J L_ab^J L_cd^J.

  Once the Cholesky basis has been determined, the vectors L^J are constructed 
  and stored to disk. These may either be used directly, or be transformed 
  to the MO basis for use in post-HF calculations. For more information, 
  see S. D. Folkestad, E. F. Kjønstad and H. Koch, JCP, 150(19), (2019)

  - Cholesky decomposition settings:

     Target threshold is:   0.10E-10
     Span factor:           0.10E-01
     Max qual:                  1000

  - Cholesky decomposition ao details:

     Total number of AOs:                    38
     Total number of shell pairs:           171
     Total number of AO pairs:              741

     Significant shell pairs:               161
     Significant AO pairs:                  697

     Construct shell pairs:                 171
     Construct AO pairs:                    741

  Iter.  #Sign. ao pairs / shell pairs   Max diagonal    #Qualified    #Cholesky    Cholesky array size
  -------------------------------------------------------------------------------------------------------
     1               671 /     150       0.53537E+01         194             49             32879
     2               524 /     128       0.52718E-01         398            155             81220
     3               484 /     114       0.52421E-03         303            243            117612
     4               362 /      92       0.51415E-05         311            362            131044
     5               232 /      54       0.50229E-07         225            475            110200
     6                 0 /       0       0.50128E-09         127            550                 0
  -------------------------------------------------------------------------------------------------------

  - Summary of Cholesky decomposition of electronic repulsion integrals:

     Final number of Cholesky vectors: 550

 - Testing the Cholesky decomposition decomposition electronic repulsion integrals:

     Maximal difference between approximate and actual diagonal:              0.9471E-11
     Minimal element of difference between approximate and actual diagonal:  -0.2440E-14

  - Settings for integral handling:

     Cholesky vectors in memory: True
     ERI matrix in memory:       False

  - Finished decomposing the ERIs.

     Total wall time (sec):              0.84200
     Total cpu time (sec):               0.58755


  Determining CC cluster amplitudes
  =================================

   - DIIS coupled cluster ground state solver
  ----------------------------------------------

  A DIIS CC ground state amplitude equations solver. It uses an extrapolation 
  of previous quasi-Newton perturbation theory estimates of the next amplitudes. 
  See Helgaker et al., Molecular Electronic Structure Theory, Chapter 
  13.

  - CC ground state solver settings:

  - Convergence thresholds

     Residual threshold:            0.1000E-10
     Energy threshold:              0.1000E-10
     Max number of iterations:      100

  - DIIS tool settings:

     DIIS dimension:   8

     Storage (cc_gs_diis_errors): file
     Storage (cc_gs_diis_parameters): file

  Iteration    Energy (a.u.)        |omega|       Delta E (a.u.)
  ---------------------------------------------------------------
    1          -177.877001409677     0.4674E-01     0.1779E+03
    2          -177.878674723964     0.9225E-02     0.1673E-02
    3          -177.879094696947     0.1669E-02     0.4200E-03
    4          -177.879150335163     0.5273E-03     0.5564E-04
    5          -177.879146466204     0.9144E-04     0.3869E-05
    6          -177.879146277702     0.1165E-04     0.1885E-06
    7          -177.879146253559     0.3927E-05     0.2414E-07
    8          -177.879146237884     0.1639E-05     0.1568E-07
    9          -177.879146249877     0.3173E-06     0.1199E-07
   10          -177.879146248545     0.6848E-07     0.1332E-08
   11          -177.879146248481     0.1241E-07     0.6349E-10
   12          -177.879146248449     0.2381E-08     0.3212E-10
   13          -177.879146248424     0.5290E-09     0.2515E-10
   14          -177.879146248423     0.6468E-10     0.1307E-11
   15          -177.879146248424     0.1009E-10     0.1108E-11
   16          -177.879146248424     0.2177E-11     0.2842E-13
  ---------------------------------------------------------------
  Convergence criterion met in 16 iterations!

  - Ground state summary:

     Final ground state energy (a.u.):  -177.879146248424

     Correlation energy (a.u.):           -0.398950720549

     Largest single amplitudes:
     -----------------------------------
        a       i         t(a,i)
     -----------------------------------
        1      9        0.022050116775
        3      9        0.008444448646
        4      7        0.006514017946
       14      9       -0.005581547298
        4     10        0.005276241556
        5      6        0.005084191937
       14      6       -0.004916693498
       10      7        0.004447459943
        5      4       -0.004325455304
        3      6       -0.004315437318
     ------------------------------------

  - Finished solving the CC2 ground state equations

     Total wall time (sec):              0.32500
     Total cpu time (sec):               0.21490


  Determining CC multipliers
  ==========================

   - DIIS coupled cluster multipliers solver
  ---------------------------------------------

  A DIIS CC multiplier equations solver. It combines a quasi-Newton perturbation 
  theory estimate of the next multipliers, using least square fitting 
  to find an an optimal combination of previous estimates such that the 
  update is minimized.

  See Helgaker et al., Molecular Electronic Structure Theory, Chapter 
  13, for the more details on this algorithm.

  - DIIS CC multipliers solver settings:

     Residual threshold:        0.10E-10
     Max number of iterations:       100

  - DIIS tool settings:

     DIIS dimension:   8

     Storage (cc_multipliers_diis_errors): file
     Storage (cc_multipliers_diis_parameters): file

  Iteration    Norm residual
  ----------------------------
    1          0.4540E-01
    2          0.8767E-02
    3          0.1302E-02
    4          0.2720E-03
    5          0.6910E-04
    6          0.1040E-04
    7          0.3228E-05
    8          0.1133E-05
    9          0.2403E-06
   10          0.4132E-07
   11          0.5981E-08
   12          0.1072E-08
   13          0.2358E-09
   14          0.4749E-10
   15          0.7119E-11
  ----------------------------
  Convergence criterion met in 15 iterations!

  - Finished solving the cc2 multipliers equations

     Total wall time (sec):              0.38100
     Total cpu time (sec):               0.22586

  - CC multipliers solver summary:

     Largest single amplitudes:
     -----------------------------------
        a       i         tbar(a,i)
     -----------------------------------
        1      9        0.036962642256
        3      9        0.012935991802
        4      7        0.012258896998
       14      9       -0.011861824007
        4     10        0.010369057374
       14      6       -0.010065074999
        3      6       -0.009844666366
        5      6        0.009547250037
       22      8       -0.008767267832
        5      4       -0.008015599057
     ------------------------------------


  Determining CC mean values
  ==========================

  - Operator: dipole [Debye]

     x:          1.2209069
     y:          1.0793948
     z:          0.0108455

     |mu|:       1.6296700

  ------------------------------------------------------------

  Peak memory usage during the execution of eT: 28.066680 MB

  Total wall time in eT (sec):              3.14600
  Total cpu time in eT (sec):               2.30117

  Calculation ended: 2022-04-07 12:34:50 UTC -07:00

  - Implementation references:

     eT: https://doi.org/10.1063/5.0004713
     Cholesky decomposition of ERIs: https://doi.org/10.1063/1.5083802

  eT terminated successfully!
