


                     eT 1.7 - an electronic structure program

  ------------------------------------------------------------------------
   Author list in alphabetical order:
  ------------------------------------------------------------------------
   J. H. Andersen, A. Balbi, S. Coriani, S. D. Folkestad, T. Giovannini, 
   L. Goletto, T. S. Haugland, A. Hutcheson, I-M. Høyvik, E. F. Kjønstad, 
   H. Koch, R. Matveeva, T. Moitra, R. H. Myhre, A. C. Paul, S. Roet, 
   E. RoncaM. Scavino, A. K. Schnack-Petersen, A. S. Skeidsvoll, Å. 
   H. Tveten
  ------------------------------------------------------------------------
   J. Chem. Phys. 152, 184103 (2020); https://doi.org/10.1063/5.0004713


   This is eT 1.7.0 Hydra
  ------------------------------------------------------------
  Configuration date: 2022-04-07 12:33:31 UTC -07:00
  Git branch:         release-v1.7.0
  Git hash:           c5c382d7d23365463896a87c37298e4a37e4c962
  Fortran compiler:   GNU 11.2.0
  C compiler:         GNU 11.2.0
  C++ compiler:       GNU 11.2.0
  LAPACK type:        SYSTEM_NATIVE
  BLAS type:          SYSTEM_NATIVE
  64-bit integers:    OFF
  OpenMP:             ON
  PCM:                OFF
  Forced batching:    OFF
  Runtime checks:     OFF
  ------------------------------------------------------------

  Calculation started: 2022-04-07 12:35:04 UTC -07:00


  :: Input file
  ================

     Note: geometry section is excluded from this print

     system
       name: HOF He
       charge: 0
       multiplicity: 1
     end system

     do
       response
     end do

     method
       hf
       ccsd
     end method

     solver scf
       gradient threshold: 1.0d-11
     end solver scf

     solver cholesky
       threshold: 1.0d-11
     end solver cholesky

     cc response
       lr
       dipole length
       transition moments
     end cc response

     solver cc es
       singlet states: 4
       residual threshold: 1.0d-10
     end solver cc es

     solver cc multipliers
       threshold: 1.0d-10
     end solver cc multipliers

     solver cc gs
       omega threshold: 1.0d-10
     end solver cc gs

     solver cc response
       threshold: 1.0d-10
     end solver cc response


  Running on 2 OMP threads
  Memory available for calculation: 8.000000 GB


  :: RHF wavefunction
  ======================

     ==============================================================================
                                     Geometry (angstrom)
     ==============================================================================
        Atom           X                  Y                  Z         # in input
     ==============================================================================
        Basis: 6-31g
        1  O     0.059000000000     0.059000000000     0.000000000000        1
        2  H    -0.081000000000     1.022000000000    -0.000000000000        2
        3  F     1.022000000000    -0.081000000000    -0.000000000000        3
        4 He     3.000000000000    -1.000000000000     0.000000000000        4
     ==============================================================================

     ==============================================================================
                                     Geometry (a.u.)
     ==============================================================================
        Atom           X                  Y                  Z         # in input
     ==============================================================================
        Basis: 6-31g
        1  O     0.111493841349     0.111493841349     0.000000000000        1
        2  H    -0.153067816090     1.931300099305    -0.000000000000        2
        3  F     1.931300099305    -0.153067816090    -0.000000000000        3
        4 He     5.669178373695    -1.889726124565     0.000000000000        4
     ==============================================================================

  - Cholesky decomposition of AO overlap to get linearly independent AOs:

     Linear dependence threshold:             0.10E-05
     Number of atomic orbitals:               22
     Number of orthonormal atomic orbitals:   22

  - Molecular orbital details:

     Number of occupied orbitals:        10
     Number of virtual orbitals:         12
     Number of molecular orbitals:       22


  :: Hartree-Fock engine
  =========================

  Drives the calculation of the Hartree-Fock state.

  This is a RHF ground state calculation.
  The following tasks will be performed:

     1) Generate initial SAD density
     2) Calculation of reference state (SCF-DIIS algorithm)


  1) Generate initial SAD density


  2) Calculation of reference state (SCF-DIIS algorithm)

  - Setting initial AO density to sad

     Energy of initial guess:              -179.133689571399
     Number of electrons in guess:           20.000000000000

  - Screening and integral thresholds:

     Coulomb screening threshold:    0.1000E-16
     Exchange screening threshold:   0.1000E-14
     ERI cutoff:                     0.1000E-16
     One-electron integral  cutoff:  0.1000E-21
     Cumulative Fock threshold:      0.1000E+01

  - SCF solver settings:

     Maximum iterations:                   100
     Acceleration type:                   diis

  - Convergence thresholds

     Residual threshold:            0.1000E-10

  - DIIS tool settings:

     DIIS dimension:   8

     Storage (solver scf_errors): memory
     Storage (solver scf_parameters): memory

  Iteration       Energy (a.u.)      Max(grad.)    Delta E (a.u.)
  ---------------------------------------------------------------
     1          -177.129994637280     0.5310E-01     0.1771E+03
     2          -177.154832203453     0.9832E-02     0.2484E-01
     3          -177.155813768895     0.2857E-02     0.9816E-03
     4          -177.155840699875     0.7471E-03     0.2693E-04
     5          -177.155843966041     0.2219E-03     0.3266E-05
     6          -177.155844164054     0.1709E-04     0.1980E-06
     7          -177.155844168042     0.6721E-05     0.3987E-08
     8          -177.155844168442     0.1445E-05     0.4001E-09
     9          -177.155844168510     0.1895E-06     0.6852E-10
    10          -177.155844168511     0.3572E-07     0.3979E-12
    11          -177.155844168511     0.3693E-08     0.2842E-13
    12          -177.155844168511     0.3582E-09     0.8527E-13
    13          -177.155844168511     0.6427E-10     0.8527E-13
    14          -177.155844168511     0.1072E-10     0.0000E+00
    15          -177.155844168511     0.2263E-11     0.8527E-13
  ---------------------------------------------------------------
  Convergence criterion met in 15 iterations!

  - Summary of RHF wavefunction energetics (a.u.):

     HOMO-LUMO gap:                  0.616202330010
     Nuclear repulsion energy:      53.919642419348
     Electronic energy:           -231.075486587859
     Total energy:                -177.155844168511

  - Timings for the RHF ground state calculation

     Total wall time (sec):              0.27700
     Total cpu time (sec):               0.28199


  :: CCSD wavefunction
  =======================

     Bath orbital(s):         False

   - Number of orbitals:

     Occupied orbitals:    10
     Virtual orbitals:     12
     Molecular orbitals:   22
     Atomic orbitals:      22

   - Number of ground state amplitudes:

     Single excitation amplitudes:  120
     Double excitation amplitudes:  7260


  Cholesky-decomposing electron repulsion integrals
  =================================================

  Cholesky decomposition of electronic repulsion integrals solver
  ---------------------------------------------------------------

  Performs a Cholesky decomposition of the two-electron electronic repulsion 
  integrals in the atomic orbital basis,

  (ab|cd) = sum_J L_ab^J L_cd^J.

  Once the Cholesky basis has been determined, the vectors L^J are constructed 
  and stored to disk. These may either be used directly, or be transformed 
  to the MO basis for use in post-HF calculations. For more information, 
  see S. D. Folkestad, E. F. Kjønstad and H. Koch, JCP, 150(19), (2019)

  - Cholesky decomposition settings:

     Target threshold is:   0.10E-10
     Span factor:           0.10E-01
     Max qual:                  1000

  - Cholesky decomposition ao details:

     Total number of AOs:                    22
     Total number of shell pairs:           105
     Total number of AO pairs:              253

     Significant shell pairs:               100
     Significant AO pairs:                  246

     Construct shell pairs:                 104
     Construct AO pairs:                    252

  Iter.  #Sign. ao pairs / shell pairs   Max diagonal    #Qualified    #Cholesky    Cholesky array size
  -------------------------------------------------------------------------------------------------------
     1               220 /      88       0.54027E+01          97             28              6160
     2               176 /      76       0.48436E-01         152             77             13552
     3               136 /      60       0.47948E-03         108            122             16592
     4                68 /      36       0.36033E-05          88            176             11968
     5                20 /      12       0.34542E-07          34            201              4020
     6                 0 /       0       0.16050E-09          15            213                 0
  -------------------------------------------------------------------------------------------------------

  - Summary of Cholesky decomposition of electronic repulsion integrals:

     Final number of Cholesky vectors: 213

 - Testing the Cholesky decomposition decomposition electronic repulsion integrals:

     Maximal difference between approximate and actual diagonal:              0.9540E-11
     Minimal element of difference between approximate and actual diagonal:  -0.8054E-15

  - Settings for integral handling:

     Cholesky vectors in memory: True
     ERI matrix in memory:       True

  - Finished decomposing the ERIs.

     Total wall time (sec):              0.22400
     Total cpu time (sec):               0.12681


  Determining CC cluster amplitudes
  =================================

   - DIIS coupled cluster ground state solver
  ----------------------------------------------

  A DIIS CC ground state amplitude equations solver. It uses an extrapolation 
  of previous quasi-Newton perturbation theory estimates of the next amplitudes. 
  See Helgaker et al., Molecular Electronic Structure Theory, Chapter 
  13.

  - CC ground state solver settings:

  - Convergence thresholds

     Residual threshold:            0.1000E-09
     Max number of iterations:      100

  - DIIS tool settings:

     DIIS dimension:   8

     Storage (cc_gs_diis_errors): file
     Storage (cc_gs_diis_parameters): file

  Iteration    Energy (a.u.)        |omega|       Delta E (a.u.)
  ---------------------------------------------------------------
    1          -177.375746488561     0.8585E-01     0.1774E+03
    2          -177.383006003619     0.2670E-01     0.7260E-02
    3          -177.388411873089     0.6514E-02     0.5406E-02
    4          -177.389360947551     0.1749E-02     0.9491E-03
    5          -177.389376863418     0.6002E-03     0.1592E-04
    6          -177.389340718068     0.2356E-03     0.3615E-04
    7          -177.389330999065     0.5834E-04     0.9719E-05
    8          -177.389329720254     0.1466E-04     0.1279E-05
    9          -177.389330044906     0.3062E-05     0.3247E-06
   10          -177.389330040012     0.7870E-06     0.4894E-08
   11          -177.389330030454     0.2159E-06     0.9558E-08
   12          -177.389330030952     0.7091E-07     0.4981E-09
   13          -177.389330033027     0.2208E-07     0.2075E-08
   14          -177.389330034827     0.3977E-08     0.1801E-08
   15          -177.389330035155     0.1083E-08     0.3280E-09
   16          -177.389330035172     0.2403E-09     0.1705E-10
   17          -177.389330035161     0.6799E-10     0.1182E-10
  ---------------------------------------------------------------
  Convergence criterion met in 17 iterations!

  - Ground state summary:

     Final ground state energy (a.u.):  -177.389330035161

     Correlation energy (a.u.):           -0.233485866650

     Largest single amplitudes:
     -----------------------------------
        a       i         t(a,i)
     -----------------------------------
        1      9        0.019672936589
        3      6       -0.007531987028
        3     10       -0.007017516913
        9      6        0.005253157365
       10      5        0.004593990539
        1      8       -0.004533549400
        8      9       -0.004447871203
       10      9        0.004073617711
        9     10       -0.003860385717
        5      8       -0.003725881596
     ------------------------------------

     Largest double amplitudes:
     --------------------------------------------------
        a      i       b      j         t(ai,bj)
     --------------------------------------------------
        3     10       3     10       -0.037767702751
        1      9       1      9       -0.037133461201
        4      9       4      9       -0.032980211059
        1      9       4      9       -0.024507231975
        7      7       7      7       -0.024425769415
        9     10       9     10       -0.022218299597
        3      6       3     10       -0.022138152792
        9      6       9      6       -0.022062601327
        5      9       5      9       -0.021910021407
        9      6       9     10        0.020427921271
     --------------------------------------------------

  - Finished solving the CCSD ground state equations

     Total wall time (sec):              0.49700
     Total cpu time (sec):               0.14975


  Determining CC multipliers
  ==========================

   - Davidson tool settings:

     Number of parameters:                 7380
     Number of requested solutions:           1
     Max reduced space dimension:            50

     Storage (multipliers_davidson_trials): file
     Storage (multipliers_davidson_transforms): file

  - Davidson solver settings

     Residual threshold:              0.10E-09
     Max number of iterations:             100

   Iteration       Residual norm
  -------------------------------
     1               0.4057E-01
     2               0.9206E-02
     3               0.2428E-02
     4               0.1276E-02
     5               0.3383E-03
     6               0.7749E-04
     7               0.1938E-04
     8               0.4867E-05
     9               0.1058E-05
    10               0.2754E-06
    11               0.7144E-07
    12               0.2017E-07
    13               0.5858E-08
    14               0.1100E-08
    15               0.2246E-09
    16               0.4278E-10
  -------------------------------
  Convergence criterion met in 16 iterations!

  - CC multipliers solver summary:

     Largest single amplitudes:
     -----------------------------------
        a       i         tbar(a,i)
     -----------------------------------
        1      9        0.024093983730
        3      6       -0.010240171627
       10      9        0.009313366734
        3     10       -0.009015305512
       10      5        0.007237740196
        6      8       -0.006493750948
        9      6        0.005851014254
        5      9        0.005804338894
        6      5        0.005330247732
        4      4        0.005007394154
     ------------------------------------

     Largest double amplitudes:
     --------------------------------------------------
        a      i       b      j         tbar(ai,bj)
     --------------------------------------------------
        3     10       3     10       -0.075239695552
        1      9       1      9       -0.070732133254
        4      9       4      9       -0.064571140127
        4      9       3     10        0.055668921083
        7      7       7      7       -0.048642165115
        1      9       4      9       -0.047552586942
        8      9       9     10       -0.046820297673
        5      9       3     10       -0.046814636405
        3      6       3     10       -0.044230599784
        9     10       9     10       -0.044197359763
     --------------------------------------------------


  Determining CC excited state amplitudes
  =======================================

  Davidson eigenvalue equation solver
  -----------------------------------

  A Davidson solver that solves an eigenvalue equation: M x = omega x. 
  This equation is solved in a reduced space. A description of the algorithm 
  can be found in E. R. Davidson, J. Comput. Phys. 17, 87 (1975).

   - Davidson tool settings:

     Number of parameters:                 7380
     Number of requested solutions:           4
     Max reduced space dimension:           100

     Storage (cc_es_davidson_trials): memory
     Storage (cc_es_davidson_transforms): memory

  - Davidson solver settings

     Number of singlet states:               4
     Max number of iterations:             100

  Iteration:                  1
  Reduced space dimension:    4

  Root  Eigenvalue (Re)   Eigenvalue (Im)    |residual|   Delta E (Re)
  -------------------------------------------------------------------------
     1   0.337567390326    0.000000000000     0.4213E+00   0.3376E+00
     2   0.447925278876    0.000000000000     0.4017E+00   0.4479E+00
     3   0.684099195281    0.000000000000     0.4102E+00   0.6841E+00
     4   0.815720087025    0.000000000000     0.4256E+00   0.8157E+00
  -------------------------------------------------------------------------

  Iteration:                  2
  Reduced space dimension:    8

  Root  Eigenvalue (Re)   Eigenvalue (Im)    |residual|   Delta E (Re)
  -------------------------------------------------------------------------
     1   0.218375030795    0.000000000000     0.8204E-01   0.1192E+00
     2   0.337777849247    0.000000000000     0.8418E-01   0.1101E+00
     3   0.584273677497    0.000000000000     0.7793E-01   0.9983E-01
     4   0.679374724997    0.000000000000     0.1111E+00   0.1363E+00
  -------------------------------------------------------------------------

  Iteration:                  3
  Reduced space dimension:   12

  Root  Eigenvalue (Re)   Eigenvalue (Im)    |residual|   Delta E (Re)
  -------------------------------------------------------------------------
     1   0.216245555025    0.000000000000     0.2608E-01   0.2129E-02
     2   0.334876153686    0.000000000000     0.3056E-01   0.2902E-02
     3   0.583042031571    0.000000000000     0.2070E-01   0.1232E-02
     4   0.670955793503    0.000000000000     0.5189E-01   0.8419E-02
  -------------------------------------------------------------------------

  Iteration:                  4
  Reduced space dimension:   16

  Root  Eigenvalue (Re)   Eigenvalue (Im)    |residual|   Delta E (Re)
  -------------------------------------------------------------------------
     1   0.217006003977    0.000000000000     0.7126E-02   0.7604E-03
     2   0.334375642065    0.000000000000     0.9339E-02   0.5005E-03
     3   0.583722443290    0.000000000000     0.6923E-02   0.6804E-03
     4   0.670232327547    0.000000000000     0.3137E-01   0.7235E-03
  -------------------------------------------------------------------------

  Iteration:                  5
  Reduced space dimension:   20

  Root  Eigenvalue (Re)   Eigenvalue (Im)    |residual|   Delta E (Re)
  -------------------------------------------------------------------------
     1   0.217066690538    0.000000000000     0.1645E-02   0.6069E-04
     2   0.334359301914    0.000000000000     0.2494E-02   0.1634E-04
     3   0.583683141624    0.000000000000     0.2496E-02   0.3930E-04
     4   0.669444662829    0.000000000000     0.1771E-01   0.7877E-03
  -------------------------------------------------------------------------

  Iteration:                  6
  Reduced space dimension:   24

  Root  Eigenvalue (Re)   Eigenvalue (Im)    |residual|   Delta E (Re)
  -------------------------------------------------------------------------
     1   0.217056443708    0.000000000000     0.3901E-03   0.1025E-04
     2   0.334304041833    0.000000000000     0.6472E-03   0.5526E-04
     3   0.583628854391    0.000000000000     0.9385E-03   0.5429E-04
     4   0.668485383491    0.000000000000     0.9417E-02   0.9593E-03
  -------------------------------------------------------------------------

  Iteration:                  7
  Reduced space dimension:   28

  Root  Eigenvalue (Re)   Eigenvalue (Im)    |residual|   Delta E (Re)
  -------------------------------------------------------------------------
     1   0.217051113040    0.000000000000     0.1100E-03   0.5331E-05
     2   0.334293766931    0.000000000000     0.1759E-03   0.1027E-04
     3   0.583624666966    0.000000000000     0.5697E-03   0.4187E-05
     4   0.668463994938    0.000000000000     0.6745E-02   0.2139E-04
  -------------------------------------------------------------------------

  Iteration:                  8
  Reduced space dimension:   32

  Root  Eigenvalue (Re)   Eigenvalue (Im)    |residual|   Delta E (Re)
  -------------------------------------------------------------------------
     1   0.217051729442    0.000000000000     0.2915E-04   0.6164E-06
     2   0.334294734243    0.000000000000     0.4831E-04   0.9673E-06
     3   0.583634939553    0.000000000000     0.3073E-03   0.1027E-04
     4   0.668538815095    0.000000000000     0.9898E-02   0.7482E-04
  -------------------------------------------------------------------------

  Iteration:                  9
  Reduced space dimension:   36

  Root  Eigenvalue (Re)   Eigenvalue (Im)    |residual|   Delta E (Re)
  -------------------------------------------------------------------------
     1   0.217051971113    0.000000000000     0.7127E-05   0.2417E-06
     2   0.334294941039    0.000000000000     0.1431E-04   0.2068E-06
     3   0.583633033555    0.000000000000     0.1148E-03   0.1906E-05
     4   0.668353234840    0.000000000000     0.1556E-01   0.1856E-03
  -------------------------------------------------------------------------

  Iteration:                 10
  Reduced space dimension:   40

  Root  Eigenvalue (Re)   Eigenvalue (Im)    |residual|   Delta E (Re)
  -------------------------------------------------------------------------
     1   0.217051979973    0.000000000000     0.1699E-05   0.8860E-08
     2   0.334294983058    0.000000000000     0.3613E-05   0.4202E-07
     3   0.583631956716    0.000000000000     0.3650E-04   0.1077E-05
     4   0.668198020168    0.000000000000     0.1125E-01   0.1552E-03
  -------------------------------------------------------------------------

  Iteration:                 11
  Reduced space dimension:   44

  Root  Eigenvalue (Re)   Eigenvalue (Im)    |residual|   Delta E (Re)
  -------------------------------------------------------------------------
     1   0.217051988145    0.000000000000     0.3514E-06   0.8172E-08
     2   0.334295000264    0.000000000000     0.1118E-05   0.1721E-07
     3   0.583632227986    0.000000000000     0.1088E-04   0.2713E-06
     4   0.668095077629    0.000000000000     0.4597E-02   0.1029E-03
  -------------------------------------------------------------------------

  Iteration:                 12
  Reduced space dimension:   48

  Root  Eigenvalue (Re)   Eigenvalue (Im)    |residual|   Delta E (Re)
  -------------------------------------------------------------------------
     1   0.217051988032    0.000000000000     0.8528E-07   0.1135E-09
     2   0.334294998496    0.000000000000     0.3304E-06   0.1768E-08
     3   0.583632221345    0.000000000000     0.3173E-05   0.6641E-08
     4   0.668052502614    0.000000000000     0.2039E-02   0.4258E-04
  -------------------------------------------------------------------------

  Iteration:                 13
  Reduced space dimension:   52

  Root  Eigenvalue (Re)   Eigenvalue (Im)    |residual|   Delta E (Re)
  -------------------------------------------------------------------------
     1   0.217051988335    0.000000000000     0.1738E-07   0.3030E-09
     2   0.334294996618    0.000000000000     0.8859E-07   0.1878E-08
     3   0.583632211201    0.000000000000     0.9702E-06   0.1014E-07
     4   0.668064059352    0.000000000000     0.9799E-03   0.1156E-04
  -------------------------------------------------------------------------

  Iteration:                 14
  Reduced space dimension:   56

  Root  Eigenvalue (Re)   Eigenvalue (Im)    |residual|   Delta E (Re)
  -------------------------------------------------------------------------
     1   0.217051988274    0.000000000000     0.4233E-08   0.6082E-10
     2   0.334294996540    0.000000000000     0.2039E-07   0.7800E-10
     3   0.583632214680    0.000000000000     0.2892E-06   0.3479E-08
     4   0.668054880410    0.000000000000     0.4617E-03   0.9179E-05
  -------------------------------------------------------------------------

  Iteration:                 15
  Reduced space dimension:   60

  Root  Eigenvalue (Re)   Eigenvalue (Im)    |residual|   Delta E (Re)
  -------------------------------------------------------------------------
     1   0.217051988291    0.000000000000     0.9661E-09   0.1728E-10
     2   0.334294996735    0.000000000000     0.5764E-08   0.1957E-09
     3   0.583632216136    0.000000000000     0.7303E-07   0.1456E-08
     4   0.668057721853    0.000000000000     0.1525E-03   0.2841E-05
  -------------------------------------------------------------------------

  Iteration:                 16
  Reduced space dimension:   64

  Root  Eigenvalue (Re)   Eigenvalue (Im)    |residual|   Delta E (Re)
  -------------------------------------------------------------------------
     1   0.217051988287    0.000000000000     0.2134E-09   0.4422E-11
     2   0.334294996778    0.000000000000     0.1794E-08   0.4260E-10
     3   0.583632215982    0.000000000000     0.2055E-07   0.1541E-09
     4   0.668057762346    0.000000000000     0.6027E-04   0.4049E-07
  -------------------------------------------------------------------------

  Iteration:                 17
  Reduced space dimension:   68

  Root  Eigenvalue (Re)   Eigenvalue (Im)    |residual|   Delta E (Re)
  -------------------------------------------------------------------------
     1   0.217051988285    0.000000000000     0.4897E-10   0.2262E-11
     2   0.334294996776    0.000000000000     0.5512E-09   0.1990E-11
     3   0.583632215860    0.000000000000     0.6040E-08   0.1218E-09
     4   0.668057449809    0.000000000000     0.2609E-04   0.3125E-06
  -------------------------------------------------------------------------

  Iteration:                 18
  Reduced space dimension:   71

  Root  Eigenvalue (Re)   Eigenvalue (Im)    |residual|   Delta E (Re)
  -------------------------------------------------------------------------
     1   0.217051988285    0.000000000000     0.4424E-10   0.5604E-13
     2   0.334294996776    0.000000000000     0.1497E-09   0.8693E-13
     3   0.583632215845    0.000000000000     0.2215E-08   0.1526E-10
     4   0.668057625028    0.000000000000     0.1012E-04   0.1752E-06
  -------------------------------------------------------------------------

  Iteration:                 19
  Reduced space dimension:   74

  Root  Eigenvalue (Re)   Eigenvalue (Im)    |residual|   Delta E (Re)
  -------------------------------------------------------------------------
     1   0.217051988285    0.000000000000     0.4430E-10   0.2742E-13
     2   0.334294996775    0.000000000000     0.4227E-10   0.1150E-11
     3   0.583632215862    0.000000000000     0.6818E-09   0.1734E-10
     4   0.668057618259    0.000000000000     0.3477E-05   0.6769E-08
  -------------------------------------------------------------------------

  Iteration:                 20
  Reduced space dimension:   76

  Root  Eigenvalue (Re)   Eigenvalue (Im)    |residual|   Delta E (Re)
  -------------------------------------------------------------------------
     1   0.217051988285    0.000000000000     0.4426E-10   0.3386E-14
     2   0.334294996775    0.000000000000     0.2461E-10   0.4274E-14
     3   0.583632215871    0.000000000000     0.2374E-09   0.9212E-11
     4   0.668057570442    0.000000000000     0.9772E-06   0.4782E-07
  -------------------------------------------------------------------------

  Iteration:                 21
  Reduced space dimension:   78

  Root  Eigenvalue (Re)   Eigenvalue (Im)    |residual|   Delta E (Re)
  -------------------------------------------------------------------------
     1   0.217051988285    0.000000000000     0.4451E-10   0.3691E-14
     2   0.334294996775    0.000000000000     0.2387E-10   0.2887E-13
     3   0.583632215873    0.000000000000     0.7011E-10   0.1775E-11
     4   0.668057572349    0.000000000000     0.3040E-06   0.1907E-08
  -------------------------------------------------------------------------

  Iteration:                 22
  Reduced space dimension:   79

  Root  Eigenvalue (Re)   Eigenvalue (Im)    |residual|   Delta E (Re)
  -------------------------------------------------------------------------
     1   0.217051988285    0.000000000000     0.4451E-10   0.2220E-15
     2   0.334294996775    0.000000000000     0.2344E-10   0.6273E-14
     3   0.583632215873    0.000000000000     0.7011E-10   0.5662E-14
     4   0.668057574934    0.000000000000     0.9840E-07   0.2585E-08
  -------------------------------------------------------------------------

  Iteration:                 23
  Reduced space dimension:   80

  Root  Eigenvalue (Re)   Eigenvalue (Im)    |residual|   Delta E (Re)
  -------------------------------------------------------------------------
     1   0.217051988285    0.000000000000     0.4451E-10   0.1582E-14
     2   0.334294996775    0.000000000000     0.2342E-10   0.1443E-14
     3   0.583632215873    0.000000000000     0.7011E-10   0.1665E-14
     4   0.668057575846    0.000000000000     0.3290E-07   0.9121E-09
  -------------------------------------------------------------------------

  Iteration:                 24
  Reduced space dimension:   81

  Root  Eigenvalue (Re)   Eigenvalue (Im)    |residual|   Delta E (Re)
  -------------------------------------------------------------------------
     1   0.217051988285    0.000000000000     0.4451E-10   0.1943E-15
     2   0.334294996775    0.000000000000     0.2315E-10   0.2165E-13
     3   0.583632215873    0.000000000000     0.7011E-10   0.9548E-14
     4   0.668057576000    0.000000000000     0.1089E-07   0.1546E-09
  -------------------------------------------------------------------------

  Iteration:                 25
  Reduced space dimension:   82

  Root  Eigenvalue (Re)   Eigenvalue (Im)    |residual|   Delta E (Re)
  -------------------------------------------------------------------------
     1   0.217051988285    0.000000000000     0.4451E-10   0.1943E-14
     2   0.334294996775    0.000000000000     0.2315E-10   0.2109E-14
     3   0.583632215873    0.000000000000     0.7011E-10   0.3997E-14
     4   0.668057575864    0.000000000000     0.3568E-08   0.1362E-09
  -------------------------------------------------------------------------

  Iteration:                 26
  Reduced space dimension:   83

  Root  Eigenvalue (Re)   Eigenvalue (Im)    |residual|   Delta E (Re)
  -------------------------------------------------------------------------
     1   0.217051988285    0.000000000000     0.4451E-10   0.2665E-14
     2   0.334294996775    0.000000000000     0.2315E-10   0.5551E-16
     3   0.583632215873    0.000000000000     0.7011E-10   0.4663E-14
     4   0.668057575857    0.000000000000     0.9792E-09   0.7515E-11
  -------------------------------------------------------------------------

  Iteration:                 27
  Reduced space dimension:   84

  Root  Eigenvalue (Re)   Eigenvalue (Im)    |residual|   Delta E (Re)
  -------------------------------------------------------------------------
     1   0.217051988285    0.000000000000     0.4451E-10   0.1277E-14
     2   0.334294996775    0.000000000000     0.2315E-10   0.3775E-14
     3   0.583632215873    0.000000000000     0.7011E-10   0.3442E-14
     4   0.668057575863    0.000000000000     0.3162E-09   0.5745E-11
  -------------------------------------------------------------------------

  Iteration:                 28
  Reduced space dimension:   85

  Root  Eigenvalue (Re)   Eigenvalue (Im)    |residual|   Delta E (Re)
  -------------------------------------------------------------------------
     1   0.217051988285    0.000000000000     0.4451E-10   0.3247E-14
     2   0.334294996775    0.000000000000     0.2307E-10   0.8882E-14
     3   0.583632215873    0.000000000000     0.7011E-10   0.6550E-14
     4   0.668057575862    0.000000000000     0.1026E-09   0.9927E-12
  -------------------------------------------------------------------------

  Iteration:                 29
  Reduced space dimension:   86

  Root  Eigenvalue (Re)   Eigenvalue (Im)    |residual|   Delta E (Re)
  -------------------------------------------------------------------------
     1   0.217051988285    0.000000000000     0.4451E-10   0.1887E-14
     2   0.334294996775    0.000000000000     0.2305E-10   0.4441E-15
     3   0.583632215873    0.000000000000     0.7011E-10   0.6439E-14
     4   0.668057575862    0.000000000000     0.3217E-10   0.1439E-12
  -------------------------------------------------------------------------
  Convergence criterion met in 29 iterations!

  - Excitation vector amplitudes:

     Electronic state nr. 1

     Energy (Hartree):                  0.217051988285
     Fraction singles (|R1|/|R|):       0.977921659751

     Largest single amplitudes:
     -----------------------------------
        a       i         R(a,i)
     -----------------------------------
        1     10        0.972011900574
        4     10        0.076867607368
        2     10       -0.040693490522
        1      6        0.038188017977
       10     10       -0.028991053613
        8     10        0.025341071774
        6     10       -0.017509537489
        5     10        0.014877419496
        4      6        0.012544595614
        6      6       -0.010185649230
     ------------------------------------

     Largest double amplitudes:
     --------------------------------------------------
        a      i       b      j         R(ai,bj)
     --------------------------------------------------
        1      9       1     10       -0.115374825744
        4      9       1     10       -0.055477191594
        1      5       1     10       -0.054748473654
        1      4       1     10        0.045105084084
        1     10       3     10        0.038444467361
        1      8       1     10        0.037792424711
        1     10       9     10        0.034892399272
        1      6       3     10        0.030203929677
        3      6       1     10        0.029854311089
        1      6       7      8       -0.026716308952
     --------------------------------------------------

     Electronic state nr. 2

     Energy (Hartree):                  0.334294996775
     Fraction singles (|R1|/|R|):       0.981993651085

     Largest single amplitudes:
     -----------------------------------
        a       i         R(a,i)
     -----------------------------------
        1      9       -0.975970074850
        1      8       -0.048940217514
        1      5        0.043586274896
        3     10       -0.038061972824
        8      9       -0.037959580294
       10      9        0.024106844508
        4      9       -0.023765824446
        3      6       -0.019319880477
        5      8       -0.017739769705
        4      5        0.016806568180
     ------------------------------------

     Largest double amplitudes:
     --------------------------------------------------
        a      i       b      j         R(ai,bj)
     --------------------------------------------------
        1      9       1      9        0.104525795217
        1      9       4      9        0.050073422361
        1      5       1      9        0.042080607219
        1      9       8      9       -0.038392806679
        1      9       9     10       -0.028149962533
        1      5       5      9       -0.025659302993
        1      9       2      9       -0.023736880928
        1      5       7      8        0.023457660471
        1      8       4      9        0.020858847500
        4      9       5      9        0.020527297630
     --------------------------------------------------

     Electronic state nr. 3

     Energy (Hartree):                  0.583632215873
     Fraction singles (|R1|/|R|):       0.986237104675

     Largest single amplitudes:
     -----------------------------------
        a       i         R(a,i)
     -----------------------------------
        2     10       -0.979083571249
        7     10       -0.081479654367
        1     10       -0.038704824809
        6     10       -0.033369279053
       11     10       -0.033188462500
       12     10       -0.031847288738
        5     10        0.028885750543
       10     10       -0.022528725061
        4      6        0.019778086082
       12      6        0.012515391936
     ------------------------------------

     Largest double amplitudes:
     --------------------------------------------------
        a      i       b      j         R(ai,bj)
     --------------------------------------------------
        2     10       3     10       -0.055937597549
        2      4       2     10       -0.035200853257
        2      6       3     10       -0.035084003492
        1      9       2     10        0.034357235844
        4      9       2     10        0.030217967679
        3      6       2     10       -0.029848422783
        2      6       7      8        0.027874302750
        2      3       2      6       -0.025722497839
        2      6       9      6       -0.022872391941
        2      6       5      9       -0.020978057519
     --------------------------------------------------

     Electronic state nr. 4

     Energy (Hartree):                  0.668057575862
     Fraction singles (|R1|/|R|):       0.974697033464

     Largest single amplitudes:
     -----------------------------------
        a       i         R(a,i)
     -----------------------------------
        1      8        0.886740178110
        2      9        0.273696525653
        1      7        0.219314406715
        1      5        0.160442791844
        4      8        0.064061661240
        1      4        0.060365345976
        1      9       -0.044956301955
        4      9        0.027421921375
        8      8        0.022783839893
       10      8       -0.021183225221
     ------------------------------------

     Largest double amplitudes:
     --------------------------------------------------
        a      i       b      j         R(ai,bj)
     --------------------------------------------------
        1      8       1      9       -0.086949877617
        1      5       1      9       -0.051892418580
        1      9       1      9       -0.044784344210
        1      9       4      9       -0.044323893048
        1      8       4      9       -0.041724741187
        1      5       1      8       -0.040512225898
        1     10       1     10        0.036396586261
        1      8       1      8        0.034475383482
        1      4       1      8        0.030530559672
        7      8       1      9       -0.029105681384
     --------------------------------------------------

  - CCSD excitation energies:

                                      Excitation energy
                          ------------------------------------------
      State                (Hartree)             (eV)
     ---------------------------------------------------------------
        1                  0.217051988285        5.906285439621
        2                  0.334294996775        9.096630201791
        3                  0.583632215873       15.881441519829
        4                  0.668057575862       18.178772580357
     ---------------------------------------------------------------
     eV/Hartree (CODATA 2014): 27.21138602


  Determining CC excited state amplitudes
  =======================================

  Davidson eigenvalue equation solver
  -----------------------------------

  A Davidson solver that solves an eigenvalue equation: M x = omega x. 
  This equation is solved in a reduced space. A description of the algorithm 
  can be found in E. R. Davidson, J. Comput. Phys. 17, 87 (1975).

   - Davidson tool settings:

     Number of parameters:                 7380
     Number of requested solutions:           4
     Max reduced space dimension:           100

     Storage (cc_es_davidson_trials): memory
     Storage (cc_es_davidson_transforms): memory
     Restarting left vector 1 from file r_001.
     Restarting left vector 2 from file r_002.
     Restarting left vector 3 from file r_003.
     Restarting left vector 4 from file r_004.

  - Davidson solver settings

     Number of singlet states:               4
     Max number of iterations:             100

  Iteration:                  1
  Reduced space dimension:    4

  Root  Eigenvalue (Re)   Eigenvalue (Im)    |residual|   Delta E (Re)
  -------------------------------------------------------------------------
     1   0.203354693898    0.000000000000     0.1255E+00   0.2034E+00
     2   0.320398100132    0.000000000000     0.1555E+00   0.3204E+00
     3   0.572571118010    0.000000000000     0.1147E+00   0.5726E+00
     4   0.651107843867    0.000000000000     0.1557E+00   0.6511E+00
  -------------------------------------------------------------------------

  Iteration:                  2
  Reduced space dimension:    8

  Root  Eigenvalue (Re)   Eigenvalue (Im)    |residual|   Delta E (Re)
  -------------------------------------------------------------------------
     1   0.216833352302    0.000000000000     0.2250E-01   0.1348E-01
     2   0.335734191701    0.000000000000     0.3700E-01   0.1534E-01
     3   0.583446614216    0.000000000000     0.2497E-01   0.1088E-01
     4   0.668486937509    0.000000000000     0.3349E-01   0.1738E-01
  -------------------------------------------------------------------------

  Iteration:                  3
  Reduced space dimension:   12

  Root  Eigenvalue (Re)   Eigenvalue (Im)    |residual|   Delta E (Re)
  -------------------------------------------------------------------------
     1   0.216925017157    0.000000000000     0.6441E-02   0.9166E-04
     2   0.334228027953    0.000000000000     0.1173E-01   0.1506E-02
     3   0.583557227899    0.000000000000     0.8556E-02   0.1106E-03
     4   0.667794530906    0.000000000000     0.1293E-01   0.6924E-03
  -------------------------------------------------------------------------

  Iteration:                  4
  Reduced space dimension:   16

  Root  Eigenvalue (Re)   Eigenvalue (Im)    |residual|   Delta E (Re)
  -------------------------------------------------------------------------
     1   0.217042395359    0.000000000000     0.1577E-02   0.1174E-03
     2   0.334359278550    0.000000000000     0.3036E-02   0.1313E-03
     3   0.583619856893    0.000000000000     0.2511E-02   0.6263E-04
     4   0.667968243060    0.000000000000     0.6155E-02   0.1737E-03
  -------------------------------------------------------------------------

  Iteration:                  5
  Reduced space dimension:   20

  Root  Eigenvalue (Re)   Eigenvalue (Im)    |residual|   Delta E (Re)
  -------------------------------------------------------------------------
     1   0.217053138349    0.000000000000     0.4963E-03   0.1074E-04
     2   0.334312441835    0.000000000000     0.9866E-03   0.4684E-04
     3   0.583636479060    0.000000000000     0.9460E-03   0.1662E-04
     4   0.668082916323    0.000000000000     0.2873E-02   0.1147E-03
  -------------------------------------------------------------------------

  Iteration:                  6
  Reduced space dimension:   24

  Root  Eigenvalue (Re)   Eigenvalue (Im)    |residual|   Delta E (Re)
  -------------------------------------------------------------------------
     1   0.217051185068    0.000000000000     0.1119E-03   0.1953E-05
     2   0.334298454753    0.000000000000     0.3122E-03   0.1399E-04
     3   0.583631285789    0.000000000000     0.3192E-03   0.5193E-05
     4   0.668090810194    0.000000000000     0.1837E-02   0.7894E-05
  -------------------------------------------------------------------------

  Iteration:                  7
  Reduced space dimension:   28

  Root  Eigenvalue (Re)   Eigenvalue (Im)    |residual|   Delta E (Re)
  -------------------------------------------------------------------------
     1   0.217051544406    0.000000000000     0.3461E-04   0.3593E-06
     2   0.334295020528    0.000000000000     0.9364E-04   0.3434E-05
     3   0.583632376224    0.000000000000     0.1365E-03   0.1090E-05
     4   0.668045397740    0.000000000000     0.1979E-02   0.4541E-04
  -------------------------------------------------------------------------

  Iteration:                  8
  Reduced space dimension:   32

  Root  Eigenvalue (Re)   Eigenvalue (Im)    |residual|   Delta E (Re)
  -------------------------------------------------------------------------
     1   0.217051954371    0.000000000000     0.9393E-05   0.4100E-06
     2   0.334294616542    0.000000000000     0.2383E-04   0.4040E-06
     3   0.583632117712    0.000000000000     0.6501E-04   0.2585E-06
     4   0.668041471425    0.000000000000     0.2349E-02   0.3926E-05
  -------------------------------------------------------------------------

  Iteration:                  9
  Reduced space dimension:   36

  Root  Eigenvalue (Re)   Eigenvalue (Im)    |residual|   Delta E (Re)
  -------------------------------------------------------------------------
     1   0.217051992940    0.000000000000     0.1963E-05   0.3857E-07
     2   0.334295013697    0.000000000000     0.6324E-05   0.3972E-06
     3   0.583632219498    0.000000000000     0.2902E-04   0.1018E-06
     4   0.668020654405    0.000000000000     0.3090E-02   0.2082E-04
  -------------------------------------------------------------------------

  Iteration:                 10
  Reduced space dimension:   40

  Root  Eigenvalue (Re)   Eigenvalue (Im)    |residual|   Delta E (Re)
  -------------------------------------------------------------------------
     1   0.217051990075    0.000000000000     0.5186E-06   0.2864E-08
     2   0.334295003582    0.000000000000     0.1900E-05   0.1011E-07
     3   0.583632240747    0.000000000000     0.8294E-05   0.2125E-07
     4   0.668070811343    0.000000000000     0.2029E-02   0.5016E-04
  -------------------------------------------------------------------------

  Iteration:                 11
  Reduced space dimension:   44

  Root  Eigenvalue (Re)   Eigenvalue (Im)    |residual|   Delta E (Re)
  -------------------------------------------------------------------------
     1   0.217051988830    0.000000000000     0.1126E-06   0.1245E-08
     2   0.334294996232    0.000000000000     0.6126E-06   0.7350E-08
     3   0.583632206106    0.000000000000     0.2073E-05   0.3464E-07
     4   0.668062779687    0.000000000000     0.8696E-03   0.8032E-05
  -------------------------------------------------------------------------

  Iteration:                 12
  Reduced space dimension:   48

  Root  Eigenvalue (Re)   Eigenvalue (Im)    |residual|   Delta E (Re)
  -------------------------------------------------------------------------
     1   0.217051988245    0.000000000000     0.2444E-07   0.5847E-09
     2   0.334294997546    0.000000000000     0.1875E-06   0.1314E-08
     3   0.583632212409    0.000000000000     0.6148E-06   0.6303E-08
     4   0.668057414731    0.000000000000     0.3326E-03   0.5365E-05
  -------------------------------------------------------------------------

  Iteration:                 13
  Reduced space dimension:   52

  Root  Eigenvalue (Re)   Eigenvalue (Im)    |residual|   Delta E (Re)
  -------------------------------------------------------------------------
     1   0.217051988286    0.000000000000     0.5905E-08   0.4027E-10
     2   0.334294996805    0.000000000000     0.5274E-07   0.7417E-09
     3   0.583632214783    0.000000000000     0.1812E-06   0.2373E-08
     4   0.668058781593    0.000000000000     0.1328E-03   0.1367E-05
  -------------------------------------------------------------------------

  Iteration:                 14
  Reduced space dimension:   56

  Root  Eigenvalue (Re)   Eigenvalue (Im)    |residual|   Delta E (Re)
  -------------------------------------------------------------------------
     1   0.217051988286    0.000000000000     0.1407E-08   0.4345E-12
     2   0.334294996727    0.000000000000     0.1423E-07   0.7732E-10
     3   0.583632215619    0.000000000000     0.6049E-07   0.8364E-09
     4   0.668057258079    0.000000000000     0.6629E-04   0.1524E-05
  -------------------------------------------------------------------------

  Iteration:                 15
  Reduced space dimension:   60

  Root  Eigenvalue (Re)   Eigenvalue (Im)    |residual|   Delta E (Re)
  -------------------------------------------------------------------------
     1   0.217051988286    0.000000000000     0.3154E-09   0.2823E-13
     2   0.334294996791    0.000000000000     0.3593E-08   0.6361E-10
     3   0.583632215849    0.000000000000     0.1620E-07   0.2296E-09
     4   0.668057631949    0.000000000000     0.3255E-04   0.3739E-06
  -------------------------------------------------------------------------

  Iteration:                 16
  Reduced space dimension:   64

  Root  Eigenvalue (Re)   Eigenvalue (Im)    |residual|   Delta E (Re)
  -------------------------------------------------------------------------
     1   0.217051988285    0.000000000000     0.7758E-10   0.1101E-11
     2   0.334294996772    0.000000000000     0.1018E-08   0.1932E-10
     3   0.583632215877    0.000000000000     0.5647E-08   0.2820E-10
     4   0.668057540014    0.000000000000     0.1352E-04   0.9194E-07
  -------------------------------------------------------------------------

  Iteration:                 17
  Reduced space dimension:   67

  Root  Eigenvalue (Re)   Eigenvalue (Im)    |residual|   Delta E (Re)
  -------------------------------------------------------------------------
     1   0.217051988285    0.000000000000     0.6397E-10   0.6839E-13
     2   0.334294996775    0.000000000000     0.3217E-09   0.3107E-11
     3   0.583632215879    0.000000000000     0.1572E-08   0.2474E-11
     4   0.668057514695    0.000000000000     0.5262E-05   0.2532E-07
  -------------------------------------------------------------------------

  Iteration:                 18
  Reduced space dimension:   70

  Root  Eigenvalue (Re)   Eigenvalue (Im)    |residual|   Delta E (Re)
  -------------------------------------------------------------------------
     1   0.217051988285    0.000000000000     0.6178E-10   0.2576E-13
     2   0.334294996775    0.000000000000     0.9349E-10   0.4635E-13
     3   0.583632215874    0.000000000000     0.4480E-09   0.4754E-11
     4   0.668057582155    0.000000000000     0.1636E-05   0.6746E-07
  -------------------------------------------------------------------------

  Iteration:                 19
  Reduced space dimension:   72

  Root  Eigenvalue (Re)   Eigenvalue (Im)    |residual|   Delta E (Re)
  -------------------------------------------------------------------------
     1   0.217051988285    0.000000000000     0.6168E-10   0.8882E-15
     2   0.334294996775    0.000000000000     0.9206E-10   0.1105E-13
     3   0.583632215873    0.000000000000     0.1234E-09   0.1797E-11
     4   0.668057573017    0.000000000000     0.5265E-06   0.9139E-08
  -------------------------------------------------------------------------

  Iteration:                 20
  Reduced space dimension:   74

  Root  Eigenvalue (Re)   Eigenvalue (Im)    |residual|   Delta E (Re)
  -------------------------------------------------------------------------
     1   0.217051988285    0.000000000000     0.6120E-10   0.2665E-14
     2   0.334294996775    0.000000000000     0.9199E-10   0.9603E-14
     3   0.583632215873    0.000000000000     0.3256E-10   0.3166E-12
     4   0.668057577063    0.000000000000     0.1732E-06   0.4047E-08
  -------------------------------------------------------------------------

  Iteration:                 21
  Reduced space dimension:   75

  Root  Eigenvalue (Re)   Eigenvalue (Im)    |residual|   Delta E (Re)
  -------------------------------------------------------------------------
     1   0.217051988285    0.000000000000     0.6120E-10   0.8882E-15
     2   0.334294996775    0.000000000000     0.9173E-10   0.2520E-13
     3   0.583632215873    0.000000000000     0.3256E-10   0.9992E-15
     4   0.668057575881    0.000000000000     0.5752E-07   0.1182E-08
  -------------------------------------------------------------------------

  Iteration:                 22
  Reduced space dimension:   76

  Root  Eigenvalue (Re)   Eigenvalue (Im)    |residual|   Delta E (Re)
  -------------------------------------------------------------------------
     1   0.217051988285    0.000000000000     0.6120E-10   0.2276E-14
     2   0.334294996775    0.000000000000     0.9154E-10   0.3397E-13
     3   0.583632215873    0.000000000000     0.3256E-10   0.1443E-14
     4   0.668057575867    0.000000000000     0.1823E-07   0.1419E-10
  -------------------------------------------------------------------------

  Iteration:                 23
  Reduced space dimension:   77

  Root  Eigenvalue (Re)   Eigenvalue (Im)    |residual|   Delta E (Re)
  -------------------------------------------------------------------------
     1   0.217051988285    0.000000000000     0.6120E-10   0.3164E-14
     2   0.334294996775    0.000000000000     0.9157E-10   0.6661E-15
     3   0.583632215873    0.000000000000     0.3256E-10   0.2220E-15
     4   0.668057575847    0.000000000000     0.6245E-08   0.2001E-10
  -------------------------------------------------------------------------

  Iteration:                 24
  Reduced space dimension:   78

  Root  Eigenvalue (Re)   Eigenvalue (Im)    |residual|   Delta E (Re)
  -------------------------------------------------------------------------
     1   0.217051988285    0.000000000000     0.6120E-10   0.4441E-14
     2   0.334294996775    0.000000000000     0.9080E-10   0.1088E-13
     3   0.583632215873    0.000000000000     0.3256E-10   0.1332E-14
     4   0.668057575854    0.000000000000     0.1806E-08   0.7383E-11
  -------------------------------------------------------------------------

  Iteration:                 25
  Reduced space dimension:   79

  Root  Eigenvalue (Re)   Eigenvalue (Im)    |residual|   Delta E (Re)
  -------------------------------------------------------------------------
     1   0.217051988285    0.000000000000     0.6120E-10   0.1776E-14
     2   0.334294996775    0.000000000000     0.9096E-10   0.2831E-14
     3   0.583632215873    0.000000000000     0.3256E-10   0.0000E+00
     4   0.668057575859    0.000000000000     0.5425E-09   0.5042E-11
  -------------------------------------------------------------------------

  Iteration:                 26
  Reduced space dimension:   80

  Root  Eigenvalue (Re)   Eigenvalue (Im)    |residual|   Delta E (Re)
  -------------------------------------------------------------------------
     1   0.217051988285    0.000000000000     0.6120E-10   0.2665E-14
     2   0.334294996775    0.000000000000     0.8958E-10   0.6828E-14
     3   0.583632215873    0.000000000000     0.3256E-10   0.3220E-14
     4   0.668057575861    0.000000000000     0.1788E-09   0.1750E-11
  -------------------------------------------------------------------------

  Iteration:                 27
  Reduced space dimension:   81

  Root  Eigenvalue (Re)   Eigenvalue (Im)    |residual|   Delta E (Re)
  -------------------------------------------------------------------------
     1   0.217051988285    0.000000000000     0.6120E-10   0.1776E-14
     2   0.334294996775    0.000000000000     0.8955E-10   0.1876E-13
     3   0.583632215873    0.000000000000     0.3256E-10   0.1221E-14
     4   0.668057575862    0.000000000000     0.5507E-10   0.8932E-12
  -------------------------------------------------------------------------
  Convergence criterion met in 27 iterations!

  - Excitation vector amplitudes:

     Electronic state nr. 1

     Energy (Hartree):                  0.217051988285
     Fraction singles (|L1|/|L|):       0.950612931455

     Largest single amplitudes:
     -----------------------------------
        a       i         L(a,i)
     -----------------------------------
        1     10        0.945143987544
        4     10        0.071646543658
        2     10       -0.039773279118
        1      6        0.037297124992
       10     10       -0.027421436392
        8     10        0.023984175425
        6     10       -0.016015323405
        5     10        0.014028023224
        4      6        0.012543840139
        6      6       -0.010284349049
     ------------------------------------

     Largest double amplitudes:
     --------------------------------------------------
        a      i       b      j         L(ai,bj)
     --------------------------------------------------
        4      9       1     10       -0.112185862531
        1      9       1     10       -0.112018036894
        1      6       7      8       -0.056684679924
        4      5       1     10       -0.056379935159
        1      5       1     10       -0.056339171418
        4      4       1     10        0.052597552193
        1      4       1     10        0.046425259718
        8      5       1     10       -0.044832219319
        8      9       1     10        0.044497130837
        1      6       2      8       -0.041038200775
     --------------------------------------------------

     Electronic state nr. 2

     Energy (Hartree):                  0.334294996775
     Fraction singles (|L1|/|L|):       0.943080090780

     Largest single amplitudes:
     -----------------------------------
        a       i         L(a,i)
     -----------------------------------
        1      9        0.937754698846
        1      8        0.045013676116
        1      5       -0.041746213793
        8      9        0.035824872791
        3     10        0.033502393135
       10      9       -0.021588943219
        4      9        0.019970528837
        3      6        0.016864788035
        4      5       -0.015730145508
        5      8        0.015609686045
     ------------------------------------

     Largest double amplitudes:
     --------------------------------------------------
        a      i       b      j         L(ai,bj)
     --------------------------------------------------
        1      9       1      9       -0.192972275768
        1      9       9     10        0.062799892846
        1      5       7      8       -0.055996861962
        1      4       4      9       -0.050462498245
        1      9       4      9       -0.049196794746
        1      5       2      8       -0.044725288831
        1      5       5      9        0.044634025691
        4      5       1      9       -0.041916429140
        1      5       1      9       -0.041884558203
        4      4       1      9        0.041285676386
     --------------------------------------------------

     Electronic state nr. 3

     Energy (Hartree):                  0.583632215873
     Fraction singles (|L1|/|L|):       0.962176100082

     Largest single amplitudes:
     -----------------------------------
        a       i         L(a,i)
     -----------------------------------
        2     10        0.955636792944
        7     10        0.077176511983
        1     10        0.037135272242
       11     10        0.031358941161
        6     10        0.030181279479
       12     10        0.029704917510
        5     10       -0.026762344543
       10     10        0.021499505884
        4      6       -0.019398647039
       12      6       -0.012679944621
     ------------------------------------

     Largest double amplitudes:
     --------------------------------------------------
        a      i       b      j         L(ai,bj)
     --------------------------------------------------
        1      9       2     10       -0.084364914980
        4      9       2     10       -0.063659363035
        2     10       3     10        0.057350668965
        2      6       7      8       -0.056827021997
        2      6       5      9        0.044479564850
        2      6       3     10        0.044099923401
        2      9       1     10        0.043059543713
        1      5       2     10       -0.042686543742
        2      4       2     10        0.035099660147
        8      9       2     10        0.033941726143
     --------------------------------------------------

     Electronic state nr. 4

     Energy (Hartree):                  0.668057575862
     Fraction singles (|L1|/|L|):       0.929215554886

     Largest single amplitudes:
     -----------------------------------
        a       i         L(a,i)
     -----------------------------------
        1      8       -0.857215517341
        1      7       -0.212237384205
        2      9       -0.211997495591
        1      5       -0.158439459892
        4      8       -0.058925202412
        1      4       -0.056821928198
        1      9        0.046923675189
        4      9       -0.026189202244
        8      8       -0.021278450546
        2      8        0.019918841532
     ------------------------------------

     Largest double amplitudes:
     --------------------------------------------------
        a      i       b      j         L(ai,bj)
     --------------------------------------------------
        1      9       1      9        0.095268762736
        1      8       1      9        0.083845505407
        1      8       4      9        0.083529186527
        2      8       1      9        0.080587160594
        1      8       1      8       -0.069328645559
        1     10       1     10       -0.069179335096
        1      8       2      9       -0.065929136516
        1      8       9     10       -0.064166920337
        7      8       1      9        0.054103446999
        1      5       1      9        0.051744544019
     --------------------------------------------------

  - CCSD excitation energies:

                                      Excitation energy
                          ------------------------------------------
      State                (Hartree)             (eV)
     ---------------------------------------------------------------
        1                  0.217051988285        5.906285439628
        2                  0.334294996775        9.096630201797
        3                  0.583632215873       15.881441519827
        4                  0.668057575862       18.178772580363
     ---------------------------------------------------------------
     eV/Hartree (CODATA 2014): 27.21138602


  Biorthonormalization of excited CC states
  =========================================


  Determining CC LR transition moments
  ====================================

   - Davidson coupled cluster linear equations solver
  ------------------------------------------------------
  A Davidson solver that solves linear equations involving the Jacobian 
  transformation. When solving multiple linear equations, it builds a 
  shared reduced space in which to express each of the solutions to the 
  equations.

  Solving for the M vectors in CC response theory.

  - Davidson CC linear equations solver settings:

     Residual threshold:        0.10E-09
     Max number of iterations:       100

   - Davidson tool settings:

     Number of parameters:                 7380
     Number of requested solutions:           4
     Max reduced space dimension:           100

     Storage (davidson_t_response_trials): file
     Storage (davidson_t_response_transforms): file

  - Entering iterative loop to solve equations.

  Iteration:               1
  Reduced space dimension: 4

  Frequency      Residual norm
  ------------------------------
  -0.22E+00      0.19E-01
  -0.33E+00      0.55E-01
  -0.58E+00      0.32E-01
  -0.67E+00      0.27E-01
  ------------------------------

  Iteration:               2
  Reduced space dimension: 8

  Frequency      Residual norm
  ------------------------------
  -0.22E+00      0.44E-02
  -0.33E+00      0.11E-01
  -0.58E+00      0.39E-02
  -0.67E+00      0.46E-02
  ------------------------------

  Iteration:               3
  Reduced space dimension: 12

  Frequency      Residual norm
  ------------------------------
  -0.22E+00      0.17E-02
  -0.33E+00      0.29E-02
  -0.58E+00      0.61E-03
  -0.67E+00      0.75E-03
  ------------------------------

  Iteration:               4
  Reduced space dimension: 16

  Frequency      Residual norm
  ------------------------------
  -0.22E+00      0.30E-03
  -0.33E+00      0.65E-03
  -0.58E+00      0.81E-04
  -0.67E+00      0.14E-03
  ------------------------------

  Iteration:               5
  Reduced space dimension: 20

  Frequency      Residual norm
  ------------------------------
  -0.22E+00      0.84E-04
  -0.33E+00      0.13E-03
  -0.58E+00      0.15E-04
  -0.67E+00      0.23E-04
  ------------------------------

  Iteration:               6
  Reduced space dimension: 24

  Frequency      Residual norm
  ------------------------------
  -0.22E+00      0.15E-04
  -0.33E+00      0.23E-04
  -0.58E+00      0.19E-05
  -0.67E+00      0.37E-05
  ------------------------------

  Iteration:               7
  Reduced space dimension: 28

  Frequency      Residual norm
  ------------------------------
  -0.22E+00      0.31E-05
  -0.33E+00      0.48E-05
  -0.58E+00      0.33E-06
  -0.67E+00      0.64E-06
  ------------------------------

  Iteration:               8
  Reduced space dimension: 32

  Frequency      Residual norm
  ------------------------------
  -0.22E+00      0.60E-06
  -0.33E+00      0.96E-06
  -0.58E+00      0.52E-07
  -0.67E+00      0.11E-06
  ------------------------------

  Iteration:               9
  Reduced space dimension: 36

  Frequency      Residual norm
  ------------------------------
  -0.22E+00      0.12E-06
  -0.33E+00      0.18E-06
  -0.58E+00      0.11E-07
  -0.67E+00      0.19E-07
  ------------------------------

  Iteration:               10
  Reduced space dimension: 40

  Frequency      Residual norm
  ------------------------------
  -0.22E+00      0.24E-07
  -0.33E+00      0.33E-07
  -0.58E+00      0.17E-08
  -0.67E+00      0.35E-08
  ------------------------------

  Iteration:               11
  Reduced space dimension: 44

  Frequency      Residual norm
  ------------------------------
  -0.22E+00      0.47E-08
  -0.33E+00      0.64E-08
  -0.58E+00      0.33E-09
  -0.67E+00      0.54E-09
  ------------------------------

  Iteration:               12
  Reduced space dimension: 48

  Frequency      Residual norm
  ------------------------------
  -0.22E+00      0.89E-09
  -0.33E+00      0.13E-08
  -0.58E+00      0.49E-10
  -0.67E+00      0.10E-09
  ------------------------------

  Iteration:               13
  Reduced space dimension: 51

  Frequency      Residual norm
  ------------------------------
  -0.22E+00      0.14E-09
  -0.33E+00      0.31E-09
  -0.58E+00      0.45E-10
  -0.67E+00      0.19E-10
  ------------------------------

  Iteration:               14
  Reduced space dimension: 53

  Frequency      Residual norm
  ------------------------------
  -0.22E+00      0.27E-10
  -0.33E+00      0.63E-10
  -0.58E+00      0.45E-10
  -0.67E+00      0.14E-10
  ------------------------------
  Convergence criterion met in 14 iterations!

  - Finished solving the CCSD linear equations

     Total wall time (sec):               1.58800
     Total cpu time (sec):                0.76042

  - Summary of LR transition properties calculation:

     States m = 0 and n = 1:
     -------------------------
     Calculation type:                              LR
     Excitation energy [E_h]:           0.217051988285
     Excitation energy [eV]:            5.906285439621
     Hartree-to-eV (CODATA 2014):          27.21138602

                   Transition moments [a.u.]         Transition strength [a.u.]
     --------------------------------------------------------------------------
     Comp. q     < n |q| m >       < m |q| n >        < n |q| m > < m |q| n >
     --------------------------------------------------------------------------
     X           0.0000000000     -0.0000000000           -0.0000000000
     Y          -0.0000000000      0.0000000000           -0.0000000000
     Z          -0.0912268678     -0.1775809213            0.0162001512
     --------------------------------------------------------------------------
     Oscillator strength:      0.002344183356

     States m = 0 and n = 2:
     -------------------------
     Calculation type:                              LR
     Excitation energy [E_h]:           0.334294996775
     Excitation energy [eV]:            9.096630201791
     Hartree-to-eV (CODATA 2014):          27.21138602

                   Transition moments [a.u.]         Transition strength [a.u.]
     --------------------------------------------------------------------------
     Comp. q     < n |q| m >       < m |q| n >        < n |q| m > < m |q| n >
     --------------------------------------------------------------------------
     X          -0.1949903140     -0.3722603853            0.0725871694
     Y           0.5909189697      1.1402068622            0.6737698643
     Z           0.0000000000      0.0000000000            0.0000000000
     --------------------------------------------------------------------------
     Oscillator strength:      0.166335614780

     States m = 0 and n = 3:
     -------------------------
     Calculation type:                              LR
     Excitation energy [E_h]:           0.583632215873
     Excitation energy [eV]:           15.881441519829
     Hartree-to-eV (CODATA 2014):          27.21138602

                   Transition moments [a.u.]         Transition strength [a.u.]
     --------------------------------------------------------------------------
     Comp. q     < n |q| m >       < m |q| n >        < n |q| m > < m |q| n >
     --------------------------------------------------------------------------
     X          -0.0000000000      0.0000000000           -0.0000000000
     Y           0.0000000000      0.0000000000            0.0000000000
     Z          -0.1092126722     -0.2163664596            0.0236299592
     --------------------------------------------------------------------------
     Oscillator strength:      0.009194136977

     States m = 0 and n = 4:
     -------------------------
     Calculation type:                              LR
     Excitation energy [E_h]:           0.668057575862
     Excitation energy [eV]:           18.178772580357
     Hartree-to-eV (CODATA 2014):          27.21138602

                   Transition moments [a.u.]         Transition strength [a.u.]
     --------------------------------------------------------------------------
     Comp. q     < n |q| m >       < m |q| n >        < n |q| m > < m |q| n >
     --------------------------------------------------------------------------
     X          -0.2522450107     -0.5023533065            0.1267161152
     Y           0.1066857561      0.2163291014            0.0230792338
     Z           0.0000000000     -0.0000000000           -0.0000000000
     --------------------------------------------------------------------------
     Oscillator strength:      0.066714611791

  ------------------------------------------------------------

  Peak memory usage during the execution of eT: 18.000904 MB

  Total wall time in eT (sec):              7.02600
  Total cpu time in eT (sec):               3.63470

  Calculation ended: 2022-04-07 12:35:11 UTC -07:00

  - Implementation references:

     eT: https://doi.org/10.1063/5.0004713
     Cholesky decomposition of ERIs: https://doi.org/10.1063/1.5083802

  eT terminated successfully!
