


                     eT 1.7 - an electronic structure program

  ------------------------------------------------------------------------
   Author list in alphabetical order:
  ------------------------------------------------------------------------
   J. H. Andersen, A. Balbi, S. Coriani, S. D. Folkestad, T. Giovannini, 
   L. Goletto, T. S. Haugland, A. Hutcheson, I-M. Høyvik, E. F. Kjønstad, 
   H. Koch, R. Matveeva, T. Moitra, R. H. Myhre, A. C. Paul, S. Roet, 
   E. RoncaM. Scavino, A. K. Schnack-Petersen, A. S. Skeidsvoll, Å. 
   H. Tveten
  ------------------------------------------------------------------------
   J. Chem. Phys. 152, 184103 (2020); https://doi.org/10.1063/5.0004713


   This is eT 1.7.0 Hydra
  ------------------------------------------------------------
  Configuration date: 2022-04-07 12:33:31 UTC -07:00
  Git branch:         release-v1.7.0
  Git hash:           c5c382d7d23365463896a87c37298e4a37e4c962
  Fortran compiler:   GNU 11.2.0
  C compiler:         GNU 11.2.0
  C++ compiler:       GNU 11.2.0
  LAPACK type:        SYSTEM_NATIVE
  BLAS type:          SYSTEM_NATIVE
  64-bit integers:    OFF
  OpenMP:             ON
  PCM:                OFF
  Forced batching:    OFF
  Runtime checks:     OFF
  ------------------------------------------------------------

  Calculation started: 2022-04-07 12:35:50 UTC -07:00


  :: Input file
  ================

     Note: geometry section is excluded from this print

     system
        name: H2O He
        charge: 0
     end system

     do
        ground state
        excited state
     end do

     memory
        available: 8
     end memory

     solver cholesky
        threshold: 1.0d-12
     end solver cholesky

     solver scf
        algorithm:          scf-diis
        energy threshold:   1.0d-11
        gradient threshold: 1.0d-11
     end solver scf

     method
        hf
        mlcc2
     end method

     solver cc gs
        omega threshold:  1.0d-11
        energy threshold: 1.0d-11
     end solver cc gs

     solver cc es
        algorithm:          davidson
        singlet states:     4
        residual threshold: 1.0d-11
        energy threshold:   1.0d-11
        left eigenvectors
     end solver cc es

     mlcc
        cc2 orbitals: nto-canonical
        nto occupied cc2: 2
        nto states: {1,2,3,4}
     end mlcc


  Running on 2 OMP threads
  Memory available for calculation: 8.000000 GB


  :: RHF wavefunction
  ======================

     ==============================================================================
                                     Geometry (angstrom)
     ==============================================================================
        Atom           X                  Y                  Z         # in input
     ==============================================================================
        Basis: cc-pvdz
        1  H     0.866810000000     0.601440000000     5.000000000000        1
        2  H    -0.866810000000     0.601440000000     5.000000000000        2
        3  O     0.000000000000    -0.075790000000     5.000000000000        3
        4 He     0.100000000000    -0.020000000000     7.530000000000        4
     ==============================================================================

     ==============================================================================
                                     Geometry (a.u.)
     ==============================================================================
        Atom           X                  Y                  Z         # in input
     ==============================================================================
        Basis: cc-pvdz
        1  H     1.638033502034     1.136556880358     9.448630622825        1
        2  H    -1.638033502034     1.136556880358     9.448630622825        2
        3  O     0.000000000000    -0.143222342981     9.448630622825        3
        4 He     0.188972612457    -0.037794522491    14.229637717975        4
     ==============================================================================

  - Cholesky decomposition of AO overlap to get linearly independent AOs:

     Linear dependence threshold:             0.10E-05
     Number of atomic orbitals:               29
     Number of orthonormal atomic orbitals:   29

  - Molecular orbital details:

     Number of occupied orbitals:         6
     Number of virtual orbitals:         23
     Number of molecular orbitals:       29


  :: Hartree-Fock engine
  =========================

  Drives the calculation of the Hartree-Fock state.

  This is a RHF ground state calculation.
  The following tasks will be performed:

     1) Generate initial SAD density
     2) Calculation of reference state (SCF-DIIS algorithm)


  1) Generate initial SAD density


  2) Calculation of reference state (SCF-DIIS algorithm)

  - Setting initial AO density to sad

     Energy of initial guess:               -78.492022836321
     Number of electrons in guess:           12.000000000000

  - Screening and integral thresholds:

     Coulomb screening threshold:    0.1000E-16
     Exchange screening threshold:   0.1000E-14
     ERI cutoff:                     0.1000E-16
     One-electron integral  cutoff:  0.1000E-21
     Cumulative Fock threshold:      0.1000E+01

  - SCF solver settings:

     Maximum iterations:                   100
     Acceleration type:                   diis

  - Convergence thresholds

     Residual threshold:            0.1000E-10
     Energy threshold:              0.1000E-10

  - DIIS tool settings:

     DIIS dimension:   8

     Storage (solver scf_errors): memory
     Storage (solver scf_parameters): memory

  Iteration       Energy (a.u.)      Max(grad.)    Delta E (a.u.)
  ---------------------------------------------------------------
     1           -78.796606592585     0.9786E-01     0.7880E+02
     2           -78.828675852654     0.7077E-01     0.3207E-01
     3           -78.843487343819     0.6747E-02     0.1481E-01
     4           -78.843814479549     0.2753E-02     0.3271E-03
     5           -78.843850612079     0.3973E-03     0.3613E-04
     6           -78.843851670925     0.5220E-04     0.1059E-05
     7           -78.843851692779     0.6096E-05     0.2185E-07
     8           -78.843851693527     0.2137E-05     0.7487E-09
     9           -78.843851693630     0.3151E-06     0.1028E-09
    10           -78.843851693631     0.2637E-07     0.4832E-12
    11           -78.843851693631     0.5634E-08     0.1421E-13
    12           -78.843851693631     0.1415E-08     0.4263E-13
    13           -78.843851693631     0.6806E-09     0.7105E-13
    14           -78.843851693631     0.1491E-09     0.2842E-13
    15           -78.843851693631     0.2501E-10     0.7105E-13
    16           -78.843851693631     0.5171E-11     0.5684E-13
  ---------------------------------------------------------------
  Convergence criterion met in 16 iterations!

  - Summary of RHF wavefunction energetics (a.u.):

     HOMO-LUMO gap:                  0.645629080245
     Nuclear repulsion energy:      12.116100574587
     Electronic energy:            -90.959952268218
     Total energy:                 -78.843851693631

  - Timings for the RHF ground state calculation

     Total wall time (sec):              0.34400
     Total cpu time (sec):               0.43076


  :: MLCC2 wavefunction
  ========================

     Bath orbital(s):         False

   - Number of orbitals:

     Occupied orbitals:    6
     Virtual orbitals:     23
     Molecular orbitals:   29
     Atomic orbitals:      29


  Cholesky-decomposing electron repulsion integrals
  =================================================

  Cholesky decomposition of electronic repulsion integrals solver
  ---------------------------------------------------------------

  Performs a Cholesky decomposition of the two-electron electronic repulsion 
  integrals in the atomic orbital basis,

  (ab|cd) = sum_J L_ab^J L_cd^J.

  Once the Cholesky basis has been determined, the vectors L^J are constructed 
  and stored to disk. These may either be used directly, or be transformed 
  to the MO basis for use in post-HF calculations. For more information, 
  see S. D. Folkestad, E. F. Kjønstad and H. Koch, JCP, 150(19), (2019)

  - Cholesky decomposition settings:

     Target threshold is:   0.10E-11
     Span factor:           0.10E-01
     Max qual:                  1000

  - Cholesky decomposition ao details:

     Total number of AOs:                    29
     Total number of shell pairs:           120
     Total number of AO pairs:              435

     Significant shell pairs:               118
     Significant AO pairs:                  431

     Construct shell pairs:                 120
     Construct AO pairs:                    435

  Iter.  #Sign. ao pairs / shell pairs   Max diagonal    #Qualified    #Cholesky    Cholesky array size
  -------------------------------------------------------------------------------------------------------
     1               406 /     108       0.47383E+01         147             42             17052
     2               319 /      93       0.47165E-01         234            111             35409
     3               250 /      76       0.46944E-03         178            183             45750
     4               187 /      55       0.38270E-05         145            265             49555
     5                87 /      25       0.38106E-07          78            324             28188
     6                21 /       3       0.37202E-09          43            349              7329
     7                 0 /       0       0.36652E-11           7            354                 0
  -------------------------------------------------------------------------------------------------------

  - Summary of Cholesky decomposition of electronic repulsion integrals:

     Final number of Cholesky vectors: 354

 - Testing the Cholesky decomposition decomposition electronic repulsion integrals:

     Maximal difference between approximate and actual diagonal:              0.7161E-12
     Minimal element of difference between approximate and actual diagonal:  -0.1238E-14

  - Settings for integral handling:

     Cholesky vectors in memory: True
     ERI matrix in memory:       False

  - Finished decomposing the ERIs.

     Total wall time (sec):              0.30700
     Total cpu time (sec):               0.21808

  Running CCS calculation for NTOs/CNTOs.

  - Summary of CCS calculation for NTOs/CNTOs:

     Wall time for CCS ground calculation (sec):                   0.01
     CPU time for CCS ground calculation (sec):                    0.00

     Wall time for CCS excited calculation (sec):                  0.12
     CPU time for CCS excited calculation (sec):                   0.10

  - MLCC2 orbital partitioning:

     Orbital type: nto-canonical

     Number occupied cc2 orbitals:    2
     Number virtual cc2 orbitals:     6

     Number occupied ccs orbitals:    4
     Number virtual ccs orbitals:    17


  Determining CC cluster amplitudes
  =================================

   - DIIS coupled cluster ground state solver
  ----------------------------------------------

  A DIIS CC ground state amplitude equations solver. It uses an extrapolation 
  of previous quasi-Newton perturbation theory estimates of the next amplitudes. 
  See Helgaker et al., Molecular Electronic Structure Theory, Chapter 
  13.

  - CC ground state solver settings:

  - Convergence thresholds

     Residual threshold:            0.1000E-10
     Energy threshold:              0.1000E-10
     Max number of iterations:      100

  - DIIS tool settings:

     DIIS dimension:   8

     Storage (cc_gs_diis_errors): file
     Storage (cc_gs_diis_parameters): file

  Iteration    Energy (a.u.)        |omega|       Delta E (a.u.)
  ---------------------------------------------------------------
    1           -78.874442714333     0.1557E-01     0.7887E+02
    2           -78.874723729167     0.3711E-02     0.2810E-03
    3           -78.874812470781     0.9659E-03     0.8874E-04
    4           -78.874831096893     0.2402E-03     0.1863E-04
    5           -78.874831286703     0.4034E-04     0.1898E-06
    6           -78.874831293111     0.4919E-05     0.6408E-08
    7           -78.874831288089     0.1607E-05     0.5022E-08
    8           -78.874831291015     0.1888E-06     0.2927E-08
    9           -78.874831289865     0.2863E-07     0.1151E-08
   10           -78.874831290086     0.5811E-08     0.2216E-09
   11           -78.874831290095     0.1358E-08     0.8413E-11
   12           -78.874831290089     0.4615E-09     0.5969E-11
   13           -78.874831290091     0.6498E-10     0.2345E-11
   14           -78.874831290091     0.8648E-11     0.3553E-12
  ---------------------------------------------------------------
  Convergence criterion met in 14 iterations!

  - Ground state summary:

     Final ground state energy (a.u.):   -78.874831290091

     Correlation energy (a.u.):           -0.030979596460

     Largest single amplitudes:
     -----------------------------------
        a       i         t(a,i)
     -----------------------------------
        1      1        0.014258631228
        4      1        0.004085651779
        5      2        0.003937623665
       15      1       -0.003478662676
       10      1        0.002724857855
        9      2       -0.002418451830
        1      4       -0.002028209249
       11      2       -0.001889985199
        2      6       -0.001830895978
        6      4        0.001755814902
     ------------------------------------

  - Finished solving the MLCC2 ground state equations

     Total wall time (sec):              0.14500
     Total cpu time (sec):               0.09933


  Determining CC excited state amplitudes
  =======================================

  Davidson eigenvalue equation solver
  -----------------------------------

  A Davidson solver that solves an eigenvalue equation: M x = omega x. 
  This equation is solved in a reduced space. A description of the algorithm 
  can be found in E. R. Davidson, J. Comput. Phys. 17, 87 (1975).

   - Davidson tool settings:

     Number of parameters:                  216
     Number of requested solutions:           4
     Max reduced space dimension:           100

     Storage (cc_es_davidson_trials): memory
     Storage (cc_es_davidson_transforms): memory

  - Davidson solver settings

     Number of singlet states:               4
     Max number of iterations:             100

  Iteration:                  1
  Reduced space dimension:    4

  Root  Eigenvalue (Re)   Eigenvalue (Im)    |residual|   Delta E (Re)
  -------------------------------------------------------------------------
     1   0.321765949548    0.000000000000     0.3872E+00   0.3218E+00
     2   0.388535801006    0.000000000000     0.3846E+00   0.3885E+00
     3   0.430551520916    0.000000000000     0.3636E+00   0.4306E+00
     4   0.475305528534    0.000000000000     0.3175E+00   0.4753E+00
  -------------------------------------------------------------------------

  Iteration:                  2
  Reduced space dimension:    8

  Root  Eigenvalue (Re)   Eigenvalue (Im)    |residual|   Delta E (Re)
  -------------------------------------------------------------------------
     1   0.270366235644    0.000000000000     0.3960E-01   0.5140E-01
     2   0.330302958979    0.000000000000     0.5815E-01   0.5823E-01
     3   0.374796658678    0.000000000000     0.4108E-01   0.5575E-01
     4   0.429244085081    0.000000000000     0.4673E-01   0.4606E-01
  -------------------------------------------------------------------------

  Iteration:                  3
  Reduced space dimension:   12

  Root  Eigenvalue (Re)   Eigenvalue (Im)    |residual|   Delta E (Re)
  -------------------------------------------------------------------------
     1   0.267740309437    0.000000000000     0.9361E-02   0.2626E-02
     2   0.323578025790    0.000000000000     0.1147E-01   0.6725E-02
     3   0.372393301791    0.000000000000     0.1800E-01   0.2403E-02
     4   0.424789253170    0.000000000000     0.1366E-01   0.4455E-02
  -------------------------------------------------------------------------

  Iteration:                  4
  Reduced space dimension:   16

  Root  Eigenvalue (Re)   Eigenvalue (Im)    |residual|   Delta E (Re)
  -------------------------------------------------------------------------
     1   0.267584498209    0.000000000000     0.1677E-02   0.1558E-03
     2   0.323415918247    0.000000000000     0.3201E-02   0.1621E-03
     3   0.371322394487    0.000000000000     0.3995E-02   0.1071E-02
     4   0.423971434847    0.000000000000     0.1826E-01   0.8178E-03
  -------------------------------------------------------------------------

  Iteration:                  5
  Reduced space dimension:   20

  Root  Eigenvalue (Re)   Eigenvalue (Im)    |residual|   Delta E (Re)
  -------------------------------------------------------------------------
     1   0.267594096415    0.000000000000     0.2301E-03   0.9598E-05
     2   0.323425712654    0.000000000000     0.2437E-03   0.9794E-05
     3   0.371383030636    0.000000000000     0.1002E-02   0.6064E-04
     4   0.423545962459    0.000000000000     0.1087E-01   0.4255E-03
  -------------------------------------------------------------------------

  Iteration:                  6
  Reduced space dimension:   24

  Root  Eigenvalue (Re)   Eigenvalue (Im)    |residual|   Delta E (Re)
  -------------------------------------------------------------------------
     1   0.267594530849    0.000000000000     0.3203E-04   0.4344E-06
     2   0.323425396246    0.000000000000     0.2569E-04   0.3164E-06
     3   0.371379964042    0.000000000000     0.2948E-03   0.3067E-05
     4   0.423484380321    0.000000000000     0.2379E-02   0.6158E-04
  -------------------------------------------------------------------------

  Iteration:                  7
  Reduced space dimension:   28

  Root  Eigenvalue (Re)   Eigenvalue (Im)    |residual|   Delta E (Re)
  -------------------------------------------------------------------------
     1   0.267594455648    0.000000000000     0.4214E-05   0.7520E-07
     2   0.323425372837    0.000000000000     0.2554E-05   0.2341E-07
     3   0.371377661433    0.000000000000     0.3553E-04   0.2303E-05
     4   0.423467915130    0.000000000000     0.3475E-03   0.1647E-04
  -------------------------------------------------------------------------

  Iteration:                  8
  Reduced space dimension:   32

  Root  Eigenvalue (Re)   Eigenvalue (Im)    |residual|   Delta E (Re)
  -------------------------------------------------------------------------
     1   0.267594468055    0.000000000000     0.4192E-06   0.1241E-07
     2   0.323425375345    0.000000000000     0.2112E-06   0.2508E-08
     3   0.371377820985    0.000000000000     0.7482E-05   0.1596E-06
     4   0.423471333002    0.000000000000     0.3449E-04   0.3418E-05
  -------------------------------------------------------------------------

  Iteration:                  9
  Reduced space dimension:   36

  Root  Eigenvalue (Re)   Eigenvalue (Im)    |residual|   Delta E (Re)
  -------------------------------------------------------------------------
     1   0.267594465997    0.000000000000     0.4878E-07   0.2058E-08
     2   0.323425374921    0.000000000000     0.2557E-07   0.4243E-09
     3   0.371377803318    0.000000000000     0.9742E-06   0.1767E-07
     4   0.423471014646    0.000000000000     0.4458E-05   0.3184E-06
  -------------------------------------------------------------------------

  Iteration:                 10
  Reduced space dimension:   40

  Root  Eigenvalue (Re)   Eigenvalue (Im)    |residual|   Delta E (Re)
  -------------------------------------------------------------------------
     1   0.267594465827    0.000000000000     0.8060E-08   0.1705E-09
     2   0.323425374976    0.000000000000     0.2338E-08   0.5588E-10
     3   0.371377807849    0.000000000000     0.1161E-06   0.4531E-08
     4   0.423471047636    0.000000000000     0.6687E-06   0.3299E-07
  -------------------------------------------------------------------------

  Iteration:                 11
  Reduced space dimension:   44

  Root  Eigenvalue (Re)   Eigenvalue (Im)    |residual|   Delta E (Re)
  -------------------------------------------------------------------------
     1   0.267594465905    0.000000000000     0.8516E-09   0.7840E-10
     2   0.323425374971    0.000000000000     0.2204E-09   0.5346E-11
     3   0.371377808070    0.000000000000     0.1266E-07   0.2211E-09
     4   0.423471049491    0.000000000000     0.9172E-07   0.1854E-08
  -------------------------------------------------------------------------

  Iteration:                 12
  Reduced space dimension:   48

  Root  Eigenvalue (Re)   Eigenvalue (Im)    |residual|   Delta E (Re)
  -------------------------------------------------------------------------
     1   0.267594465898    0.000000000000     0.8730E-10   0.7144E-11
     2   0.323425374971    0.000000000000     0.4284E-10   0.1520E-12
     3   0.371377808105    0.000000000000     0.1701E-08   0.3479E-10
     4   0.423471049152    0.000000000000     0.1330E-07   0.3384E-09
  -------------------------------------------------------------------------

  Iteration:                 13
  Reduced space dimension:   52

  Root  Eigenvalue (Re)   Eigenvalue (Im)    |residual|   Delta E (Re)
  -------------------------------------------------------------------------
     1   0.267594465899    0.000000000000     0.1128E-10   0.6294E-12
     2   0.323425374971    0.000000000000     0.4278E-11   0.1116E-13
     3   0.371377808101    0.000000000000     0.2803E-09   0.4042E-11
     4   0.423471049266    0.000000000000     0.9583E-09   0.1142E-09
  -------------------------------------------------------------------------

  Iteration:                 14
  Reduced space dimension:   55

  Root  Eigenvalue (Re)   Eigenvalue (Im)    |residual|   Delta E (Re)
  -------------------------------------------------------------------------
     1   0.267594465899    0.000000000000     0.5120E-12   0.1260E-13
     2   0.323425374971    0.000000000000     0.3990E-11   0.2276E-14
     3   0.371377808102    0.000000000000     0.4678E-10   0.1507E-11
     4   0.423471049256    0.000000000000     0.1630E-09   0.1080E-10
  -------------------------------------------------------------------------

  Iteration:                 15
  Reduced space dimension:   57

  Root  Eigenvalue (Re)   Eigenvalue (Im)    |residual|   Delta E (Re)
  -------------------------------------------------------------------------
     1   0.267594465899    0.000000000000     0.5127E-12   0.2942E-14
     2   0.323425374971    0.000000000000     0.3982E-11   0.8882E-15
     3   0.371377808103    0.000000000000     0.5317E-11   0.1815E-13
     4   0.423471049257    0.000000000000     0.8138E-11   0.1011E-11
  -------------------------------------------------------------------------
  Convergence criterion met in 15 iterations!

  - Excitation vector amplitudes:

     Electronic state nr. 1

     Energy (Hartree):                  0.267594465899
     Fraction singles (|L1|/|L|):       0.984058164013

     MLCC diagnostics:

     |L1^internal|/|L| =       0.982827415736
     |L1^internal|/|L1| =      0.998749313484

     Largest single amplitudes:
     -----------------------------------
        a       i         L(a,i)
     -----------------------------------
        1      2       -0.973963208065
        4      2       -0.122273768995
        6      2        0.048115297384
       13      2        0.040645053082
       15      2       -0.015325149018
        9      2        0.009623092607
       22      2       -0.008681341067
       10      2       -0.008508104239
       19      1        0.008501191238
        1      1       -0.007293625093
     ------------------------------------

     Electronic state nr. 2

     Energy (Hartree):                  0.323425374971
     Fraction singles (|L1|/|L|):       0.984297076452

     MLCC diagnostics:

     |L1^internal|/|L| =       0.978992995024
     |L1^internal|/|L1| =      0.994611300231

     Largest single amplitudes:
     -----------------------------------
        a       i         L(a,i)
     -----------------------------------
        2      2        0.960871046617
        3      2        0.187439703658
        7      2       -0.094761110228
       14      2        0.036106616685
       12      2       -0.006747770574
        8      4       -0.005489951442
        2      1        0.004045739308
       20      4        0.003604295301
       11      6       -0.003443023362
        5      6       -0.003392473397
     ------------------------------------

     Electronic state nr. 3

     Energy (Hartree):                  0.371377808103
     Fraction singles (|L1|/|L|):       0.981588743927

     MLCC diagnostics:

     |L1^internal|/|L| =       0.964776866853
     |L1^internal|/|L1| =      0.982872789467

     Largest single amplitudes:
     -----------------------------------
        a       i         L(a,i)
     -----------------------------------
        1      1       -0.959800782030
        2      6        0.158196783705
        4      1       -0.087427870220
        3      6        0.062450954161
        5      2        0.043400992723
       13      1        0.034046490105
        7      6       -0.026525517033
        1      4        0.025586577076
       10      1       -0.016805938361
        4      4        0.015047494904
     ------------------------------------

     Electronic state nr. 4

     Energy (Hartree):                  0.423471049257
     Fraction singles (|L1|/|L|):       0.989104453885

     MLCC diagnostics:

     |L1^internal|/|L| =       0.953435095419
     |L1^internal|/|L1| =      0.963937723335

     Largest single amplitudes:
     -----------------------------------
        a       i         L(a,i)
     -----------------------------------
        2      1        0.943815467301
        1      6       -0.234996767601
        3      1        0.135038154156
        7      1       -0.085819602361
        4      6       -0.071205138162
       14      1        0.018491797472
       15      6       -0.016400128843
        8      2        0.016294702390
       20      2        0.010219182394
       13      6        0.009755445424
     ------------------------------------

  - MLCC2 excitation energies:

                                      Excitation energy
                          ------------------------------------------
      State                (Hartree)             (eV)
     ---------------------------------------------------------------
        1                  0.267594465899        7.281616308381
        2                  0.323425374971        8.800852727005
        3                  0.371377808103       10.105704895539
        4                  0.423471049257       11.523234189618
     ---------------------------------------------------------------
     eV/Hartree (CODATA 2014): 27.21138602

  ------------------------------------------------------------

  Peak memory usage during the execution of eT: 12.370628 MB

  Total wall time in eT (sec):              1.34700
  Total cpu time in eT (sec):               1.11323

  Calculation ended: 2022-04-07 12:35:51 UTC -07:00

  - Implementation references:

     eT: https://doi.org/10.1063/5.0004713
     MLCC2 and MLCCSD: https://doi.org/10.1021/acs.jctc.9b00701
     Cholesky decomposition of ERIs: https://doi.org/10.1063/1.5083802

  eT terminated successfully!
