


                     eT 1.7 - an electronic structure program

  ------------------------------------------------------------------------
   Author list in alphabetical order:
  ------------------------------------------------------------------------
   J. H. Andersen, A. Balbi, S. Coriani, S. D. Folkestad, T. Giovannini, 
   L. Goletto, T. S. Haugland, A. Hutcheson, I-M. Høyvik, E. F. Kjønstad, 
   H. Koch, R. Matveeva, T. Moitra, R. H. Myhre, A. C. Paul, S. Roet, 
   E. RoncaM. Scavino, A. K. Schnack-Petersen, A. S. Skeidsvoll, Å. 
   H. Tveten
  ------------------------------------------------------------------------
   J. Chem. Phys. 152, 184103 (2020); https://doi.org/10.1063/5.0004713


   This is eT 1.7.0 Hydra
  ------------------------------------------------------------
  Configuration date: 2022-04-07 12:33:31 UTC -07:00
  Git branch:         release-v1.7.0
  Git hash:           c5c382d7d23365463896a87c37298e4a37e4c962
  Fortran compiler:   GNU 11.2.0
  C compiler:         GNU 11.2.0
  C++ compiler:       GNU 11.2.0
  LAPACK type:        SYSTEM_NATIVE
  BLAS type:          SYSTEM_NATIVE
  64-bit integers:    OFF
  OpenMP:             ON
  PCM:                OFF
  Forced batching:    OFF
  Runtime checks:     OFF
  ------------------------------------------------------------

  Calculation started: 2022-04-07 12:34:44 UTC -07:00


  :: Input file
  ================

     Note: geometry section is excluded from this print

     system
        name: H2O He
        charge: 0
        multiplicity: 1
     end system

     do
        response
     end do

     cc response
        eom
        dipole length
        transition moments
     end cc response

     memory
        available: 8
     end memory

     solver cholesky
        threshold: 1.0d-12
     end solver cholesky

     solver scf
        algorithm: scf-diis
        energy threshold: 1.0d-12
        gradient threshold: 1.0d-12
     end solver scf

     solver cc gs
        omega threshold: 1.0d-11
     end solver cc gs

     solver cc multipliers
        threshold: 1.0d-11
        algorithm: davidson
     end solver cc multipliers

     solver cc es
        singlet states: 6
        algorithm: diis
        residual threshold: 1.0d-11
        energy threshold:   1.0d-11
        max iterations: 300
     end solver cc es

     method
        hf
        ccs
     end method


  Running on 2 OMP threads
  Memory available for calculation: 8.000000 GB


  :: RHF wavefunction
  ======================

     ==============================================================================
                                     Geometry (angstrom)
     ==============================================================================
        Atom           X                  Y                  Z         # in input
     ==============================================================================
        Basis: cc-pvdz
        1  H     0.866810000000     0.601440000000     5.000000000000        1
        2  H    -0.866810000000     0.601440000000     5.000000000000        2
        3  O     0.000000000000    -0.075790000000     5.000000000000        3
        4 He     0.100000000000    -0.020000000000     7.530000000000        4
     ==============================================================================

     ==============================================================================
                                     Geometry (a.u.)
     ==============================================================================
        Atom           X                  Y                  Z         # in input
     ==============================================================================
        Basis: cc-pvdz
        1  H     1.638033502034     1.136556880358     9.448630622825        1
        2  H    -1.638033502034     1.136556880358     9.448630622825        2
        3  O     0.000000000000    -0.143222342981     9.448630622825        3
        4 He     0.188972612457    -0.037794522491    14.229637717975        4
     ==============================================================================

  - Cholesky decomposition of AO overlap to get linearly independent AOs:

     Linear dependence threshold:             0.10E-05
     Number of atomic orbitals:               29
     Number of orthonormal atomic orbitals:   29

  - Molecular orbital details:

     Number of occupied orbitals:         6
     Number of virtual orbitals:         23
     Number of molecular orbitals:       29


  :: Hartree-Fock engine
  =========================

  Drives the calculation of the Hartree-Fock state.

  This is a RHF ground state calculation.
  The following tasks will be performed:

     1) Generate initial SAD density
     2) Calculation of reference state (SCF-DIIS algorithm)


  1) Generate initial SAD density


  2) Calculation of reference state (SCF-DIIS algorithm)

  - Setting initial AO density to sad

     Energy of initial guess:               -78.492022836315
     Number of electrons in guess:           12.000000000000

  - Screening and integral thresholds:

     Coulomb screening threshold:    0.1000E-17
     Exchange screening threshold:   0.1000E-15
     ERI cutoff:                     0.1000E-17
     One-electron integral  cutoff:  0.1000E-22
     Cumulative Fock threshold:      0.1000E+01

  - SCF solver settings:

     Maximum iterations:                   100
     Acceleration type:                   diis

  - Convergence thresholds

     Residual threshold:            0.1000E-11
     Energy threshold:              0.1000E-11

  - DIIS tool settings:

     DIIS dimension:   8

     Storage (solver scf_errors): memory
     Storage (solver scf_parameters): memory

  Iteration       Energy (a.u.)      Max(grad.)    Delta E (a.u.)
  ---------------------------------------------------------------
     1           -78.796606592587     0.9786E-01     0.7880E+02
     2           -78.828675852654     0.7077E-01     0.3207E-01
     3           -78.843487343819     0.6747E-02     0.1481E-01
     4           -78.843814479549     0.2753E-02     0.3271E-03
     5           -78.843850612079     0.3973E-03     0.3613E-04
     6           -78.843851670925     0.5220E-04     0.1059E-05
     7           -78.843851692779     0.6096E-05     0.2185E-07
     8           -78.843851693528     0.2137E-05     0.7488E-09
     9           -78.843851693630     0.3151E-06     0.1027E-09
    10           -78.843851693631     0.2637E-07     0.4832E-12
    11           -78.843851693631     0.5634E-08     0.5684E-13
    12           -78.843851693631     0.1415E-08     0.7105E-13
    13           -78.843851693631     0.6806E-09     0.1421E-13
    14           -78.843851693631     0.1491E-09     0.4263E-13
    15           -78.843851693631     0.2501E-10     0.1421E-13
    16           -78.843851693631     0.5166E-11     0.1421E-13
    17           -78.843851693631     0.1342E-11     0.7105E-13
    18           -78.843851693631     0.2419E-12     0.7105E-13
  ---------------------------------------------------------------
  Convergence criterion met in 18 iterations!

  - Summary of RHF wavefunction energetics (a.u.):

     HOMO-LUMO gap:                  0.645629080251
     Nuclear repulsion energy:      12.116100574587
     Electronic energy:            -90.959952268218
     Total energy:                 -78.843851693631

  - Timings for the RHF ground state calculation

     Total wall time (sec):              0.51300
     Total cpu time (sec):               0.43717


  :: CCS wavefunction
  ======================

     Bath orbital(s):         False

   - Number of orbitals:

     Occupied orbitals:    6
     Virtual orbitals:     23
     Molecular orbitals:   29
     Atomic orbitals:      29

   - Number of ground state amplitudes:

     Single excitation amplitudes:  138


  Cholesky-decomposing electron repulsion integrals
  =================================================

  Cholesky decomposition of electronic repulsion integrals solver
  ---------------------------------------------------------------

  Performs a Cholesky decomposition of the two-electron electronic repulsion 
  integrals in the atomic orbital basis,

  (ab|cd) = sum_J L_ab^J L_cd^J.

  Once the Cholesky basis has been determined, the vectors L^J are constructed 
  and stored to disk. These may either be used directly, or be transformed 
  to the MO basis for use in post-HF calculations. For more information, 
  see S. D. Folkestad, E. F. Kjønstad and H. Koch, JCP, 150(19), (2019)

  - Cholesky decomposition settings:

     Target threshold is:   0.10E-11
     Span factor:           0.10E-01
     Max qual:                  1000

  - Cholesky decomposition ao details:

     Total number of AOs:                    29
     Total number of shell pairs:           120
     Total number of AO pairs:              435

     Significant shell pairs:               118
     Significant AO pairs:                  431

     Construct shell pairs:                 120
     Construct AO pairs:                    435

  Iter.  #Sign. ao pairs / shell pairs   Max diagonal    #Qualified    #Cholesky    Cholesky array size
  -------------------------------------------------------------------------------------------------------
     1               406 /     108       0.47383E+01         147             42             17052
     2               319 /      93       0.47165E-01         234            111             35409
     3               250 /      76       0.46944E-03         178            183             45750
     4               187 /      55       0.38270E-05         145            265             49555
     5                87 /      25       0.38106E-07          78            324             28188
     6                21 /       3       0.37202E-09          43            349              7329
     7                 0 /       0       0.36652E-11           7            354                 0
  -------------------------------------------------------------------------------------------------------

  - Summary of Cholesky decomposition of electronic repulsion integrals:

     Final number of Cholesky vectors: 354

 - Testing the Cholesky decomposition decomposition electronic repulsion integrals:

     Maximal difference between approximate and actual diagonal:              0.7161E-12
     Minimal element of difference between approximate and actual diagonal:  -0.1238E-14

  - Settings for integral handling:

     Cholesky vectors in memory: True
     ERI matrix in memory:       False

  - Finished decomposing the ERIs.

     Total wall time (sec):              0.26900
     Total cpu time (sec):               0.18801


  Determining CC cluster amplitudes
  =================================

   - DIIS coupled cluster ground state solver
  ----------------------------------------------

  A DIIS CC ground state amplitude equations solver. It uses an extrapolation 
  of previous quasi-Newton perturbation theory estimates of the next amplitudes. 
  See Helgaker et al., Molecular Electronic Structure Theory, Chapter 
  13.

  - CC ground state solver settings:

  - Convergence thresholds

     Residual threshold:            0.1000E-10
     Max number of iterations:      100

  - DIIS tool settings:

     DIIS dimension:   8

     Storage (cc_gs_diis_errors): file
     Storage (cc_gs_diis_parameters): file

  Iteration    Energy (a.u.)        |omega|       Delta E (a.u.)
  ---------------------------------------------------------------
    1           -78.843851693631     0.7168E-12     0.7884E+02
  ---------------------------------------------------------------
  Convergence criterion met in 1 iterations!

  - Ground state summary:

     Final ground state energy (a.u.):   -78.843851693631

     Correlation energy (a.u.):            0.000000000000

     Largest single amplitudes:
     -----------------------------------
        a       i         t(a,i)
     -----------------------------------
        1      1        0.000000000000
        2      1        0.000000000000
        3      1        0.000000000000
        4      1        0.000000000000
        5      1        0.000000000000
        6      1        0.000000000000
        7      1        0.000000000000
        8      1        0.000000000000
        9      1        0.000000000000
       10      1        0.000000000000
     ------------------------------------

  - Finished solving the CCS ground state equations

     Total wall time (sec):              0.00200
     Total cpu time (sec):               0.00178


  Determining CC multipliers
  ==========================

   - Davidson tool settings:

     Number of parameters:                  138
     Number of requested solutions:           1
     Max reduced space dimension:            50

     Storage (multipliers_davidson_trials): file
     Storage (multipliers_davidson_transforms): file

  Right hand side is zero to within threshold .1E-10.

  - CC multipliers solver summary:

     Largest single amplitudes:
     -----------------------------------
        a       i         tbar(a,i)
     -----------------------------------
        1      1        0.000000000000
        2      1        0.000000000000
        3      1        0.000000000000
        4      1        0.000000000000
        5      1        0.000000000000
        6      1        0.000000000000
        7      1        0.000000000000
        8      1        0.000000000000
        9      1        0.000000000000
       10      1        0.000000000000
     ------------------------------------


  Determining CC excited state amplitudes
  =======================================

   - DIIS coupled cluster excited state solver
  -----------------------------------------------

  A DIIS solver that solves for the lowest eigenvalues and  the right 
  eigenvectors of the Jacobian matrix, A. The eigenvalue  problem is solved 
  by DIIS extrapolation of residuals for each  eigenvector until the convergence 
  criteria are met.

  More on the DIIS algorithm can be found in P. Pulay, Chemical Physics 
  Letters, 73(2), 393-398 (1980).

  - Settings for coupled cluster excited state solver (DIIS):

     Calculation type:    valence
     Excitation vectors:  right

  - Convergence thresholds

     Residual threshold:            0.1000E-10
     Energy threshold:              0.1000E-10

     Number of singlet states:               6
     Max number of iterations:             300

  - DIIS tool settings:

     DIIS dimension:  20

     Storage (diis_cc_es_001_errors): file
     Storage (diis_cc_es_001_parameters): file

  - DIIS tool settings:

     DIIS dimension:  20

     Storage (diis_cc_es_002_errors): file
     Storage (diis_cc_es_002_parameters): file

  - DIIS tool settings:

     DIIS dimension:  20

     Storage (diis_cc_es_003_errors): file
     Storage (diis_cc_es_003_parameters): file

  - DIIS tool settings:

     DIIS dimension:  20

     Storage (diis_cc_es_004_errors): file
     Storage (diis_cc_es_004_parameters): file

  - DIIS tool settings:

     DIIS dimension:  20

     Storage (diis_cc_es_005_errors): file
     Storage (diis_cc_es_005_parameters): file

  - DIIS tool settings:

     DIIS dimension:  20

     Storage (diis_cc_es_006_errors): file
     Storage (diis_cc_es_006_parameters): file

  Iteration:                  1

   Root     Eigenvalue (Re)     Residual norm
  -----------------------------------------------
     1      0.304675238816       0.1313E+00
     2      0.412543909644       0.1735E+00
     3      0.372780588807       0.1472E+00
     4      0.455892189602       0.1333E+00
     5      0.469977820501       0.1012E+00
     6      0.625594331239       0.2172E+00
  -----------------------------------------------

  Iteration:                  2

   Root     Eigenvalue (Re)     Residual norm
  -----------------------------------------------
     1      0.286916673888       0.5135E-01
     2      0.386230625947       0.5441E-01
     3      0.344082142574       0.6721E-01
     4      0.436633622033       0.5179E-01
     5      0.459083680967       0.3705E-01
     6      0.498242585990       0.1567E+00
  -----------------------------------------------

  Iteration:                  3

   Root     Eigenvalue (Re)     Residual norm
  -----------------------------------------------
     1      0.283172959338       0.5840E-02
     2      0.382633404295       0.2037E-01
     3      0.336622203583       0.5563E-02
     4      0.432208727437       0.9732E-02
     5      0.456605146199       0.1245E-01
     6      0.396444640951       0.7209E-01
  -----------------------------------------------

  Iteration:                  4

   Root     Eigenvalue (Re)     Residual norm
  -----------------------------------------------
     1      0.283143494238       0.1534E-02
     2      0.381524225269       0.6941E-02
     3      0.336581213223       0.1987E-02
     4      0.431797073878       0.7812E-02
     5      0.456080404427       0.1212E-01
     6      0.379793019860       0.3997E-01
  -----------------------------------------------

  Iteration:                  5

   Root     Eigenvalue (Re)     Residual norm
  -----------------------------------------------
     1      0.283141201279       0.2396E-03
     2      0.381378597899       0.5128E-02
     3      0.336575984993       0.1902E-03
     4      0.430911932570       0.6305E-02
     5      0.459027956476       0.9524E-02
     6      0.374115396118       0.3393E-01
  -----------------------------------------------

  Iteration:                  6

   Root     Eigenvalue (Re)     Residual norm
  -----------------------------------------------
     1      0.283141019610       0.1657E-03
     2      0.381476126447       0.4818E-02
     3      0.336575860380       0.1234E-03
     4      0.430215372733       0.6245E-02
     5      0.460088707754       0.5776E-02
     6      0.383031752664       0.2091E-01
  -----------------------------------------------

  Iteration:                  7

   Root     Eigenvalue (Re)     Residual norm
  -----------------------------------------------
     1      0.283140819232       0.6203E-04
     2      0.381522973357       0.1236E-02
     3      0.336575747950       0.1090E-03
     4      0.430077064395       0.4415E-02
     5      0.460424101663       0.3029E-02
     6      0.381529167872       0.5661E-02
  -----------------------------------------------

  Iteration:                  8

   Root     Eigenvalue (Re)     Residual norm
  -----------------------------------------------
     1      0.283140804113       0.1224E-04
     2      0.381521303250       0.1180E-03
     3      0.336575786988       0.1045E-03
     4      0.429978595147       0.3531E-02
     5      0.460400454666       0.3008E-02
     6      0.381525866847       0.2257E-02
  -----------------------------------------------

  Iteration:                  9

   Root     Eigenvalue (Re)     Residual norm
  -----------------------------------------------
     1      0.283140803940       0.2074E-05
     2      0.381521260253       0.8724E-04
     3      0.336575869389       0.4120E-04
     4      0.430019503272       0.1939E-02
     5      0.460451136440       0.1649E-02
     6      0.381519486571       0.5137E-03
  -----------------------------------------------

  Iteration:                 10

   Root     Eigenvalue (Re)     Residual norm
  -----------------------------------------------
     1      0.283140803925       0.1391E-05
     2      0.381521370604       0.7255E-04
     3      0.336575865974       0.1938E-04
     4      0.430009592762       0.3692E-03
     5      0.460452840272       0.4481E-03
     6      0.381521393446       0.1659E-03
  -----------------------------------------------

  Iteration:                 11

   Root     Eigenvalue (Re)     Residual norm
  -----------------------------------------------
     1      0.283140803900       0.6837E-06
     2      0.381521399637       0.2279E-04
     3      0.336575863026       0.7186E-05
     4      0.430009328406       0.8319E-04
     5      0.460453655488       0.3846E-03
     6      0.381521320122       0.1376E-03
  -----------------------------------------------

  Iteration:                 12

   Root     Eigenvalue (Re)     Residual norm
  -----------------------------------------------
     1      0.283140803897       0.2721E-06
     2      0.381521397815       0.1504E-04
     3      0.336575862879       0.3951E-05
     4      0.430009301229       0.7390E-04
     5      0.460452596660       0.3383E-03
     6      0.381521404201       0.1103E-03
  -----------------------------------------------

  Iteration:                 13

   Root     Eigenvalue (Re)     Residual norm
  -----------------------------------------------
     1      0.283140803897       0.7751E-07
     2      0.381521396188       0.6208E-05
     3      0.336575862747       0.3844E-05
     4      0.430009390909       0.6114E-04
     5      0.460454503553       0.1817E-03
     6      0.381521926798       0.3576E-03
  -----------------------------------------------

  Iteration:                 14

   Root     Eigenvalue (Re)     Residual norm
  -----------------------------------------------
     1      0.283140803897       0.3330E-07
     2      0.381521396099       0.2731E-05
     3      0.336575862689       0.6577E-06
     4      0.430009388468       0.3836E-04
     5      0.460455231859       0.3188E-04
     6      0.381521445266       0.1112E-03
  -----------------------------------------------

  Iteration:                 15

   Root     Eigenvalue (Re)     Residual norm
  -----------------------------------------------
     1      0.283140803897       0.5698E-08
     2      0.381521396034       0.2054E-05
     3      0.336575862689       0.1505E-06
     4      0.430009377165       0.8950E-05
     5      0.460455244579       0.5139E-05
     6      0.381521410598       0.5222E-04
  -----------------------------------------------

  Iteration:                 16

   Root     Eigenvalue (Re)     Residual norm
  -----------------------------------------------
     1      0.283140803897       0.2265E-08
     2      0.381521396006       0.6506E-06
     3      0.336575862688       0.6962E-07
     4      0.430009376638       0.8522E-06
     5      0.460455244808       0.1043E-05
     6      0.381521396164       0.2126E-04
  -----------------------------------------------

  Iteration:                 17

   Root     Eigenvalue (Re)     Residual norm
  -----------------------------------------------
     1      0.283140803897       0.3449E-09
     2      0.381521396005       0.8079E-07
     3      0.336575862688       0.1104E-07
     4      0.430009376638       0.1284E-06
     5      0.460455244813       0.1821E-06
     6      0.381521395840       0.4886E-05
  -----------------------------------------------

  Iteration:                 18

   Root     Eigenvalue (Re)     Residual norm
  -----------------------------------------------
     1      0.283140803897       0.5235E-10
     2      0.381521396005       0.1835E-07
     3      0.336575862688       0.1290E-08
     4      0.430009376638       0.1781E-07
     5      0.460455244813       0.2872E-07
     6      0.381521396000       0.1691E-05
  -----------------------------------------------

  Iteration:                 19

   Root     Eigenvalue (Re)     Residual norm
  -----------------------------------------------
     1      0.283140803897       0.7028E-11
     2      0.381521396005       0.1514E-08
     3      0.336575862688       0.1138E-09
     4      0.430009376638       0.2944E-08
     5      0.460455244813       0.4990E-08
     6      0.381521396005       0.2320E-06
  -----------------------------------------------

  Iteration:                 20

   Root     Eigenvalue (Re)     Residual norm
  -----------------------------------------------
     1      0.283140803897       0.7028E-11
     2      0.381521396005       0.1917E-09
     3      0.336575862688       0.1806E-10
     4      0.430009376638       0.5208E-09
     5      0.460455244813       0.5677E-09
     6      0.381521396005       0.3126E-07
  -----------------------------------------------

  Iteration:                 21

   Root     Eigenvalue (Re)     Residual norm
  -----------------------------------------------
     1      0.283140803897       0.7028E-11
     2      0.381521396005       0.1795E-10
     3      0.336575862688       0.1079E-11
     4      0.430009376638       0.9415E-10
     5      0.460455244813       0.1235E-09
     6      0.381521396005       0.3405E-08
  -----------------------------------------------

  Iteration:                 22

   Root     Eigenvalue (Re)     Residual norm
  -----------------------------------------------
     1      0.283140803897       0.7028E-11
     2      0.381521396005       0.2835E-11
     3      0.336575862688       0.1079E-11
     4      0.430009376638       0.1181E-10
     5      0.460455244813       0.1414E-10
     6      0.381521396005       0.4175E-09
  -----------------------------------------------

  Iteration:                 23

   Root     Eigenvalue (Re)     Residual norm
  -----------------------------------------------
     1      0.283140803897       0.7028E-11
     2      0.381521396005       0.2835E-11
     3      0.336575862688       0.1079E-11
     4      0.430009376638       0.3103E-11
     5      0.460455244813       0.3056E-11
     6      0.381521396005       0.4441E-10
  -----------------------------------------------

  Iteration:                 24

   Root     Eigenvalue (Re)     Residual norm
  -----------------------------------------------
     1      0.283140803897       0.7028E-11
     2      0.381521396005       0.2835E-11
     3      0.336575862688       0.1079E-11
     4      0.430009376638       0.3103E-11
     5      0.460455244813       0.3056E-11
     6      0.381521396005       0.2547E-11
  -----------------------------------------------
  Convergence criterion met in 24 iterations!

  - Resorting roots according to excitation energy.

  - Stored converged states to file.

  - Excitation vector amplitudes:

     Electronic state nr. 1

     Energy (Hartree):                  0.283140803897
     Fraction singles (|R1|/|R|):       1.000000000000

     Largest single amplitudes:
     -----------------------------------
        a       i         R(a,i)
     -----------------------------------
        1      6        0.983643739610
        4      6        0.157041269782
        6      6       -0.065052447149
       13      6       -0.047162913487
       15      6        0.020463284034
        1      3       -0.011446417247
        9      6       -0.011160558005
       10      6        0.009804553970
       22      6        0.009439702304
       19      5       -0.009153283040
     ------------------------------------

     Electronic state nr. 2

     Energy (Hartree):                  0.381521396005
     Fraction singles (|R1|/|R|):       1.000000000000

     Largest single amplitudes:
     -----------------------------------
        a       i         R(a,i)
     -----------------------------------
        2      6        0.966996297074
        3      6        0.225322610383
        7      6       -0.108838382568
       14      6        0.044309283189
        2      3       -0.011730944219
       12      6       -0.007346997656
        8      2       -0.005839570315
        3      3       -0.004760718402
        2      5        0.004642700344
        5      4       -0.003939734940
     ------------------------------------

     Electronic state nr. 3

     Energy (Hartree):                  0.460455244813
     Fraction singles (|R1|/|R|):       1.000000000000

     Largest single amplitudes:
     -----------------------------------
        a       i         R(a,i)
     -----------------------------------
        1      5       -0.968067241494
        2      4        0.195174921972
        4      5       -0.107739719930
        3      4        0.071197371546
        5      6        0.052457958139
       13      5        0.040201847071
        7      4       -0.033643496372
        1      2        0.024847732514
       15      5       -0.018989031645
       10      5       -0.017857942703
     ------------------------------------

     Electronic state nr. 4

     Energy (Hartree):                  0.336575862688
     Fraction singles (|R1|/|R|):       1.000000000000

     Largest single amplitudes:
     -----------------------------------
        a       i         R(a,i)
     -----------------------------------
        1      5        0.968067241494
        2      4       -0.195174921975
        4      5        0.107739719930
        3      4       -0.071197371546
        5      6       -0.052457958138
       13      5       -0.040201847070
        7      4        0.033643496372
        1      2       -0.024847732516
       15      5        0.018989031645
       10      5        0.017857942703
     ------------------------------------

     Electronic state nr. 5

     Energy (Hartree):                  0.381521396005
     Fraction singles (|R1|/|R|):       1.000000000000

     Largest single amplitudes:
     -----------------------------------
        a       i         R(a,i)
     -----------------------------------
        2      5        0.931661263322
        1      4       -0.302398190800
        3      5        0.152624899699
        7      5       -0.094500958515
        4      4       -0.078449360642
       14      5        0.025395963089
       15      4       -0.017826715377
        8      6        0.016708529528
        2      2        0.012464120692
       13      4        0.011613895404
     ------------------------------------

     Electronic state nr. 6

     Energy (Hartree):                  0.430009376638
     Fraction singles (|R1|/|R|):       1.000000000000

     Largest single amplitudes:
     -----------------------------------
        a       i         R(a,i)
     -----------------------------------
        1      4        0.943626139059
        2      5        0.309630747807
        4      4        0.072313016864
        6      4       -0.059492492795
        2      2        0.042060043693
        7      5       -0.037191004208
       13      4       -0.028115739753
        8      6        0.017207285452
       10      4        0.014895832407
       15      4        0.011112540804
     ------------------------------------

     - Electronic excitation energies:

                                      Excitation energy
                          ------------------------------------------
      State                (Hartree)             (eV)
     ---------------------------------------------------------------
        1                  0.283140803897        7.704653712843
        2                  0.336575862688        9.158695724630
        3                  0.381521396005       10.381725981585
        4                  0.381521396005       10.381725981585
        5                  0.430009376638       11.701151139904
        6                  0.460455244813       12.529625411543
     ---------------------------------------------------------------
     eV/Hartree (CODATA 2014): 27.21138602

  - Finished solving the CCS excited state equations (right)

     Total wall time (sec):              0.63800
     Total cpu time (sec):               0.17903


  Determining CC excited state amplitudes
  =======================================

   - DIIS coupled cluster excited state solver
  -----------------------------------------------

  A DIIS solver that solves for the lowest eigenvalues and  the right 
  eigenvectors of the Jacobian matrix, A. The eigenvalue  problem is solved 
  by DIIS extrapolation of residuals for each  eigenvector until the convergence 
  criteria are met.

  More on the DIIS algorithm can be found in P. Pulay, Chemical Physics 
  Letters, 73(2), 393-398 (1980).

  - Settings for coupled cluster excited state solver (DIIS):

     Calculation type:    valence
     Excitation vectors:  left

  - Convergence thresholds

     Residual threshold:            0.1000E-10
     Energy threshold:              0.1000E-10

     Number of singlet states:               6
     Max number of iterations:             300

  - DIIS tool settings:

     DIIS dimension:  20

     Storage (diis_cc_es_001_errors): file
     Storage (diis_cc_es_001_parameters): file

  - DIIS tool settings:

     DIIS dimension:  20

     Storage (diis_cc_es_002_errors): file
     Storage (diis_cc_es_002_parameters): file

  - DIIS tool settings:

     DIIS dimension:  20

     Storage (diis_cc_es_003_errors): file
     Storage (diis_cc_es_003_parameters): file

  - DIIS tool settings:

     DIIS dimension:  20

     Storage (diis_cc_es_004_errors): file
     Storage (diis_cc_es_004_parameters): file

  - DIIS tool settings:

     DIIS dimension:  20

     Storage (diis_cc_es_005_errors): file
     Storage (diis_cc_es_005_parameters): file

  - DIIS tool settings:

     DIIS dimension:  20

     Storage (diis_cc_es_006_errors): file
     Storage (diis_cc_es_006_parameters): file
     Restarting left vector 1 from file r_001.
     Restarting left vector 2 from file r_002.
     Restarting left vector 3 from file r_003.
     Restarting left vector 4 from file r_004.
     Restarting left vector 5 from file r_005.
     Restarting left vector 6 from file r_006.

  Iteration:                  1

   Root     Eigenvalue (Re)     Residual norm
  -----------------------------------------------
     1      0.283140803897       0.7028E-11
     2      0.336575862688       0.1078E-11
     3      0.381521396005       0.2548E-11
     4      0.381521396005       0.2835E-11
     5      0.430009376638       0.3103E-11
     6      0.460455244813       0.3057E-11
  -----------------------------------------------

  Note: residual of all states converged  in first iteration.
  Energy convergence has not been tested.

  Convergence criterion met in 1 iterations!

  - Resorting roots according to excitation energy.

  - Stored converged states to file.

  - Excitation vector amplitudes:

     Electronic state nr. 1

     Energy (Hartree):                  0.283140803897
     Fraction singles (|L1|/|L|):       1.000000000000

     Largest single amplitudes:
     -----------------------------------
        a       i         L(a,i)
     -----------------------------------
        1      6        0.983643739610
        4      6        0.157041269782
        6      6       -0.065052447149
       13      6       -0.047162913487
       15      6        0.020463284034
        1      3       -0.011446417247
        9      6       -0.011160558005
       10      6        0.009804553970
       22      6        0.009439702304
       19      5       -0.009153283040
     ------------------------------------

     Electronic state nr. 2

     Energy (Hartree):                  0.336575862688
     Fraction singles (|L1|/|L|):       1.000000000000

     Largest single amplitudes:
     -----------------------------------
        a       i         L(a,i)
     -----------------------------------
        2      6        0.966996297074
        3      6        0.225322610383
        7      6       -0.108838382568
       14      6        0.044309283189
        2      3       -0.011730944219
       12      6       -0.007346997656
        8      2       -0.005839570315
        3      3       -0.004760718402
        2      5        0.004642700344
        5      4       -0.003939734940
     ------------------------------------

     Electronic state nr. 3

     Energy (Hartree):                  0.381521396005
     Fraction singles (|L1|/|L|):       1.000000000000

     Largest single amplitudes:
     -----------------------------------
        a       i         L(a,i)
     -----------------------------------
        1      5       -0.968067241494
        2      4        0.195174921972
        4      5       -0.107739719930
        3      4        0.071197371546
        5      6        0.052457958139
       13      5        0.040201847071
        7      4       -0.033643496372
        1      2        0.024847732514
       15      5       -0.018989031645
       10      5       -0.017857942703
     ------------------------------------

     Electronic state nr. 4

     Energy (Hartree):                  0.381521396005
     Fraction singles (|L1|/|L|):       1.000000000000

     Largest single amplitudes:
     -----------------------------------
        a       i         L(a,i)
     -----------------------------------
        1      5        0.968067241494
        2      4       -0.195174921975
        4      5        0.107739719930
        3      4       -0.071197371546
        5      6       -0.052457958138
       13      5       -0.040201847070
        7      4        0.033643496372
        1      2       -0.024847732516
       15      5        0.018989031645
       10      5        0.017857942703
     ------------------------------------

     Electronic state nr. 5

     Energy (Hartree):                  0.430009376638
     Fraction singles (|L1|/|L|):       1.000000000000

     Largest single amplitudes:
     -----------------------------------
        a       i         L(a,i)
     -----------------------------------
        2      5        0.931661263322
        1      4       -0.302398190800
        3      5        0.152624899699
        7      5       -0.094500958515
        4      4       -0.078449360642
       14      5        0.025395963089
       15      4       -0.017826715377
        8      6        0.016708529528
        2      2        0.012464120692
       13      4        0.011613895404
     ------------------------------------

     Electronic state nr. 6

     Energy (Hartree):                  0.460455244813
     Fraction singles (|L1|/|L|):       1.000000000000

     Largest single amplitudes:
     -----------------------------------
        a       i         L(a,i)
     -----------------------------------
        1      4        0.943626139059
        2      5        0.309630747807
        4      4        0.072313016864
        6      4       -0.059492492795
        2      2        0.042060043693
        7      5       -0.037191004208
       13      4       -0.028115739753
        8      6        0.017207285452
       10      4        0.014895832407
       15      4        0.011112540804
     ------------------------------------

     - Electronic excitation energies:

                                      Excitation energy
                          ------------------------------------------
      State                (Hartree)             (eV)
     ---------------------------------------------------------------
        1                  0.283140803897        7.704653712843
        2                  0.336575862688        9.158695724630
        3                  0.381521396005       10.381725981585
        4                  0.381521396005       10.381725981585
        5                  0.430009376638       11.701151139904
        6                  0.460455244813       12.529625411543
     ---------------------------------------------------------------
     eV/Hartree (CODATA 2014): 27.21138602

  - Finished solving the CCS excited state equations (left)

     Total wall time (sec):              0.01400
     Total cpu time (sec):               0.01243


  Biorthonormalization of excited CC states
  =========================================

  Warning: left state 3 is parallel to left state 4.

  Warning: right state 3 is parallel to right state 4.

  Warning: 1 parallel state removed. Number of states reduced to: 5


  Determining CC EOM transition moments
  =====================================

  :: EOM properties calculation

  - Summary of EOM transition properties calculation:

     States m = 0 and n = 1:
     -------------------------
     Calculation type:                             EOM
     Excitation energy [E_h]:           0.283140803897
     Excitation energy [eV]:            7.704653712843
     Hartree-to-eV (CODATA 2014):          27.21138602

                   Transition moments [a.u.]         Transition strength [a.u.]
     --------------------------------------------------------------------------
     Comp. q     < n |q| m >       < m |q| n >        < n |q| m > < m |q| n >
     --------------------------------------------------------------------------
     X           0.0003805212      0.0007610423            0.0000002896
     Y           0.0011321897      0.0022643795            0.0000025637
     Z          -0.1863473434     -0.3726946869            0.0694506648
     --------------------------------------------------------------------------
     Oscillator strength:      0.013110083300

     States m = 0 and n = 2:
     -------------------------
     Calculation type:                             EOM
     Excitation energy [E_h]:           0.336575862688
     Excitation energy [eV]:            9.158695724630
     Hartree-to-eV (CODATA 2014):          27.21138602

                   Transition moments [a.u.]         Transition strength [a.u.]
     --------------------------------------------------------------------------
     Comp. q     < n |q| m >       < m |q| n >        < n |q| m > < m |q| n >
     --------------------------------------------------------------------------
     X           0.0058211760      0.0116423519            0.0000677722
     Y          -0.0002191045     -0.0004382090            0.0000000960
     Z          -0.0001134191     -0.0002268383            0.0000000257
     --------------------------------------------------------------------------
     Oscillator strength:      0.000015234303

     States m = 0 and n = 3:
     -------------------------
     Calculation type:                             EOM
     Excitation energy [E_h]:           0.381521396005
     Excitation energy [eV]:           10.381725981585
     Hartree-to-eV (CODATA 2014):          27.21138602

                   Transition moments [a.u.]         Transition strength [a.u.]
     --------------------------------------------------------------------------
     Comp. q     < n |q| m >       < m |q| n >        < n |q| m > < m |q| n >
     --------------------------------------------------------------------------
     X          -0.0009718226     -0.0019436453            0.0000018889
     Y           0.4533812396      0.9067624791            0.4111090968
     Z          -0.0039450131     -0.0078900262            0.0000311263
     --------------------------------------------------------------------------
     Oscillator strength:      0.104573008326

     States m = 0 and n = 4:
     -------------------------
     Calculation type:                             EOM
     Excitation energy [E_h]:           0.430009376638
     Excitation energy [eV]:           11.701151139904
     Hartree-to-eV (CODATA 2014):          27.21138602

                   Transition moments [a.u.]         Transition strength [a.u.]
     --------------------------------------------------------------------------
     Comp. q     < n |q| m >       < m |q| n >        < n |q| m > < m |q| n >
     --------------------------------------------------------------------------
     X          -0.3067780284     -0.6135560568            0.1882255174
     Y          -0.0011792077     -0.0023584155            0.0000027811
     Z           0.0000892067      0.0001784135            0.0000000159
     --------------------------------------------------------------------------
     Oscillator strength:      0.053959960091

     States m = 0 and n = 5:
     -------------------------
     Calculation type:                             EOM
     Excitation energy [E_h]:           0.460455244813
     Excitation energy [eV]:           12.529625411543
     Hartree-to-eV (CODATA 2014):          27.21138602

                   Transition moments [a.u.]         Transition strength [a.u.]
     --------------------------------------------------------------------------
     Comp. q     < n |q| m >       < m |q| n >        < n |q| m > < m |q| n >
     --------------------------------------------------------------------------
     X          -0.9262781710     -1.8525563420            1.7159825001
     Y           0.0003192733      0.0006385466            0.0000002039
     Z           0.0001182477      0.0002364955            0.0000000280
     --------------------------------------------------------------------------
     Oscillator strength:      0.526755499278

  ------------------------------------------------------------

  Peak memory usage during the execution of eT: 10.665728 MB

  :: There were 3 warnings during the execution of eT. ::

  Total wall time in eT (sec):              1.46800
  Total cpu time in eT (sec):               0.84801

  Calculation ended: 2022-04-07 12:34:46 UTC -07:00

  - Implementation references:

     eT: https://doi.org/10.1063/5.0004713
     Cholesky decomposition of ERIs: https://doi.org/10.1063/1.5083802

  eT terminated successfully!
