


                     eT 1.7 - an electronic structure program

  ------------------------------------------------------------------------
   Author list in alphabetical order:
  ------------------------------------------------------------------------
   J. H. Andersen, A. Balbi, S. Coriani, S. D. Folkestad, T. Giovannini, 
   L. Goletto, T. S. Haugland, A. Hutcheson, I-M. Høyvik, E. F. Kjønstad, 
   H. Koch, R. Matveeva, T. Moitra, R. H. Myhre, A. C. Paul, S. Roet, 
   E. RoncaM. Scavino, A. K. Schnack-Petersen, A. S. Skeidsvoll, Å. 
   H. Tveten
  ------------------------------------------------------------------------
   J. Chem. Phys. 152, 184103 (2020); https://doi.org/10.1063/5.0004713


   This is eT 1.7.0 Hydra
  ------------------------------------------------------------
  Configuration date: 2022-04-07 12:33:31 UTC -07:00
  Git branch:         release-v1.7.0
  Git hash:           c5c382d7d23365463896a87c37298e4a37e4c962
  Fortran compiler:   GNU 11.2.0
  C compiler:         GNU 11.2.0
  C++ compiler:       GNU 11.2.0
  LAPACK type:        SYSTEM_NATIVE
  BLAS type:          SYSTEM_NATIVE
  64-bit integers:    OFF
  OpenMP:             ON
  PCM:                OFF
  Forced batching:    OFF
  Runtime checks:     OFF
  ------------------------------------------------------------

  Calculation started: 2022-04-07 12:35:02 UTC -07:00


  :: Input file
  ================

     Note: geometry section is excluded from this print

     system
        name: H2O He
        charge: 0
     end system

     do
       excited state
     end do

     memory
        available: 8
     end memory

     solver cholesky
        threshold: 1.0d-12
     end solver cholesky

     solver scf
        algorithm:          scf-diis
        energy threshold:   1.0d-12
        gradient threshold: 1.0d-12
     end solver scf

     method
        hf
        ccsd
     end method

     solver cc gs
        omega threshold:  1.0d-12
        energy threshold: 1.0d-12
     end solver cc gs

     solver cc multipliers
        algorithm: diis
        threshold: 1.0d-12
     end solver cc multipliers

     solver cc es
        algorithm:          asymmetric lanczos
        chain length:       30
        core excitation:    {1}
     end solver cc es


  Running on 2 OMP threads
  Memory available for calculation: 8.000000 GB


  :: RHF wavefunction
  ======================

     ==============================================================================
                                     Geometry (angstrom)
     ==============================================================================
        Atom           X                  Y                  Z         # in input
     ==============================================================================
        Basis: cc-pvdz
        1  H     0.866810000000     0.601440000000     5.000000000000        1
        2  H    -0.866810000000     0.601440000000     5.000000000000        2
        3  O     0.000000000000    -0.075790000000     5.000000000000        3
        4 He     0.100000000000    -0.020000000000     7.530000000000        4
     ==============================================================================

     ==============================================================================
                                     Geometry (a.u.)
     ==============================================================================
        Atom           X                  Y                  Z         # in input
     ==============================================================================
        Basis: cc-pvdz
        1  H     1.638033502034     1.136556880358     9.448630622825        1
        2  H    -1.638033502034     1.136556880358     9.448630622825        2
        3  O     0.000000000000    -0.143222342981     9.448630622825        3
        4 He     0.188972612457    -0.037794522491    14.229637717975        4
     ==============================================================================

  - Cholesky decomposition of AO overlap to get linearly independent AOs:

     Linear dependence threshold:             0.10E-05
     Number of atomic orbitals:               29
     Number of orthonormal atomic orbitals:   29

  - Molecular orbital details:

     Number of occupied orbitals:         6
     Number of virtual orbitals:         23
     Number of molecular orbitals:       29


  :: Hartree-Fock engine
  =========================

  Drives the calculation of the Hartree-Fock state.

  This is a RHF ground state calculation.
  The following tasks will be performed:

     1) Generate initial SAD density
     2) Calculation of reference state (SCF-DIIS algorithm)


  1) Generate initial SAD density


  2) Calculation of reference state (SCF-DIIS algorithm)

  - Setting initial AO density to sad

     Energy of initial guess:               -78.492022836315
     Number of electrons in guess:           12.000000000000

  - Screening and integral thresholds:

     Coulomb screening threshold:    0.1000E-17
     Exchange screening threshold:   0.1000E-15
     ERI cutoff:                     0.1000E-17
     One-electron integral  cutoff:  0.1000E-22
     Cumulative Fock threshold:      0.1000E+01

  - SCF solver settings:

     Maximum iterations:                   100
     Acceleration type:                   diis

  - Convergence thresholds

     Residual threshold:            0.1000E-11
     Energy threshold:              0.1000E-11

  - DIIS tool settings:

     DIIS dimension:   8

     Storage (solver scf_errors): memory
     Storage (solver scf_parameters): memory

  Iteration       Energy (a.u.)      Max(grad.)    Delta E (a.u.)
  ---------------------------------------------------------------
     1           -78.796606592587     0.9786E-01     0.7880E+02
     2           -78.828675852655     0.7077E-01     0.3207E-01
     3           -78.843487343819     0.6747E-02     0.1481E-01
     4           -78.843814479549     0.2753E-02     0.3271E-03
     5           -78.843850612079     0.3973E-03     0.3613E-04
     6           -78.843851670925     0.5220E-04     0.1059E-05
     7           -78.843851692779     0.6096E-05     0.2185E-07
     8           -78.843851693527     0.2137E-05     0.7487E-09
     9           -78.843851693630     0.3151E-06     0.1028E-09
    10           -78.843851693631     0.2637E-07     0.4832E-12
    11           -78.843851693631     0.5634E-08     0.1421E-13
    12           -78.843851693631     0.1415E-08     0.8527E-13
    13           -78.843851693631     0.6806E-09     0.8527E-13
    14           -78.843851693631     0.1491E-09     0.1421E-13
    15           -78.843851693631     0.2501E-10     0.8527E-13
    16           -78.843851693631     0.5166E-11     0.4263E-13
    17           -78.843851693631     0.1342E-11     0.1421E-13
    18           -78.843851693631     0.2422E-12     0.5684E-13
  ---------------------------------------------------------------
  Convergence criterion met in 18 iterations!

  - Summary of RHF wavefunction energetics (a.u.):

     HOMO-LUMO gap:                  0.645629080251
     Nuclear repulsion energy:      12.116100574587
     Electronic energy:            -90.959952268218
     Total energy:                 -78.843851693631

  - Timings for the RHF ground state calculation

     Total wall time (sec):              0.48000
     Total cpu time (sec):               0.48313


  :: CCSD wavefunction
  =======================

     Bath orbital(s):         False

   - Number of orbitals:

     Occupied orbitals:    6
     Virtual orbitals:     23
     Molecular orbitals:   29
     Atomic orbitals:      29

   - Number of ground state amplitudes:

     Single excitation amplitudes:  138
     Double excitation amplitudes:  9591


  Cholesky-decomposing electron repulsion integrals
  =================================================

  Cholesky decomposition of electronic repulsion integrals solver
  ---------------------------------------------------------------

  Performs a Cholesky decomposition of the two-electron electronic repulsion 
  integrals in the atomic orbital basis,

  (ab|cd) = sum_J L_ab^J L_cd^J.

  Once the Cholesky basis has been determined, the vectors L^J are constructed 
  and stored to disk. These may either be used directly, or be transformed 
  to the MO basis for use in post-HF calculations. For more information, 
  see S. D. Folkestad, E. F. Kjønstad and H. Koch, JCP, 150(19), (2019)

  - Cholesky decomposition settings:

     Target threshold is:   0.10E-11
     Span factor:           0.10E-01
     Max qual:                  1000

  - Cholesky decomposition ao details:

     Total number of AOs:                    29
     Total number of shell pairs:           120
     Total number of AO pairs:              435

     Significant shell pairs:               118
     Significant AO pairs:                  431

     Construct shell pairs:                 120
     Construct AO pairs:                    435

  Iter.  #Sign. ao pairs / shell pairs   Max diagonal    #Qualified    #Cholesky    Cholesky array size
  -------------------------------------------------------------------------------------------------------
     1               406 /     108       0.47383E+01         147             42             17052
     2               319 /      93       0.47165E-01         234            111             35409
     3               250 /      76       0.46944E-03         178            183             45750
     4               187 /      55       0.38270E-05         145            265             49555
     5                87 /      25       0.38106E-07          78            324             28188
     6                21 /       3       0.37202E-09          43            349              7329
     7                 0 /       0       0.36652E-11           7            354                 0
  -------------------------------------------------------------------------------------------------------

  - Summary of Cholesky decomposition of electronic repulsion integrals:

     Final number of Cholesky vectors: 354

 - Testing the Cholesky decomposition decomposition electronic repulsion integrals:

     Maximal difference between approximate and actual diagonal:              0.7161E-12
     Minimal element of difference between approximate and actual diagonal:  -0.1238E-14

  - Settings for integral handling:

     Cholesky vectors in memory: True
     ERI matrix in memory:       True

  - Finished decomposing the ERIs.

     Total wall time (sec):              0.30500
     Total cpu time (sec):               0.20090


  Determining CC cluster amplitudes
  =================================

   - DIIS coupled cluster ground state solver
  ----------------------------------------------

  A DIIS CC ground state amplitude equations solver. It uses an extrapolation 
  of previous quasi-Newton perturbation theory estimates of the next amplitudes. 
  See Helgaker et al., Molecular Electronic Structure Theory, Chapter 
  13.

  - CC ground state solver settings:

  - Convergence thresholds

     Residual threshold:            0.1000E-11
     Energy threshold:              0.1000E-11
     Max number of iterations:      100

  - DIIS tool settings:

     DIIS dimension:   8

     Storage (cc_gs_diis_errors): file
     Storage (cc_gs_diis_parameters): file

  Iteration    Energy (a.u.)        |omega|       Delta E (a.u.)
  ---------------------------------------------------------------
    1           -79.084241931608     0.9391E-01     0.7908E+02
    2           -79.092586666607     0.2720E-01     0.8345E-02
    3           -79.099408028306     0.7507E-02     0.6821E-02
    4           -79.100345871309     0.2095E-02     0.9378E-03
    5           -79.100371860301     0.5154E-03     0.2599E-04
    6           -79.100393801016     0.2313E-03     0.2194E-04
    7           -79.100385611260     0.4933E-04     0.8190E-05
    8           -79.100384217524     0.1180E-04     0.1394E-05
    9           -79.100383621794     0.4135E-05     0.5957E-06
   10           -79.100383427012     0.1779E-05     0.1948E-06
   11           -79.100383466393     0.6705E-06     0.3938E-07
   12           -79.100383474629     0.2989E-06     0.8237E-08
   13           -79.100383487351     0.1028E-06     0.1272E-07
   14           -79.100383481864     0.3056E-07     0.5487E-08
   15           -79.100383481091     0.6508E-08     0.7730E-09
   16           -79.100383481302     0.2112E-08     0.2109E-09
   17           -79.100383481484     0.6588E-09     0.1819E-09
   18           -79.100383481546     0.1594E-09     0.6158E-10
   19           -79.100383481554     0.5326E-10     0.7901E-11
   20           -79.100383481555     0.2008E-10     0.1208E-11
   21           -79.100383481556     0.7517E-11     0.6679E-12
   22           -79.100383481556     0.3071E-11     0.2984E-12
   23           -79.100383481556     0.1336E-11     0.2842E-13
   24           -79.100383481556     0.5371E-12     0.4263E-13
  ---------------------------------------------------------------
  Convergence criterion met in 24 iterations!

  - Ground state summary:

     Final ground state energy (a.u.):   -79.100383481556

     Correlation energy (a.u.):           -0.256531787925

     Largest single amplitudes:
     -----------------------------------
        a       i         t(a,i)
     -----------------------------------
        1      5        0.014740597523
       14      4       -0.009546856221
        7      4        0.008284826485
       15      5       -0.006124828874
        4      5        0.005606072698
        6      2        0.005476844297
        2      4        0.005318591696
       13      5        0.005269818337
        5      6        0.004933006908
       11      6       -0.003454309398
     ------------------------------------

     Largest double amplitudes:
     --------------------------------------------------
        a      i       b      j         t(ai,bj)
     --------------------------------------------------
        2      4       2      4       -0.047351708919
        5      6       5      6       -0.046240574404
        9      3       9      3       -0.041367012249
        3      4       3      4       -0.036659067517
        6      5       6      5       -0.034554012170
        1      5       1      5       -0.034177347750
       16      3      16      3       -0.032108235347
       17      3      17      3       -0.032052553603
       18      3      18      3       -0.031351828684
        2      4       3      4       -0.029701270698
     --------------------------------------------------

  - Finished solving the CCSD ground state equations

     Total wall time (sec):              0.70200
     Total cpu time (sec):               0.39710


  Determining CC excited state amplitudes
  =======================================


  Determining CC multipliers
  ==========================

   - DIIS coupled cluster multipliers solver
  ---------------------------------------------

  A DIIS CC multiplier equations solver. It combines a quasi-Newton perturbation 
  theory estimate of the next multipliers, using least square fitting 
  to find an an optimal combination of previous estimates such that the 
  update is minimized.

  See Helgaker et al., Molecular Electronic Structure Theory, Chapter 
  13, for the more details on this algorithm.

  - DIIS CC multipliers solver settings:

     Residual threshold:        0.10E-11
     Max number of iterations:       100

  - DIIS tool settings:

     DIIS dimension:   8

     Storage (cc_multipliers_diis_errors): file
     Storage (cc_multipliers_diis_parameters): file

  Iteration    Norm residual
  ----------------------------
    1          0.1021E+01
    2          0.1361E+00
    3          0.3631E-01
    4          0.8952E-02
    5          0.2512E-02
    6          0.6071E-03
    7          0.2307E-03
    8          0.5637E-04
    9          0.1605E-04
   10          0.5490E-05
   11          0.2004E-05
   12          0.6562E-06
   13          0.3073E-06
   14          0.1215E-06
   15          0.3779E-07
   16          0.9826E-08
   17          0.2801E-08
   18          0.9514E-09
   19          0.2593E-09
   20          0.1098E-09
   21          0.3681E-10
   22          0.1219E-10
   23          0.4639E-11
   24          0.2169E-11
   25          0.1049E-11
   26          0.3463E-12
  ----------------------------
  Convergence criterion met in 26 iterations!

  - Finished solving the ccsd multipliers equations

     Total wall time (sec):              0.78600
     Total cpu time (sec):               0.40974

  - CC multipliers solver summary:

     Largest single amplitudes:
     -----------------------------------
        a       i         tbar(a,i)
     -----------------------------------
        1      5        0.022790118896
       14      4       -0.015907507092
        7      4        0.014297181950
        4      5        0.011712306720
       15      5       -0.010007216962
        6      2        0.009083547621
       13      5        0.008770531160
        2      4        0.006954460285
        5      6        0.006820250284
        3      4        0.006765159552
     ------------------------------------

     Largest double amplitudes:
     --------------------------------------------------
        a      i       b      j         tbar(ai,bj)
     --------------------------------------------------
        5      6       5      6       -0.092500754790
        2      4       2      4       -0.092085328212
        6      5       5      6        0.089666625590
        2      4       5      6       -0.083792278098
        9      3       9      3       -0.082167759498
        2      4       6      5        0.077164163662
        2      4       1      5       -0.076342716082
        7      4       5      6        0.071424572153
        3      4       3      4       -0.071282985174
        6      5       6      5       -0.068075967748
     --------------------------------------------------

   - Asymmetric Lanczos excited state solver
  ---------------------------------------------

  An asymmetric Lanczos solver builds a reduced space tridiagonal representation 
  of the CC Jacobian of dimension defined by the chain length. Diagonalization 
  of this representation gives the eigenvalues and eigenvectors.

  A complete description of the algorithm can be found in  S.Coriani et 
  al., J. Chem. Theory Comput. 2012, 8, 5, 1616-1628.

  - Settings for coupled cluster excited state solver (asymmetric lanczos):

     Chain length:     30
     Biorthonormalization procedure: asymmetric

  - Summary of the asymmetric Lanczos solver for excited states

     Printing the 10 lowest excited states for each Cartesian component 
     of the electric dipole moment

     Component: X

     State.      energy [a.u]         energy [eV]         Osc. strength
     ----------------------------------------------------------------------
        1       19.798261999832     538.738149802521      0.044279942378
        2       20.259302807770     551.283709198288      0.010202925951
        3       20.648274711691     561.868173826817      0.002283723742
        4       20.704491225347     563.397903080618      0.059443054438
        5       21.384460904985     581.900820515158      0.004341104062
        6       21.613821914973     588.142051495861      0.022985415235
        7       22.264207641561     605.839948563937      0.002655196359
        8       23.025231707167     626.548468183669      0.004260067857
        9       23.518708107492     639.976645004667      0.003455911458
       10       24.245051701199     659.741460916188      0.001575672966
     ----------------------------------------------------------------------
     For full spectrum see file: eT.lanczos30_X

     Component: Y

     State.      energy [a.u]         energy [eV]         Osc. strength
     ----------------------------------------------------------------------
        1       19.741969189852     537.206344419998      0.024680371461
        2       20.277115902866     551.768428205173      0.020517273232
        3       20.592063201530     560.338580725066      0.058339304963
        4       20.990817336277     571.189233412736      0.004569319519
        5       21.361858135219     581.285767821915      0.005647195992
        6       21.682168069374     590.001845086250      0.014673665588
        7       22.405337078792     609.680276159236      0.002631253545
        8       22.987664664211     625.526216876166      0.005518224301
        9       23.666728275566     644.004478936863      0.001779598083
       10       24.358961768686     662.841111734141      0.001059457302
     ----------------------------------------------------------------------
     For full spectrum see file: eT.lanczos30_Y

     Component: Z

     State.      energy [a.u]         energy [eV]         Osc. strength
     ----------------------------------------------------------------------
        1       19.742130881139     537.210744264033      0.000006434633
        2       20.260676273321     551.321083099592      0.000007808350
        3       20.553563827573     559.290959398794      0.095054116581
        4       20.944716224214     569.934758256452      0.000385006859
        5       21.277351357922     578.986221283582      0.005316497696
        6       21.763440099274     592.213369664505      0.001761270388
        7       22.369749113032     608.711878285268      0.002654029213
        8       22.796442049576     620.322784493582      0.004004551440
        9       23.586890655165     641.831986629225      0.001655277107
       10       24.131842462706     656.660880626518      0.000703681550
     ----------------------------------------------------------------------
     For full spectrum see file: eT.lanczos30_Z

  - Finished solving the CCSD excited state equations.

     Total wall time (sec):              4.29400
     Total cpu time (sec):               2.68690

  ------------------------------------------------------------

  Peak memory usage during the execution of eT: 14.691036 MB

  Total wall time in eT (sec):              6.61100
  Total cpu time in eT (sec):               4.20944

  Calculation ended: 2022-04-07 12:35:08 UTC -07:00

  - Implementation references:

     eT: https://doi.org/10.1063/5.0004713
     Cholesky decomposition of ERIs: https://doi.org/10.1063/1.5083802

  eT terminated successfully!
