


                     eT 1.7 - an electronic structure program

  ------------------------------------------------------------------------
   Author list in alphabetical order:
  ------------------------------------------------------------------------
   J. H. Andersen, A. Balbi, S. Coriani, S. D. Folkestad, T. Giovannini, 
   L. Goletto, T. S. Haugland, A. Hutcheson, I-M. Høyvik, E. F. Kjønstad, 
   H. Koch, R. Matveeva, T. Moitra, R. H. Myhre, A. C. Paul, S. Roet, 
   E. RoncaM. Scavino, A. K. Schnack-Petersen, A. S. Skeidsvoll, Å. 
   H. Tveten
  ------------------------------------------------------------------------
   J. Chem. Phys. 152, 184103 (2020); https://doi.org/10.1063/5.0004713


   This is eT 1.7.0 Hydra
  ------------------------------------------------------------
  Configuration date: 2022-04-07 12:33:31 UTC -07:00
  Git branch:         release-v1.7.0
  Git hash:           c5c382d7d23365463896a87c37298e4a37e4c962
  Fortran compiler:   GNU 11.2.0
  C compiler:         GNU 11.2.0
  C++ compiler:       GNU 11.2.0
  LAPACK type:        SYSTEM_NATIVE
  BLAS type:          SYSTEM_NATIVE
  64-bit integers:    OFF
  OpenMP:             ON
  PCM:                OFF
  Forced batching:    OFF
  Runtime checks:     OFF
  ------------------------------------------------------------

  Calculation started: 2022-04-07 12:34:54 UTC -07:00


  :: Input file
  ================

     Note: geometry section is excluded from this print

     system
        name: H2O
        charge: 0
     end system

     method
        hf
        ccsd
     end method

     memory
        available: 8
     end memory

     solver cholesky
        threshold: 1.0d-12
     end solver cholesky

     solver scf
        algorithm:          scf-diis
        energy threshold:   1.0d-10
        gradient threshold: 1.0d-10
     end solver scf

     solver cc gs
        omega threshold:  1.0d-10
        energy threshold: 1.0d-10
     end solver cc gs

     solver cc multipliers
        threshold: 1.0d-10
     end solver cc multipliers

     molecular mechanics
        forcefield: non-polarizable
     end molecular mechanics

     do
        ground state
     end do


  Running on 2 OMP threads
  Memory available for calculation: 8.000000 GB


  :: RHF wavefunction
  ======================

     ==============================================================================
                                     Geometry (angstrom)
     ==============================================================================
        Atom           X                  Y                  Z         # in input
     ==============================================================================
        Basis: cc-pvdz
        1  O     0.009319000000     1.133156000000     0.000000000000        1
        2  H     0.023452000000     0.185621000000     0.000000000000        2
        3  H     0.906315000000     1.422088000000     0.000000000000        3
     ==============================================================================

     ==============================================================================
                                     Geometry (a.u.)
     ==============================================================================
        Atom           X                  Y                  Z         # in input
     ==============================================================================
        Basis: cc-pvdz
        1  O     0.017610357755     2.141354496408     0.000000000000        1
        2  H     0.044317857073     0.350772852968     0.000000000000        2
        3  H     1.712687132585     2.687356845030     0.000000000000        3
     ==============================================================================

  - Cholesky decomposition of AO overlap to get linearly independent AOs:

     Linear dependence threshold:             0.10E-05
     Number of atomic orbitals:               24
     Number of orthonormal atomic orbitals:   24

  This is a QM/MM calculation

     Embedding type: non-polarizable

     Each atom of the MM portion is endowed with a charge which value 
     is a fixed external parameter.

     The QM/MM electrostatic interaction energy is defined as:

        E^ele_QM/MM = sum_i q_i * V_i(P)

     where V_i(P) is the electrostatic potential due to the QM density 
     calculated at the position of the i-th charge q_i.

     For further details, see:
     Senn & Thiel, Angew. Chem. Int. Ed., 2009, 48, 1198−1229

     CC calculation: MM charges only affect MOs and Fock


     ====================================================================
                             MM Geometry (angstrom)
     ====================================================================
     Atom                    X          Y          Z            Charge
     ====================================================================
      O                -0.042964  -1.404707  -0.000000       -0.834000
      H                -0.419020  -1.818953   0.760190        0.417000
      H                -0.419020  -1.818953  -0.760190        0.417000
     ====================================================================

     ====================================================================
                             MM Geometry (a.u.)
     ====================================================================
     Atom                    X          Y          Z            Charge
     ====================================================================
      O                -0.081190  -2.654512  -0.000000       -0.834000
      H                -0.791833  -3.437323   1.436551        0.417000
      H                -0.791833  -3.437323  -1.436551        0.417000
     ====================================================================

  - Molecular orbital details:

     Number of occupied orbitals:         5
     Number of virtual orbitals:         19
     Number of molecular orbitals:       24


  :: Hartree-Fock engine
  =========================

  Drives the calculation of the Hartree-Fock state.

  This is a RHF ground state calculation.
  The following tasks will be performed:

     1) Generate initial SAD density
     2) Calculation of reference state (SCF-DIIS algorithm)


  1) Generate initial SAD density


  2) Calculation of reference state (SCF-DIIS algorithm)

  - Setting initial AO density to sad

     Energy of initial guess:               -76.248615173580
     Number of electrons in guess:           10.000000000000

  - Screening and integral thresholds:

     Coulomb screening threshold:    0.1000E-15
     Exchange screening threshold:   0.1000E-13
     ERI cutoff:                     0.1000E-15
     One-electron integral  cutoff:  0.1000E-20
     Cumulative Fock threshold:      0.1000E+01

  - SCF solver settings:

     Maximum iterations:                   100
     Acceleration type:                   diis

  - Convergence thresholds

     Residual threshold:            0.1000E-09
     Energy threshold:              0.1000E-09

  - DIIS tool settings:

     DIIS dimension:   8

     Storage (solver scf_errors): memory
     Storage (solver scf_parameters): memory

  Iteration       Energy (a.u.)      Max(grad.)    Delta E (a.u.)
  ---------------------------------------------------------------
     1           -76.335249522959     0.9357E-01     0.7634E+02
     2           -76.365696835400     0.5199E-01     0.3045E-01
     3           -76.374869557006     0.3983E-02     0.9173E-02
     4           -76.375036123548     0.9694E-03     0.1666E-03
     5           -76.375047798631     0.1784E-03     0.1168E-04
     6           -76.375048210078     0.3457E-04     0.4114E-06
     7           -76.375048221831     0.3154E-05     0.1175E-07
     8           -76.375048221943     0.5777E-06     0.1120E-09
     9           -76.375048221949     0.9572E-07     0.5627E-11
    10           -76.375048221949     0.1643E-07     0.1279E-12
    11           -76.375048221949     0.5335E-08     0.4263E-13
    12           -76.375048221949     0.1290E-08     0.2842E-13
    13           -76.375048221949     0.1458E-09     0.7105E-13
    14           -76.375048221949     0.2047E-10     0.1421E-13
  ---------------------------------------------------------------
  Convergence criterion met in 14 iterations!

  - Summary of RHF wavefunction energetics (a.u.):

     HOMO-LUMO gap:                  0.684637098468
     Nuclear repulsion energy:       9.307879526626
     Electronic energy:            -85.682927748575
     Total energy:                 -76.375048221949

  - Summary of QM/MM energetics:
                                         a.u.             eV     kcal/mol
     QM/MM SCF Contribution:         0.324293061350     8.82446   203.497
     QM/MM Electrostatic Energy:    -0.349605908858    -9.51326  -219.381

  - Timings for the RHF ground state calculation

     Total wall time (sec):              0.30100
     Total cpu time (sec):               0.30847


  :: CCSD wavefunction
  =======================

     Bath orbital(s):         False

   - Number of orbitals:

     Occupied orbitals:    5
     Virtual orbitals:     19
     Molecular orbitals:   24
     Atomic orbitals:      24

   - Number of ground state amplitudes:

     Single excitation amplitudes:  95
     Double excitation amplitudes:  4560


  Cholesky-decomposing electron repulsion integrals
  =================================================

  Cholesky decomposition of electronic repulsion integrals solver
  ---------------------------------------------------------------

  Performs a Cholesky decomposition of the two-electron electronic repulsion 
  integrals in the atomic orbital basis,

  (ab|cd) = sum_J L_ab^J L_cd^J.

  Once the Cholesky basis has been determined, the vectors L^J are constructed 
  and stored to disk. These may either be used directly, or be transformed 
  to the MO basis for use in post-HF calculations. For more information, 
  see S. D. Folkestad, E. F. Kjønstad and H. Koch, JCP, 150(19), (2019)

  - Cholesky decomposition settings:

     Target threshold is:   0.10E-11
     Span factor:           0.10E-01
     Max qual:                  1000

  - Cholesky decomposition ao details:

     Total number of AOs:                    24
     Total number of shell pairs:            78
     Total number of AO pairs:              300

     Significant shell pairs:                78
     Significant AO pairs:                  300

     Construct shell pairs:                  78
     Construct AO pairs:                    300

  Iter.  #Sign. ao pairs / shell pairs   Max diagonal    #Qualified    #Cholesky    Cholesky array size
  -------------------------------------------------------------------------------------------------------
     1               285 /      71       0.47383E+01         150             29              8265
     2               220 /      60       0.46828E-01         242             99             21780
     3               141 /      47       0.46528E-03         158            157             22137
     4               105 /      33       0.45055E-05         122            226             23730
     5                12 /       8       0.45032E-07          55            271              3252
     6                 0 /       0       0.23634E-09           9            279                 0
  -------------------------------------------------------------------------------------------------------

  - Summary of Cholesky decomposition of electronic repulsion integrals:

     Final number of Cholesky vectors: 279

 - Testing the Cholesky decomposition decomposition electronic repulsion integrals:

     Maximal difference between approximate and actual diagonal:              0.1995E-12
     Minimal element of difference between approximate and actual diagonal:  -0.1238E-14

  - Settings for integral handling:

     Cholesky vectors in memory: True
     ERI matrix in memory:       True

  - Finished decomposing the ERIs.

     Total wall time (sec):              0.25500
     Total cpu time (sec):               0.13651


  Determining CC cluster amplitudes
  =================================

   - DIIS coupled cluster ground state solver
  ----------------------------------------------

  A DIIS CC ground state amplitude equations solver. It uses an extrapolation 
  of previous quasi-Newton perturbation theory estimates of the next amplitudes. 
  See Helgaker et al., Molecular Electronic Structure Theory, Chapter 
  13.

  - CC ground state solver settings:

  - Convergence thresholds

     Residual threshold:            0.1000E-09
     Energy threshold:              0.1000E-09
     Max number of iterations:      100

  - DIIS tool settings:

     DIIS dimension:   8

     Storage (cc_gs_diis_errors): file
     Storage (cc_gs_diis_parameters): file

  Iteration    Energy (a.u.)        |omega|       Delta E (a.u.)
  ---------------------------------------------------------------
    1           -76.577187113148     0.7425E-01     0.7658E+02
    2           -76.582282644305     0.2059E-01     0.5096E-02
    3           -76.585964894769     0.4695E-02     0.3682E-02
    4           -76.586360940980     0.1043E-02     0.3960E-03
    5           -76.586369936443     0.2063E-03     0.8995E-05
    6           -76.586378759421     0.6421E-04     0.8823E-05
    7           -76.586378078377     0.1662E-04     0.6810E-06
    8           -76.586377646384     0.4075E-05     0.4320E-06
    9           -76.586377562056     0.9522E-06     0.8433E-07
   10           -76.586377511988     0.2214E-06     0.5007E-07
   11           -76.586377526349     0.4978E-07     0.1436E-07
   12           -76.586377525507     0.1023E-07     0.8421E-09
   13           -76.586377525978     0.2770E-08     0.4711E-09
   14           -76.586377525844     0.7536E-09     0.1340E-09
   15           -76.586377525837     0.2218E-09     0.7645E-11
   16           -76.586377525837     0.4201E-10     0.3979E-12
  ---------------------------------------------------------------
  Convergence criterion met in 16 iterations!

  - Ground state summary:

     Final ground state energy (a.u.):   -76.586377525837

     Correlation energy (a.u.):           -0.211329303888

     Largest single amplitudes:
     -----------------------------------
        a       i         t(a,i)
     -----------------------------------
       13      3       -0.006515561769
        1      4       -0.005516270284
        2      3       -0.005461182222
        1      2        0.004356322642
       14      4       -0.004162501716
        5      2       -0.003943362704
        7      3       -0.003904189691
       10      5       -0.003006874055
        8      4        0.002856932541
        4      4        0.002603933741
     ------------------------------------

     Largest double amplitudes:
     --------------------------------------------------
        a      i       b      j         t(ai,bj)
     --------------------------------------------------
        6      5       6      5       -0.051536313167
        5      4       5      4       -0.036708176217
        3      3       3      3       -0.035360059927
        5      4       6      5       -0.029348236713
        4      3       4      3       -0.028406401540
        3      4       3      4       -0.024383789947
        2      3       2      3       -0.024287467623
        7      3       6      5        0.022944738982
        7      3       7      3       -0.022418178975
        2      3       6      5       -0.019935849601
     --------------------------------------------------

  - Finished solving the CCSD ground state equations

     Total wall time (sec):              0.39700
     Total cpu time (sec):               0.15860

  ------------------------------------------------------------

  Peak memory usage during the execution of eT: 7.336808 MB

  Total wall time in eT (sec):              0.98400
  Total cpu time in eT (sec):               0.62823

  Calculation ended: 2022-04-07 12:34:55 UTC -07:00

  - Implementation references:

     eT: https://doi.org/10.1063/5.0004713
     Cholesky decomposition of ERIs: https://doi.org/10.1063/1.5083802

  eT terminated successfully!
