


                     eT 1.7 - an electronic structure program

  ------------------------------------------------------------------------
   Author list in alphabetical order:
  ------------------------------------------------------------------------
   J. H. Andersen, A. Balbi, S. Coriani, S. D. Folkestad, T. Giovannini, 
   L. Goletto, T. S. Haugland, A. Hutcheson, I-M. Høyvik, E. F. Kjønstad, 
   H. Koch, R. Matveeva, T. Moitra, R. H. Myhre, A. C. Paul, S. Roet, 
   E. RoncaM. Scavino, A. K. Schnack-Petersen, A. S. Skeidsvoll, Å. 
   H. Tveten
  ------------------------------------------------------------------------
   J. Chem. Phys. 152, 184103 (2020); https://doi.org/10.1063/5.0004713


   This is eT 1.7.0 Hydra
  ------------------------------------------------------------
  Configuration date: 2022-04-07 12:33:31 UTC -07:00
  Git branch:         release-v1.7.0
  Git hash:           c5c382d7d23365463896a87c37298e4a37e4c962
  Fortran compiler:   GNU 11.2.0
  C compiler:         GNU 11.2.0
  C++ compiler:       GNU 11.2.0
  LAPACK type:        SYSTEM_NATIVE
  BLAS type:          SYSTEM_NATIVE
  64-bit integers:    OFF
  OpenMP:             ON
  PCM:                OFF
  Forced batching:    OFF
  Runtime checks:     OFF
  ------------------------------------------------------------

  Calculation started: 2022-04-07 12:34:41 UTC -07:00


  :: Input file
  ================

     Note: geometry section is excluded from this print

     system
        name: HOF He
        charge: 0
     end system

     do
        ground state
     end do

     memory
        available: 8
     end memory

     solver scf
        algorithm: mo-scf-diis
        energy threshold:   1.0d-11
        gradient threshold: 1.0d-11
     end solver scf

     method
        mlhf
     end method

     active atoms
        selection type: range
        hf: [1, 4]
     end active atoms


  Running on 2 OMP threads
  Memory available for calculation: 8.000000 GB


  :: MLHF wavefunction
  =======================

  - MLHF settings:

     Occupied orbitals:    Cholesky
     Virtual orbitals:     PAOs

     Cholesky decomposition threshold:  0.10E-01

     ==============================================================================
                                     Geometry (angstrom)
     ==============================================================================
        Atom           X                  Y                  Z         # in input
     ==============================================================================
        Basis: cc-pvdz
        1  H     0.866810000000     0.601440000000     5.000000000000        1
        2  F    -0.866810000000     0.601440000000     5.000000000000        2
        3  O     0.000000000000    -0.075790000000     5.000000000000        3
        4 He     0.000000000000     0.000000000000     7.500000000000        4
     ==============================================================================

     ==============================================================================
                                     Geometry (a.u.)
     ==============================================================================
        Atom           X                  Y                  Z         # in input
     ==============================================================================
        Basis: cc-pvdz
        1  H     1.638033502034     1.136556880358     9.448630622825        1
        2  F    -1.638033502034     1.136556880358     9.448630622825        2
        3  O     0.000000000000    -0.143222342981     9.448630622825        3
        4 He     0.000000000000     0.000000000000    14.172945934238        4
     ==============================================================================

  - Cholesky decomposition of AO overlap to get linearly independent AOs:

     Linear dependence threshold:             0.10E-05
     Number of atomic orbitals:               38
     Number of orthonormal atomic orbitals:   38

  - Molecular orbital details:

     Number of occupied orbitals:        10
     Number of virtual orbitals:         28
     Number of molecular orbitals:       38


  :: Hartree-Fock engine
  =========================

  Drives the calculation of the Hartree-Fock state.

  This is a MLHF ground state calculation.
  The following tasks will be performed:

     1) Generate initial SAD density
     2) Calculation of reference state (MO-SCF-DIIS algorithm)


  1) Generate initial SAD density


  2) Calculation of reference state (MO-SCF-DIIS algorithm)

  - Setting initial AO density to sad

     Energy of initial guess:              -178.316362504257
     Number of electrons in guess:           20.000000000000

  - Active orbital space:

      Number of active occupied orbitals:       10
      Number of active virtual orbitals:        28
      Number of active orbitals:                38

  - Screening and integral thresholds:

     Coulomb screening threshold:    0.1000E-16
     Exchange screening threshold:   0.1000E-14
     ERI cutoff:                     0.1000E-16
     One-electron integral  cutoff:  0.1000E-21
     Cumulative Fock threshold:      0.1000E+01

  - SCF solver settings:

     Maximum iterations:                   100
     Acceleration type:                   diis

  - Convergence thresholds

     Residual threshold:            0.1000E-10
     Energy threshold:              0.1000E-10

  - DIIS tool settings:

     DIIS dimension:   8

     Storage (solver scf_errors): memory
     Storage (solver scf_parameters): memory

  Iteration       Energy (a.u.)      Max(grad.)    Delta E (a.u.)
  ---------------------------------------------------------------
     1          -177.452442672057     0.3183E+00     0.1775E+03
     2          -177.479038695767     0.4475E-01     0.2660E-01
     3          -177.480033252304     0.1056E-01     0.9946E-03
     4          -177.480160925685     0.6354E-02     0.1277E-03
     5          -177.480174927893     0.1153E-02     0.1400E-04
     6          -177.480176282419     0.3460E-03     0.1355E-05
     7          -177.480176365984     0.7471E-04     0.8356E-07
     8          -177.480176376345     0.2193E-04     0.1036E-07
     9          -177.480176377179     0.4364E-05     0.8340E-09
    10          -177.480176377209     0.8408E-06     0.3067E-10
    11          -177.480176377211     0.1418E-06     0.1194E-11
    12          -177.480176377211     0.3062E-07     0.3126E-12
    13          -177.480176377211     0.1432E-07     0.1137E-12
    14          -177.480176377211     0.7277E-08     0.8527E-13
    15          -177.480176377211     0.3178E-08     0.2842E-13
    16          -177.480176377211     0.7104E-09     0.2842E-13
    17          -177.480176377211     0.1522E-09     0.8527E-13
    18          -177.480176377211     0.2354E-10     0.8527E-13
    19          -177.480176377211     0.6823E-11     0.1705E-12
  ---------------------------------------------------------------
  Convergence criterion met in 19 iterations!

  - Summary of MLHF wavefunction energetics (a.u.):

     HOMO-LUMO gap:                  0.600136348377
     Nuclear repulsion energy:      48.518317619727
     Electronic energy:           -225.998493996939
     Total energy:                -177.480176377211

  - Summary of MLHF active/inactive contributions to electronic energy (a.u.):

     Active energy:               -225.998493996939
     Active-inactive energy:         0.000000000000
     Inactive energy:                0.000000000000

  - Timings for the MLHF ground state calculation

     Total wall time (sec):              1.31200
     Total cpu time (sec):               1.18902

  ------------------------------------------------------------

  Peak memory usage during the execution of eT: 409.924 KB

  Total wall time in eT (sec):              1.32700
  Total cpu time in eT (sec):               1.20217

  Calculation ended: 2022-04-07 12:34:43 UTC -07:00

  - Implementation references:

     eT: https://doi.org/10.1063/5.0004713

  eT terminated successfully!
