


                     eT 1.7 - an electronic structure program

  ------------------------------------------------------------------------
   Author list in alphabetical order:
  ------------------------------------------------------------------------
   J. H. Andersen, A. Balbi, S. Coriani, S. D. Folkestad, T. Giovannini, 
   L. Goletto, T. S. Haugland, A. Hutcheson, I-M. Høyvik, E. F. Kjønstad, 
   H. Koch, R. Matveeva, T. Moitra, R. H. Myhre, A. C. Paul, S. Roet, 
   E. RoncaM. Scavino, A. K. Schnack-Petersen, A. S. Skeidsvoll, Å. 
   H. Tveten
  ------------------------------------------------------------------------
   J. Chem. Phys. 152, 184103 (2020); https://doi.org/10.1063/5.0004713


   This is eT 1.7.0 Hydra
  ------------------------------------------------------------
  Configuration date: 2022-04-07 12:33:31 UTC -07:00
  Git branch:         release-v1.7.0
  Git hash:           c5c382d7d23365463896a87c37298e4a37e4c962
  Fortran compiler:   GNU 11.2.0
  C compiler:         GNU 11.2.0
  C++ compiler:       GNU 11.2.0
  LAPACK type:        SYSTEM_NATIVE
  BLAS type:          SYSTEM_NATIVE
  64-bit integers:    OFF
  OpenMP:             ON
  PCM:                OFF
  Forced batching:    OFF
  Runtime checks:     OFF
  ------------------------------------------------------------

  Calculation started: 2022-04-07 12:35:28 UTC -07:00


  :: Input file
  ================

     Note: geometry section is excluded from this print

     system
        name: H2O He
        charge: 0
     end system

     memory
        available: 8
     end memory

     do
       response
     end do

     method
        hf
        ccsd
     end method

     solver scf
        skip
        energy threshold:   1.0d-11
        gradient threshold: 1.0d-11
     end solver scf

     solver cholesky
        threshold: 1.0d-12
     end solver cholesky

     solver cc gs
        restart
        omega threshold:  1.0d-11
        energy threshold: 1.0d-11
     end solver cc gs

     solver cc multipliers
        restart
        threshold:         1.0d-11
        algorithm:         davidson
     end solver cc multipliers

     solver cc es
        restart
        algorithm:          davidson
        singlet states:     3
        residual threshold: 1.0d-11
        energy threshold:   1.0d-11
     end solver cc es

     cc response
       eom
       dipole length
       transition moments
     end cc response


  Running on 2 OMP threads
  Memory available for calculation: 8.000000 GB


  :: RHF wavefunction
  ======================

     ==============================================================================
                                     Geometry (angstrom)
     ==============================================================================
        Atom           X                  Y                  Z         # in input
     ==============================================================================
        Basis: cc-pvdz
        1  H     0.866810000000     0.601440000000     5.000000000000        1
        2  H    -0.866810000000     0.601440000000     5.000000000000        2
        3  O     0.000000000000    -0.075790000000     5.000000000000        3
        4 He     0.100000000000    -0.020000000000     7.530000000000        4
     ==============================================================================

     ==============================================================================
                                     Geometry (a.u.)
     ==============================================================================
        Atom           X                  Y                  Z         # in input
     ==============================================================================
        Basis: cc-pvdz
        1  H     1.638033502034     1.136556880358     9.448630622825        1
        2  H    -1.638033502034     1.136556880358     9.448630622825        2
        3  O     0.000000000000    -0.143222342981     9.448630622825        3
        4 He     0.188972612457    -0.037794522491    14.229637717975        4
     ==============================================================================

  - Cholesky decomposition of AO overlap to get linearly independent AOs:

     Linear dependence threshold:             0.10E-05
     Number of atomic orbitals:               29
     Number of orthonormal atomic orbitals:   29

  - Molecular orbital details:

     Number of occupied orbitals:         6
     Number of virtual orbitals:         23
     Number of molecular orbitals:       29


  :: Hartree-Fock engine
  =========================

  Drives the calculation of the Hartree-Fock state.

  This is a RHF ground state calculation.
  The following tasks will be performed:

     1) Generate initial SAD density
     2) Calculation of reference state (SCF-DIIS algorithm)


  2) Calculation of reference state (SCF-DIIS algorithm)

  - Requested restart. Reading orbitals from file

     max gradient          0.000000000002

  - Screening and integral thresholds:

     Coulomb screening threshold:    0.1000E-16
     Exchange screening threshold:   0.1000E-14
     ERI cutoff:                     0.1000E-16
     One-electron integral  cutoff:  0.1000E-21
     Cumulative Fock threshold:      0.1000E+01

  - SCF solver settings:

     Maximum iterations:                   100
     Acceleration type:                   diis

  - Convergence thresholds

     Residual threshold:            0.1000E-10
     Energy threshold:              0.1000E-10

  Warning: skipping SCF solver!

  Iteration       Energy (a.u.)      Max(grad.)    Delta E (a.u.)
  ---------------------------------------------------------------
     1           -78.843851693631     0.2399E-11     0.7884E+02
  ---------------------------------------------------------------
  Convergence criterion met in 1 iterations!

  - Summary of RHF wavefunction energetics (a.u.):

     HOMO-LUMO gap:                  0.645629080248
     Nuclear repulsion energy:      12.116100574587
     Electronic energy:            -90.959952268218
     Total energy:                 -78.843851693631

  - Timings for the RHF ground state calculation

     Total wall time (sec):              0.01000
     Total cpu time (sec):               0.01457


  :: CCSD wavefunction
  =======================

     Bath orbital(s):         False

   - Number of orbitals:

     Occupied orbitals:    6
     Virtual orbitals:     23
     Molecular orbitals:   29
     Atomic orbitals:      29

   - Number of ground state amplitudes:

     Single excitation amplitudes:  138
     Double excitation amplitudes:  9591


  Cholesky-decomposing electron repulsion integrals
  =================================================

  Cholesky decomposition of electronic repulsion integrals solver
  ---------------------------------------------------------------

  Performs a Cholesky decomposition of the two-electron electronic repulsion 
  integrals in the atomic orbital basis,

  (ab|cd) = sum_J L_ab^J L_cd^J.

  Once the Cholesky basis has been determined, the vectors L^J are constructed 
  and stored to disk. These may either be used directly, or be transformed 
  to the MO basis for use in post-HF calculations. For more information, 
  see S. D. Folkestad, E. F. Kjønstad and H. Koch, JCP, 150(19), (2019)

  - Cholesky decomposition settings:

     Target threshold is:   0.10E-11
     Span factor:           0.10E-01
     Max qual:                  1000

  - Cholesky decomposition ao details:

     Total number of AOs:                    29
     Total number of shell pairs:           120
     Total number of AO pairs:              435

     Significant shell pairs:               118
     Significant AO pairs:                  431

     Construct shell pairs:                 120
     Construct AO pairs:                    435

  Iter.  #Sign. ao pairs / shell pairs   Max diagonal    #Qualified    #Cholesky    Cholesky array size
  -------------------------------------------------------------------------------------------------------
     1               406 /     108       0.47383E+01         147             42             17052
     2               319 /      93       0.47165E-01         234            111             35409
     3               250 /      76       0.46944E-03         178            183             45750
     4               187 /      55       0.38270E-05         145            265             49555
     5                87 /      25       0.38106E-07          78            324             28188
     6                21 /       3       0.37202E-09          43            349              7329
     7                 0 /       0       0.36652E-11           7            354                 0
  -------------------------------------------------------------------------------------------------------

  - Summary of Cholesky decomposition of electronic repulsion integrals:

     Final number of Cholesky vectors: 354

 - Testing the Cholesky decomposition decomposition electronic repulsion integrals:

     Maximal difference between approximate and actual diagonal:              0.7161E-12
     Minimal element of difference between approximate and actual diagonal:  -0.1238E-14

  - Settings for integral handling:

     Cholesky vectors in memory: True
     ERI matrix in memory:       True

  - Finished decomposing the ERIs.

     Total wall time (sec):              0.28600
     Total cpu time (sec):               0.20044


  Determining CC cluster amplitudes
  =================================

   - DIIS coupled cluster ground state solver
  ----------------------------------------------

  A DIIS CC ground state amplitude equations solver. It uses an extrapolation 
  of previous quasi-Newton perturbation theory estimates of the next amplitudes. 
  See Helgaker et al., Molecular Electronic Structure Theory, Chapter 
  13.

  - CC ground state solver settings:

  - Convergence thresholds

     Residual threshold:            0.1000E-10
     Energy threshold:              0.1000E-10
     Max number of iterations:      100

  Requested restart. Reading in solution from file.

  - DIIS tool settings:

     DIIS dimension:   8

     Storage (cc_gs_diis_errors): file
     Storage (cc_gs_diis_parameters): file

  Iteration    Energy (a.u.)        |omega|       Delta E (a.u.)
  ---------------------------------------------------------------
    1           -79.100383481556     0.7515E-11     0.7910E+02
  ---------------------------------------------------------------
  Convergence criterion met in 1 iterations!

  - Ground state summary:

     Final ground state energy (a.u.):   -79.100383481556

     Correlation energy (a.u.):           -0.256531787925

     Largest single amplitudes:
     -----------------------------------
        a       i         t(a,i)
     -----------------------------------
        1      5       -0.014740597524
       14      4        0.009546856220
        7      4       -0.008284826483
       15      5        0.006124828873
        4      5       -0.005606072698
        6      2       -0.005476844297
        2      4       -0.005318591701
       13      5       -0.005269818337
        5      6        0.004933006906
       11      6       -0.003454309399
     ------------------------------------

     Largest double amplitudes:
     --------------------------------------------------
        a      i       b      j         t(ai,bj)
     --------------------------------------------------
        2      4       2      4       -0.047351708919
        5      6       5      6       -0.046240574404
        9      3       9      3       -0.041367012248
        3      4       3      4       -0.036659067517
        6      5       6      5       -0.034554012170
        1      5       1      5       -0.034177347751
       16      3      16      3       -0.032108235347
       17      3      17      3       -0.032052553603
       18      3      18      3       -0.031351828684
        2      4       3      4       -0.029701270698
     --------------------------------------------------

  - Finished solving the CCSD ground state equations

     Total wall time (sec):              0.01400
     Total cpu time (sec):               0.01698


  Determining CC multipliers
  ==========================

   - Davidson tool settings:

     Number of parameters:                 9729
     Number of requested solutions:           1
     Max reduced space dimension:            50

     Storage (multipliers_davidson_trials): file
     Storage (multipliers_davidson_transforms): file

  Requested restart. Reading multipliers from file.

  - Davidson solver settings

     Residual threshold:              0.10E-10
     Max number of iterations:             100

   Iteration       Residual norm
  -------------------------------
     1               0.8872E-11
  -------------------------------
  Convergence criterion met in 1 iterations!

  - CC multipliers solver summary:

     Largest single amplitudes:
     -----------------------------------
        a       i         tbar(a,i)
     -----------------------------------
        1      5       -0.022790118896
       14      4        0.015907507091
        7      4       -0.014297181947
        4      5       -0.011712306721
       15      5        0.010007216962
        6      2       -0.009083547622
       13      5       -0.008770531160
        2      4       -0.006954460293
        5      6        0.006820250278
        3      4       -0.006765159552
     ------------------------------------

     Largest double amplitudes:
     --------------------------------------------------
        a      i       b      j         tbar(ai,bj)
     --------------------------------------------------
        5      6       5      6       -0.092500754791
        2      4       2      4       -0.092085328213
        6      5       5      6        0.089666625590
        2      4       5      6        0.083792278098
        9      3       9      3       -0.082167759498
        2      4       6      5       -0.077164163662
        2      4       1      5       -0.076342716082
        7      4       5      6       -0.071424572153
        3      4       3      4       -0.071282985174
        6      5       6      5       -0.068075967747
     --------------------------------------------------


  Determining CC excited state amplitudes
  =======================================

  Davidson eigenvalue equation solver
  -----------------------------------

  A Davidson solver that solves an eigenvalue equation: M x = omega x. 
  This equation is solved in a reduced space. A description of the algorithm 
  can be found in E. R. Davidson, J. Comput. Phys. 17, 87 (1975).

   - Davidson tool settings:

     Number of parameters:                 9729
     Number of requested solutions:           3
     Max reduced space dimension:           100

     Storage (cc_es_davidson_trials): memory
     Storage (cc_es_davidson_transforms): memory
     Restarting right vector 1 from file r_001.
     Restarting right vector 2 from file r_002.
     Restarting right vector 3 from file r_003.

  - Davidson solver settings

     Number of singlet states:               3
     Max number of iterations:             100

  Iteration:                  1
  Reduced space dimension:    3

  Root  Eigenvalue (Re)   Eigenvalue (Im)    |residual|   Delta E (Re)
  -------------------------------------------------------------------------
     1   0.247194255572    0.000000000000     0.1441E-11   0.2472E+00
     2   0.312716698779    0.000000000000     0.4941E-11   0.3127E+00
     3   0.356085057592    0.000000000000     0.2428E-11   0.3561E+00
  -------------------------------------------------------------------------
  Convergence criterion met in 1 iterations!

  - Excitation vector amplitudes:

     Electronic state nr. 1

     Energy (Hartree):                  0.247194255572
     Fraction singles (|R1|/|R|):       0.973397678083

     Largest single amplitudes:
     -----------------------------------
        a       i         R(a,i)
     -----------------------------------
        1      6       -0.964249868485
        4      6       -0.121847295823
        6      6       -0.036249387510
       13      6        0.030061485952
        1      3        0.011074241439
       22      6       -0.008603353606
       19      5        0.007863834135
        1      5       -0.007857920531
       10      6       -0.007675079118
        9      6       -0.007427820492
     ------------------------------------

     Largest double amplitudes:
     --------------------------------------------------
        a      i       b      j         R(ai,bj)
     --------------------------------------------------
        2      4       1      6       -0.100746791318
        1      5       1      6       -0.085612058155
        1      6       5      6        0.066933008112
        1      2       1      6        0.063267573162
        1      4       2      6       -0.061512599149
        3      4       1      6       -0.054854109240
        6      5       1      6       -0.046260935197
        4      5       1      6       -0.038260256937
        7      4       1      6        0.032958804244
        4      4       2      6       -0.032734134559
     --------------------------------------------------

     Electronic state nr. 2

     Energy (Hartree):                  0.312716698779
     Fraction singles (|R1|/|R|):       0.974191508731

     Largest single amplitudes:
     -----------------------------------
        a       i         R(a,i)
     -----------------------------------
        2      6        0.954551201852
        3      6        0.178658232264
        7      6       -0.072428436855
       14      6        0.020845095882
        2      3       -0.011040706129
       12      6       -0.005883373005
        8      2        0.005692890963
        2      5        0.005144277710
        5      4        0.004935182404
       11      4        0.003612992496
     ------------------------------------

     Largest double amplitudes:
     --------------------------------------------------
        a      i       b      j         R(ai,bj)
     --------------------------------------------------
        2      4       2      6        0.110664929270
        1      5       2      6        0.079354628531
        2      6       5      6       -0.060325722580
        2      5       1      6        0.050061414585
        3      4       2      6        0.047564612585
        1      4       1      6        0.045251222953
        1      2       2      6       -0.045012448109
        4      5       2      6        0.039742197636
        6      5       2      6        0.038941412498
        3      5       1      6        0.034289057215
     --------------------------------------------------

     Electronic state nr. 3

     Energy (Hartree):                  0.356085057592
     Fraction singles (|R1|/|R|):       0.977805372200

     Largest single amplitudes:
     -----------------------------------
        a       i         R(a,i)
     -----------------------------------
        1      5        0.957314847871
        2      4       -0.137091155508
        4      5        0.090812850214
        1      2        0.071675967623
        3      4       -0.054796039254
        5      6        0.040602500552
       13      5       -0.029458132227
        7      4        0.025825254324
        4      2        0.021074995285
       10      5        0.013972713306
     ------------------------------------

     Largest double amplitudes:
     --------------------------------------------------
        a      i       b      j         R(ai,bj)
     --------------------------------------------------
        2      4       1      5        0.082435001503
        1      5       1      5        0.081686786865
        1      5       6      5        0.054811008558
        1      4       2      5        0.048159897951
        1      5       4      5        0.042695435568
        3      4       1      5        0.039841925826
        1      5       5      6       -0.039669396138
        2      5       3      5        0.037629696693
        1      2       3      4        0.032609865471
        4      4       2      5        0.031072898992
     --------------------------------------------------

  - CCSD excitation energies:

                                      Excitation energy
                          ------------------------------------------
      State                (Hartree)             (eV)
     ---------------------------------------------------------------
        1                  0.247194255572        6.726498310303
        2                  0.312716698779        8.509454805379
        3                  0.356085057592        9.689567958102
     ---------------------------------------------------------------
     eV/Hartree (CODATA 2014): 27.21138602


  Determining CC excited state amplitudes
  =======================================

  Davidson eigenvalue equation solver
  -----------------------------------

  A Davidson solver that solves an eigenvalue equation: M x = omega x. 
  This equation is solved in a reduced space. A description of the algorithm 
  can be found in E. R. Davidson, J. Comput. Phys. 17, 87 (1975).

   - Davidson tool settings:

     Number of parameters:                 9729
     Number of requested solutions:           3
     Max reduced space dimension:           100

     Storage (cc_es_davidson_trials): memory
     Storage (cc_es_davidson_transforms): memory
     Restarting left vector 1 from file l_001.
     Restarting left vector 2 from file l_002.
     Restarting left vector 3 from file l_003.

  - Davidson solver settings

     Number of singlet states:               3
     Max number of iterations:             100

  Iteration:                  1
  Reduced space dimension:    3

  Root  Eigenvalue (Re)   Eigenvalue (Im)    |residual|   Delta E (Re)
  -------------------------------------------------------------------------
     1   0.247194255572    0.000000000000     0.1724E-11   0.2472E+00
     2   0.312716698779    0.000000000000     0.6556E-11   0.3127E+00
     3   0.356085057592    0.000000000000     0.2982E-11   0.3561E+00
  -------------------------------------------------------------------------
  Convergence criterion met in 1 iterations!

  - Excitation vector amplitudes:

     Electronic state nr. 1

     Energy (Hartree):                  0.247194255572
     Fraction singles (|L1|/|L|):       0.942536368057

     Largest single amplitudes:
     -----------------------------------
        a       i         L(a,i)
     -----------------------------------
        1      6       -0.934321066335
        4      6       -0.114002382605
        6      6       -0.032814400825
       13      6        0.027947643733
        1      3        0.010930020792
        1      5       -0.007879253273
       22      6       -0.007408446952
       10      6       -0.006944886702
       19      5        0.006882560535
        9      6       -0.006676723237
     ------------------------------------

     Largest double amplitudes:
     --------------------------------------------------
        a      i       b      j         L(ai,bj)
     --------------------------------------------------
        2      4       1      6       -0.171079645375
        6      5       1      6       -0.100212340581
        3      4       1      6       -0.099658455494
        1      5       1      6       -0.089486547885
        4      5       1      6       -0.079266906023
        1      6       5      6        0.071510175859
        7      4       1      6        0.068318341917
        1      2       1      6        0.065029437021
        4      4       2      6       -0.055727685952
        3      5       2      6       -0.042559408816
     --------------------------------------------------

     Electronic state nr. 2

     Energy (Hartree):                  0.312716698779
     Fraction singles (|L1|/|L|):       0.947346929585

     Largest single amplitudes:
     -----------------------------------
        a       i         L(a,i)
     -----------------------------------
        2      6        0.929176283477
        3      6        0.170171916892
        7      6       -0.067040287510
       14      6        0.019343770379
        2      3       -0.010988929729
       12      6       -0.005562563577
        8      2        0.005268480761
        2      5        0.005150490900
        5      4        0.004776593204
       11      4        0.003612608696
     ------------------------------------

     Largest double amplitudes:
     --------------------------------------------------
        a      i       b      j         L(ai,bj)
     --------------------------------------------------
        1      5       2      6        0.127019523012
        2      4       2      6        0.118729473864
        3      4       2      6        0.091137477755
        6      5       2      6        0.082397334662
        7      4       2      6       -0.081191332740
        1      2       2      6       -0.072465986377
        4      5       2      6        0.072390631931
        2      6       5      6       -0.065336366667
        3      5       1      6        0.053276119555
        4      4       1      6        0.048446470294
     --------------------------------------------------

     Electronic state nr. 3

     Energy (Hartree):                  0.356085057592
     Fraction singles (|L1|/|L|):       0.938777046182

     Largest single amplitudes:
     -----------------------------------
        a       i         L(a,i)
     -----------------------------------
        1      5        0.920088349284
        2      4       -0.130880085863
        4      5        0.082954102260
        1      2        0.066949838483
        3      4       -0.051783287686
        5      6        0.035952688612
       13      5       -0.027083554109
        7      4        0.022267567554
        4      2        0.019543419769
       10      5        0.012292234036
     ------------------------------------

     Largest double amplitudes:
     --------------------------------------------------
        a      i       b      j         L(ai,bj)
     --------------------------------------------------
        1      5       1      5        0.160292538733
        2      4       1      5        0.141010853923
        3      4       1      5        0.088409690093
        1      5       5      6       -0.085732644498
        4      4       2      5        0.059886875058
        1      5       6      5        0.058600304295
        2      5       2      5        0.056836923109
        7      4       1      5       -0.051021542268
        1      2       3      4        0.050766399787
        1      2       2      4        0.050263933720
     --------------------------------------------------

  - CCSD excitation energies:

                                      Excitation energy
                          ------------------------------------------
      State                (Hartree)             (eV)
     ---------------------------------------------------------------
        1                  0.247194255572        6.726498310303
        2                  0.312716698779        8.509454805378
        3                  0.356085057592        9.689567958103
     ---------------------------------------------------------------
     eV/Hartree (CODATA 2014): 27.21138602


  Biorthonormalization of excited CC states
  =========================================


  Determining CC EOM transition moments
  =====================================

  :: EOM properties calculation

  - Summary of EOM transition properties calculation:

     States m = 0 and n = 1:
     -------------------------
     Calculation type:                             EOM
     Excitation energy [E_h]:           0.247194255572
     Excitation energy [eV]:            6.726498310303
     Hartree-to-eV (CODATA 2014):          27.21138602

                   Transition moments [a.u.]         Transition strength [a.u.]
     --------------------------------------------------------------------------
     Comp. q     < n |q| m >       < m |q| n >        < n |q| m > < m |q| n >
     --------------------------------------------------------------------------
     X           0.0004665158      0.0008903044            0.0000004153
     Y           0.0027022345      0.0052703759            0.0000142418
     Z          -0.2024326697     -0.3970439121            0.0803746591
     --------------------------------------------------------------------------
     Oscillator strength:      0.013247851457

     States m = 0 and n = 2:
     -------------------------
     Calculation type:                             EOM
     Excitation energy [E_h]:           0.312716698779
     Excitation energy [eV]:            8.509454805379
     Hartree-to-eV (CODATA 2014):          27.21138602

                   Transition moments [a.u.]         Transition strength [a.u.]
     --------------------------------------------------------------------------
     Comp. q     < n |q| m >       < m |q| n >        < n |q| m > < m |q| n >
     --------------------------------------------------------------------------
     X          -0.0080987108     -0.0154960656            0.0001254982
     Y           0.0000397230      0.0000465890            0.0000000019
     Z           0.0000783294      0.0001426371            0.0000000112
     --------------------------------------------------------------------------
     Oscillator strength:      0.000026166294

     States m = 0 and n = 3:
     -------------------------
     Calculation type:                             EOM
     Excitation energy [E_h]:           0.356085057592
     Excitation energy [eV]:            9.689567958102
     Hartree-to-eV (CODATA 2014):          27.21138602

                   Transition moments [a.u.]         Transition strength [a.u.]
     --------------------------------------------------------------------------
     Comp. q     < n |q| m >       < m |q| n >        < n |q| m > < m |q| n >
     --------------------------------------------------------------------------
     X          -0.0007530611     -0.0014776867            0.0000011128
     Y           0.4685892776      0.9219121145            0.4319981317
     Z          -0.0045071524     -0.0088103669            0.0000397097
     --------------------------------------------------------------------------
     Oscillator strength:      0.102561743915

  ------------------------------------------------------------

  Peak memory usage during the execution of eT: 30.549400 MB

  :: There was 1 warning during the execution of eT. ::

  Total wall time in eT (sec):              0.60200
  Total cpu time in eT (sec):               0.39682

  Calculation ended: 2022-04-07 12:35:29 UTC -07:00

  - Implementation references:

     eT: https://doi.org/10.1063/5.0004713
     Cholesky decomposition of ERIs: https://doi.org/10.1063/1.5083802

  eT terminated successfully!
