


                     eT 1.7 - an electronic structure program

  ------------------------------------------------------------------------
   Author list in alphabetical order:
  ------------------------------------------------------------------------
   J. H. Andersen, A. Balbi, S. Coriani, S. D. Folkestad, T. Giovannini, 
   L. Goletto, T. S. Haugland, A. Hutcheson, I-M. Høyvik, E. F. Kjønstad, 
   H. Koch, R. Matveeva, T. Moitra, R. H. Myhre, A. C. Paul, S. Roet, 
   E. RoncaM. Scavino, A. K. Schnack-Petersen, A. S. Skeidsvoll, Å. 
   H. Tveten
  ------------------------------------------------------------------------
   J. Chem. Phys. 152, 184103 (2020); https://doi.org/10.1063/5.0004713


   This is eT 1.7.0 Hydra
  ------------------------------------------------------------
  Configuration date: 2022-04-07 12:33:31 UTC -07:00
  Git branch:         release-v1.7.0
  Git hash:           c5c382d7d23365463896a87c37298e4a37e4c962
  Fortran compiler:   GNU 11.2.0
  C compiler:         GNU 11.2.0
  C++ compiler:       GNU 11.2.0
  LAPACK type:        SYSTEM_NATIVE
  BLAS type:          SYSTEM_NATIVE
  64-bit integers:    OFF
  OpenMP:             ON
  PCM:                OFF
  Forced batching:    OFF
  Runtime checks:     OFF
  ------------------------------------------------------------

  Calculation started: 2022-04-07 12:35:31 UTC -07:00


  :: Input file
  ================

     Note: geometry section is excluded from this print

     system
        name: 2 H2O
        charge: 0
        multiplicity: 1
     end system

     do
        ground state
     end do

     memory
        available: 8
     end memory

     solver cholesky
        threshold: 1.0d-12
     end solver cholesky

     solver scf
        algorithm: mo-scf-diis
        energy threshold:   1.0d-11
        gradient threshold: 1.0d-11
     end solver scf

     solver cc gs
        omega threshold:  1.0d-11
        energy threshold: 1.0d-11
     end solver cc gs

     method
        mlhf
        ccsd
     end method

     frozen orbitals
        core
     end frozen orbitals

     active atoms
        selection type: range
        hf: [1, 3]
     end active atoms


  Running on 2 OMP threads
  Memory available for calculation: 8.000000 GB


  :: MLHF wavefunction
  =======================

  - MLHF settings:

     Occupied orbitals:    Cholesky
     Virtual orbitals:     PAOs

     Cholesky decomposition threshold:  0.10E-01

     ==============================================================================
                                     Geometry (angstrom)
     ==============================================================================
        Atom           X                  Y                  Z         # in input
     ==============================================================================
        Basis: cc-pvdz
        1  O    -0.573030000000     2.189950000000    -0.052560000000        1
        2  H     0.347690000000     2.485980000000     0.050490000000        2
        3  H    -1.075800000000     3.019470000000     0.020240000000        3
        4  O    -1.567030000000    -0.324500000000     0.450780000000        4
        5  H    -1.211220000000     0.588750000000     0.375890000000        5
        6  H    -1.604140000000    -0.590960000000    -0.479690000000        6
     ==============================================================================

     ==============================================================================
                                     Geometry (a.u.)
     ==============================================================================
        Atom           X                  Y                  Z         # in input
     ==============================================================================
        Basis: cc-pvdz
        1  O    -1.082869761160     4.138405726491    -0.099324005107        1
        2  H     0.657038876250     4.697821351146     0.095412272029        2
        3  H    -2.032967364807     5.705971341340     0.038248056761        3
        4  O    -2.961257528977    -0.613216127421     0.851850742431        4
        5  H    -2.288874076596     1.112576255838     0.710329152963        5
        6  H    -3.031385265460    -1.116752550573    -0.906482724693        6
     ==============================================================================

  - Cholesky decomposition of AO overlap to get linearly independent AOs:

     Linear dependence threshold:             0.10E-05
     Number of atomic orbitals:               48
     Number of orthonormal atomic orbitals:   48

  - Molecular orbital details:

     Number of occupied orbitals:        10
     Number of virtual orbitals:         38
     Number of molecular orbitals:       48


  :: Hartree-Fock engine
  =========================

  Drives the calculation of the Hartree-Fock state.

  This is a MLHF ground state calculation.
  The following tasks will be performed:

     1) Generate initial SAD density
     2) Calculation of reference state (MO-SCF-DIIS algorithm)


  1) Generate initial SAD density


  2) Calculation of reference state (MO-SCF-DIIS algorithm)

  - Setting initial AO density to sad

     Energy of initial guess:              -151.796506244373
     Number of electrons in guess:           20.000000000000

  - Active orbital space:

      Number of active occupied orbitals:        5
      Number of active virtual orbitals:        23
      Number of active orbitals:                28

  - Screening and integral thresholds:

     Coulomb screening threshold:    0.1000E-16
     Exchange screening threshold:   0.1000E-14
     ERI cutoff:                     0.1000E-16
     One-electron integral  cutoff:  0.1000E-21
     Cumulative Fock threshold:      0.1000E+01

  - SCF solver settings:

     Maximum iterations:                   100
     Acceleration type:                   diis

  - Convergence thresholds

     Residual threshold:            0.1000E-10
     Energy threshold:              0.1000E-10

  - DIIS tool settings:

     DIIS dimension:   8

     Storage (solver scf_errors): memory
     Storage (solver scf_parameters): memory

  Iteration       Energy (a.u.)      Max(grad.)    Delta E (a.u.)
  ---------------------------------------------------------------
     1          -151.986254697203     0.3356E+00     0.1520E+03
     2          -152.011877032057     0.1366E+00     0.2562E-01
     3          -152.018448490303     0.2167E-01     0.6571E-02
     4          -152.018690017977     0.5645E-02     0.2415E-03
     5          -152.018703912212     0.1006E-02     0.1389E-04
     6          -152.018704702590     0.1890E-03     0.7904E-06
     7          -152.018704720002     0.2445E-04     0.1741E-07
     8          -152.018704720373     0.5552E-05     0.3711E-09
     9          -152.018704720397     0.1150E-05     0.2407E-10
    10          -152.018704720397     0.2301E-06     0.7105E-12
    11          -152.018704720397     0.7198E-07     0.2842E-13
    12          -152.018704720397     0.1570E-07     0.2842E-13
    13          -152.018704720397     0.2151E-08     0.2842E-13
    14          -152.018704720397     0.5725E-09     0.0000E+00
    15          -152.018704720398     0.4648E-10     0.1705E-12
    16          -152.018704720398     0.8081E-11     0.2842E-13
  ---------------------------------------------------------------
  Convergence criterion met in 16 iterations!

  - Summary of MLHF wavefunction energetics (a.u.):

     HOMO-LUMO gap:                  0.695204742952
     Nuclear repulsion energy:      37.386395233393
     Electronic energy:           -189.405099953791
     Total energy:                -152.018704720398

  - Summary of MLHF active/inactive contributions to electronic energy (a.u.):

     Active energy:               -104.805789875469
     Active-inactive energy:        19.262564524015
     Inactive energy:             -103.861874602337

  - Timings for the MLHF ground state calculation

     Total wall time (sec):              1.10900
     Total cpu time (sec):               1.45182

  - Preparation for frozen core approximation

     There are 1 frozen core orbitals.


  :: CCSD wavefunction
  =======================

     Bath orbital(s):         False

   - Number of orbitals:

     Occupied orbitals:    4
     Virtual orbitals:     23
     Molecular orbitals:   27
     Atomic orbitals:      48

   - Number of ground state amplitudes:

     Single excitation amplitudes:  92
     Double excitation amplitudes:  4278


  Cholesky-decomposing electron repulsion integrals
  =================================================

  Cholesky decomposition of electronic repulsion integrals solver
  ---------------------------------------------------------------

  Performs a Cholesky decomposition of the two-electron electronic repulsion 
  integrals in the atomic orbital basis,

  (ab|cd) = sum_J L_ab^J L_cd^J.

  Once the Cholesky basis has been determined, the vectors L^J are constructed 
  and stored to disk. These may either be used directly, or be transformed 
  to the MO basis for use in post-HF calculations. For more information, 
  see S. D. Folkestad, E. F. Kjønstad and H. Koch, JCP, 150(19), (2019)

  - Cholesky decomposition settings:

     Target threshold is:   0.10E-11
     Span factor:           0.10E-01
     Max qual:                  1000

  - Cholesky decomposition ao details:

     Total number of AOs:                    48
     Total number of shell pairs:           300
     Total number of AO pairs:             1176

     Significant shell pairs:               279
     Significant AO pairs:                 1073

     Construct shell pairs:                 300
     Construct AO pairs:                   1176

  Iter.  #Sign. ao pairs / shell pairs   Max diagonal    #Qualified    #Cholesky    Cholesky array size
  -------------------------------------------------------------------------------------------------------
     1              1018 /     256       0.47383E+01         301             60             61080
     2               812 /     224       0.47071E-01         504            197            159964
     3               641 /     191       0.46926E-03         401            330            211530
     4               515 /     153       0.44731E-05         336            495            254925
     5               274 /      80       0.44603E-07         273            635            173990
     6               111 /      19       0.44172E-09         195            740             82140
     7                 0 /       0       0.43317E-11          40            762                 0
  -------------------------------------------------------------------------------------------------------

  - Summary of Cholesky decomposition of electronic repulsion integrals:

     Final number of Cholesky vectors: 762

 - Testing the Cholesky decomposition decomposition electronic repulsion integrals:

     Maximal difference between approximate and actual diagonal:              0.9407E-12
     Minimal element of difference between approximate and actual diagonal:  -0.1569E-14

  - Settings for integral handling:

     Cholesky vectors in memory: True
     ERI matrix in memory:       True

  - Finished decomposing the ERIs.

     Total wall time (sec):              1.31900
     Total cpu time (sec):               1.14475


  Determining CC cluster amplitudes
  =================================

   - DIIS coupled cluster ground state solver
  ----------------------------------------------

  A DIIS CC ground state amplitude equations solver. It uses an extrapolation 
  of previous quasi-Newton perturbation theory estimates of the next amplitudes. 
  See Helgaker et al., Molecular Electronic Structure Theory, Chapter 
  13.

  - CC ground state solver settings:

  - Convergence thresholds

     Residual threshold:            0.1000E-10
     Energy threshold:              0.1000E-10
     Max number of iterations:      100

  - DIIS tool settings:

     DIIS dimension:   8

     Storage (cc_gs_diis_errors): file
     Storage (cc_gs_diis_parameters): file

  Iteration    Energy (a.u.)        |omega|       Delta E (a.u.)
  ---------------------------------------------------------------
    1          -152.222360840135     0.7515E-01     0.1522E+03
    2          -152.226872604274     0.2176E-01     0.4512E-02
    3          -152.230824346668     0.5726E-02     0.3952E-02
    4          -152.231429800467     0.1216E-02     0.6055E-03
    5          -152.231430243213     0.2550E-03     0.4427E-06
    6          -152.231442258377     0.7073E-04     0.1202E-04
    7          -152.231442402201     0.1827E-04     0.1438E-06
    8          -152.231441969139     0.5368E-05     0.4331E-06
    9          -152.231441886853     0.1668E-05     0.8229E-07
   10          -152.231441801596     0.5943E-06     0.8526E-07
   11          -152.231441829117     0.2010E-06     0.2752E-07
   12          -152.231441830580     0.7015E-07     0.1463E-08
   13          -152.231441834046     0.1956E-07     0.3465E-08
   14          -152.231441833561     0.4143E-08     0.4847E-09
   15          -152.231441833470     0.8359E-09     0.9135E-10
   16          -152.231441833469     0.2756E-09     0.5684E-13
   17          -152.231441833477     0.4608E-10     0.7532E-11
   18          -152.231441833476     0.1211E-10     0.1450E-11
   19          -152.231441833475     0.3064E-11     0.5969E-12
  ---------------------------------------------------------------
  Convergence criterion met in 19 iterations!

  - Ground state summary:

     Final ground state energy (a.u.):  -152.231441833475

     Correlation energy (a.u.):           -0.212737113077

     Largest single amplitudes:
     -----------------------------------
        a       i         t(a,i)
     -----------------------------------
       17      2        0.007394825095
        1      3       -0.006288371520
        2      2       -0.006247227007
        3      3       -0.005640351995
       18      3       -0.004968917655
        8      2        0.004506425254
        1      1        0.004033650770
        3      1       -0.003864981448
       14      3       -0.003292882327
        3      4        0.002841367001
     ------------------------------------

     Largest double amplitudes:
     --------------------------------------------------
        a      i       b      j         t(ai,bj)
     --------------------------------------------------
        7      4       7      4       -0.036371204106
        5      2       5      2       -0.034920112039
        2      2       2      2       -0.030570500065
        6      2       6      2       -0.027214315844
        5      3       5      3       -0.024523958505
        2      2       5      2       -0.021413096747
        8      2       8      2       -0.021120588831
        6      2       5      3        0.020544466061
        2      2       8      2       -0.019627874749
        7      4       9      4       -0.019223447130
     --------------------------------------------------

  - Finished solving the CCSD ground state equations

     Total wall time (sec):              0.67500
     Total cpu time (sec):               0.43391

  ------------------------------------------------------------

  Peak memory usage during the execution of eT: 22.811724 MB

  Total wall time in eT (sec):              3.20300
  Total cpu time in eT (sec):               3.13962

  Calculation ended: 2022-04-07 12:35:34 UTC -07:00

  - Implementation references:

     eT: https://doi.org/10.1063/5.0004713
     Cholesky decomposition of ERIs: https://doi.org/10.1063/1.5083802

  eT terminated successfully!
