


                     eT 1.7 - an electronic structure program

  ------------------------------------------------------------------------
   Author list in alphabetical order:
  ------------------------------------------------------------------------
   J. H. Andersen, A. Balbi, S. Coriani, S. D. Folkestad, T. Giovannini, 
   L. Goletto, T. S. Haugland, A. Hutcheson, I-M. Høyvik, E. F. Kjønstad, 
   H. Koch, R. Matveeva, T. Moitra, R. H. Myhre, A. C. Paul, S. Roet, 
   E. RoncaM. Scavino, A. K. Schnack-Petersen, A. S. Skeidsvoll, Å. 
   H. Tveten
  ------------------------------------------------------------------------
   J. Chem. Phys. 152, 184103 (2020); https://doi.org/10.1063/5.0004713


   This is eT 1.7.0 Hydra
  ------------------------------------------------------------
  Configuration date: 2022-04-07 12:33:31 UTC -07:00
  Git branch:         release-v1.7.0
  Git hash:           c5c382d7d23365463896a87c37298e4a37e4c962
  Fortran compiler:   GNU 11.2.0
  C compiler:         GNU 11.2.0
  C++ compiler:       GNU 11.2.0
  LAPACK type:        SYSTEM_NATIVE
  BLAS type:          SYSTEM_NATIVE
  64-bit integers:    OFF
  OpenMP:             ON
  PCM:                OFF
  Forced batching:    OFF
  Runtime checks:     OFF
  ------------------------------------------------------------

  Calculation started: 2022-04-07 12:35:54 UTC -07:00


  :: Input file
  ================

     Note: geometry section is excluded from this print

     system
        name: H2O He
        charge: 0
     end system

     do
        ground state
        excited state
     end do

     memory
        available: 8
     end memory

     solver cholesky
        threshold: 1.0d-12
     end solver cholesky

     solver scf
        restart
        algorithm:          scf-diis
        energy threshold:   1.0d-12
        gradient threshold: 1.0d-12
     end solver scf

     method
        hf
        mlcc2
     end method

     solver cc gs
        restart
        omega threshold:  1.0d-10
        energy threshold: 1.0d-10
     end solver cc gs

     solver cc es
        restart
        algorithm:          davidson
        singlet states:     4
        residual threshold: 1.0d-10
        energy threshold:   1.0d-10
        right eigenvectors
     end solver cc es

     active atoms
        selection type: list
        cc2: {3}
     end active atoms

     mlcc
        cc2 orbitals: cholesky
        cholesky threshold: 1.0d-1
     end mlcc


  Running on 2 OMP threads
  Memory available for calculation: 8.000000 GB


  :: RHF wavefunction
  ======================

     ==============================================================================
                                     Geometry (angstrom)
     ==============================================================================
        Atom           X                  Y                  Z         # in input
     ==============================================================================
        Basis: cc-pvdz
        1  O     0.000000000000    -0.075790000000     5.000000000000        3
        2  H     0.866810000000     0.601440000000     5.000000000000        1
        3  H    -0.866810000000     0.601440000000     5.000000000000        2
        4 He     0.100000000000    -0.020000000000     7.530000000000        4
     ==============================================================================

     ==============================================================================
                                     Geometry (a.u.)
     ==============================================================================
        Atom           X                  Y                  Z         # in input
     ==============================================================================
        Basis: cc-pvdz
        1  O     0.000000000000    -0.143222342981     9.448630622825        3
        2  H     1.638033502034     1.136556880358     9.448630622825        1
        3  H    -1.638033502034     1.136556880358     9.448630622825        2
        4 He     0.188972612457    -0.037794522491    14.229637717975        4
     ==============================================================================

  - Cholesky decomposition of AO overlap to get linearly independent AOs:

     Linear dependence threshold:             0.10E-05
     Number of atomic orbitals:               29
     Number of orthonormal atomic orbitals:   29

  - Molecular orbital details:

     Number of occupied orbitals:         6
     Number of virtual orbitals:         23
     Number of molecular orbitals:       29


  :: Hartree-Fock engine
  =========================

  Drives the calculation of the Hartree-Fock state.

  This is a RHF ground state calculation.
  The following tasks will be performed:

     1) Calculation of reference state (SCF-DIIS algorithm)


  1) Calculation of reference state (SCF-DIIS algorithm)

  - Requested restart. Reading orbitals from file

  - Screening and integral thresholds:

     Coulomb screening threshold:    0.1000E-17
     Exchange screening threshold:   0.1000E-15
     ERI cutoff:                     0.1000E-17
     One-electron integral  cutoff:  0.1000E-22
     Cumulative Fock threshold:      0.1000E+01

  - SCF solver settings:

     Maximum iterations:                   100
     Acceleration type:                   diis

  - Convergence thresholds

     Residual threshold:            0.1000E-11
     Energy threshold:              0.1000E-11

  - DIIS tool settings:

     DIIS dimension:   8

     Storage (solver scf_errors): memory
     Storage (solver scf_parameters): memory

  Iteration       Energy (a.u.)      Max(grad.)    Delta E (a.u.)
  ---------------------------------------------------------------
     1           -78.843851693631     0.2368E-12     0.7884E+02
  ---------------------------------------------------------------
  Convergence criterion met in 1 iterations!

  - Summary of RHF wavefunction energetics (a.u.):

     HOMO-LUMO gap:                  0.645629080251
     Nuclear repulsion energy:      12.116100574587
     Electronic energy:            -90.959952268218
     Total energy:                 -78.843851693631

  - Timings for the RHF ground state calculation

     Total wall time (sec):              0.00800
     Total cpu time (sec):               0.01302


  :: MLCC2 wavefunction
  ========================

     Bath orbital(s):         False

   - Number of orbitals:

     Occupied orbitals:    6
     Virtual orbitals:     23
     Molecular orbitals:   29
     Atomic orbitals:      29


  Cholesky-decomposing electron repulsion integrals
  =================================================

  Cholesky decomposition of electronic repulsion integrals solver
  ---------------------------------------------------------------

  Performs a Cholesky decomposition of the two-electron electronic repulsion 
  integrals in the atomic orbital basis,

  (ab|cd) = sum_J L_ab^J L_cd^J.

  Once the Cholesky basis has been determined, the vectors L^J are constructed 
  and stored to disk. These may either be used directly, or be transformed 
  to the MO basis for use in post-HF calculations. For more information, 
  see S. D. Folkestad, E. F. Kjønstad and H. Koch, JCP, 150(19), (2019)

  - Cholesky decomposition settings:

     Target threshold is:   0.10E-11
     Span factor:           0.10E-01
     Max qual:                  1000

  - Cholesky decomposition ao details:

     Total number of AOs:                    29
     Total number of shell pairs:           120
     Total number of AO pairs:              435

     Significant shell pairs:               118
     Significant AO pairs:                  431

     Construct shell pairs:                 120
     Construct AO pairs:                    435

  Iter.  #Sign. ao pairs / shell pairs   Max diagonal    #Qualified    #Cholesky    Cholesky array size
  -------------------------------------------------------------------------------------------------------
     1               406 /     108       0.47383E+01         147             42             17052
     2               319 /      93       0.47165E-01         234            111             35409
     3               250 /      76       0.46944E-03         178            183             45750
     4               187 /      55       0.38270E-05         145            265             49555
     5                87 /      25       0.38106E-07          78            324             28188
     6                21 /       3       0.37202E-09          43            349              7329
     7                 0 /       0       0.36652E-11           7            354                 0
  -------------------------------------------------------------------------------------------------------

  - Summary of Cholesky decomposition of electronic repulsion integrals:

     Final number of Cholesky vectors: 354

 - Testing the Cholesky decomposition decomposition electronic repulsion integrals:

     Maximal difference between approximate and actual diagonal:              0.7161E-12
     Minimal element of difference between approximate and actual diagonal:  -0.1241E-14

  - Settings for integral handling:

     Cholesky vectors in memory: True
     ERI matrix in memory:       False

  - Finished decomposing the ERIs.

     Total wall time (sec):              0.17300
     Total cpu time (sec):               0.20046

     The smallest diagonal after decomposition is:  -0.9290E-16

     The smallest diagonal after decomposition is:  -0.1399E-13

  - MLCC2 orbital partitioning:

     Orbital type: cholesky

     Number occupied cc2 orbitals:    5
     Number virtual cc2 orbitals:    13

     Number occupied ccs orbitals:    1
     Number virtual ccs orbitals:    10


  Determining CC cluster amplitudes
  =================================

   - DIIS coupled cluster ground state solver
  ----------------------------------------------

  A DIIS CC ground state amplitude equations solver. It uses an extrapolation 
  of previous quasi-Newton perturbation theory estimates of the next amplitudes. 
  See Helgaker et al., Molecular Electronic Structure Theory, Chapter 
  13.

  - CC ground state solver settings:

  - Convergence thresholds

     Residual threshold:            0.1000E-09
     Energy threshold:              0.1000E-09
     Max number of iterations:      100

  Requested restart. Reading in solution from file.

  - DIIS tool settings:

     DIIS dimension:   8

     Storage (cc_gs_diis_errors): file
     Storage (cc_gs_diis_parameters): file

  Iteration    Energy (a.u.)        |omega|       Delta E (a.u.)
  ---------------------------------------------------------------
    1           -78.992658321885     0.8191E-12     0.7899E+02
  ---------------------------------------------------------------
  Convergence criterion met in 1 iterations!

  - Ground state summary:

     Final ground state energy (a.u.):   -78.992658321885

     Correlation energy (a.u.):           -0.148806628254

     Largest single amplitudes:
     -----------------------------------
        a       i         t(a,i)
     -----------------------------------
       15      4       -0.016328878160
        5      3        0.014564153928
        6      4        0.012826074950
       17      3        0.012491270947
        3      3        0.009204805602
       14      3       -0.007937198480
        2      5        0.006832883845
       20      3       -0.003941989393
        1      2        0.003004112650
       15      2       -0.002970409243
     ------------------------------------

  - Finished solving the MLCC2 ground state equations

     Total wall time (sec):              0.00900
     Total cpu time (sec):               0.00645


  Determining CC excited state amplitudes
  =======================================

  Davidson eigenvalue equation solver
  -----------------------------------

  A Davidson solver that solves an eigenvalue equation: M x = omega x. 
  This equation is solved in a reduced space. A description of the algorithm 
  can be found in E. R. Davidson, J. Comput. Phys. 17, 87 (1975).

   - Davidson tool settings:

     Number of parameters:                 2283
     Number of requested solutions:           4
     Max reduced space dimension:           100

     Storage (cc_es_davidson_trials): memory
     Storage (cc_es_davidson_transforms): memory
     Restarting right vector 1 from file r_001.
     Restarting right vector 2 from file r_002.
     Restarting right vector 3 from file r_003.
     Restarting right vector 4 from file r_004.

  - Davidson solver settings

     Number of singlet states:               4
     Max number of iterations:             100

  Iteration:                  1
  Reduced space dimension:    4

  Root  Eigenvalue (Re)   Eigenvalue (Im)    |residual|   Delta E (Re)
  -------------------------------------------------------------------------
     1   0.311438820474    0.000000000000     0.2133E-12   0.3114E+00
     2   0.364807620015    0.000000000000     0.1135E-12   0.3648E+00
     3   0.405815979832    0.000000000000     0.3211E-12   0.4058E+00
     4   0.457308246773    0.000000000000     0.1442E-11   0.4573E+00
  -------------------------------------------------------------------------
  Convergence criterion met in 1 iterations!

  - Excitation vector amplitudes:

     Electronic state nr. 1

     Energy (Hartree):                  0.311438820474
     Fraction singles (|R1|/|R|):       0.998500898646

     MLCC diagnostics:

     |R1^internal|/|R| =       0.556319394931
     |R1^internal|/|R1| =      0.557154626186

     Largest single amplitudes:
     -----------------------------------
        a       i         R(a,i)
     -----------------------------------
       15      5        0.812868167351
        6      5       -0.516170330335
        4      5       -0.180237956223
       16      5        0.162234469704
       12      5        0.065368798023
        1      5       -0.054735307894
        7      5       -0.043283525687
        8      5       -0.024658717929
        2      5       -0.019694008118
       11      5        0.014132968046
     ------------------------------------

     Electronic state nr. 2

     Energy (Hartree):                  0.364807620015
     Fraction singles (|R1|/|R|):       0.997950547483

     MLCC diagnostics:

     |R1^internal|/|R| =       0.660097599964
     |R1^internal|/|R1| =      0.661453216925

     Largest single amplitudes:
     -----------------------------------
        a       i         R(a,i)
     -----------------------------------
       17      5        0.547208412300
        3      5        0.523393275766
       14      5       -0.503802434509
        5      5        0.400124089716
       20      5       -0.081570718826
       13      5        0.039917247008
       14      6        0.008440416703
        3      6       -0.006838474397
       17      6       -0.006543512101
        2      5        0.006371125442
     ------------------------------------

     Electronic state nr. 3

     Energy (Hartree):                  0.405815979832
     Fraction singles (|R1|/|R|):       0.998318120755

     MLCC diagnostics:

     |R1^internal|/|R| =       0.561879932187
     |R1^internal|/|R1| =      0.562826538461

     Largest single amplitudes:
     -----------------------------------
        a       i         R(a,i)
     -----------------------------------
       15      4       -0.798832610849
        6      4        0.499364807378
        4      4        0.197740154271
       16      4       -0.148449375703
       17      3       -0.117055922694
        3      3       -0.099743539335
        5      3       -0.091722996917
       14      3        0.077135260119
       12      4       -0.052835634105
        2      5        0.045798272361
     ------------------------------------

     Electronic state nr. 4

     Energy (Hartree):                  0.457308246773
     Fraction singles (|R1|/|R|):       0.998200691097

     MLCC diagnostics:

     |R1^internal|/|R| =       0.627728553611
     |R1^internal|/|R1| =      0.628860067128

     Largest single amplitudes:
     -----------------------------------
        a       i         R(a,i)
     -----------------------------------
       14      4       -0.524937949090
       17      4        0.496334167672
        3      4        0.476062084509
        5      4        0.355598561799
       15      3        0.259240725970
        6      3       -0.180075291594
       16      3        0.083997747618
       20      4       -0.075844096163
        4      3       -0.065668145124
       13      4        0.047168737712
     ------------------------------------

  - MLCC2 excitation energies:

                                      Excitation energy
                          ------------------------------------------
      State                (Hartree)             (eV)
     ---------------------------------------------------------------
        1                  0.311438820474        8.474681965526
        2                  0.364807620015        9.926920971278
        3                  0.405815979832       11.042815280304
        4                  0.457308246773       12.443991233063
     ---------------------------------------------------------------
     eV/Hartree (CODATA 2014): 27.21138602

  ------------------------------------------------------------

  Peak memory usage during the execution of eT: 10.669848 MB

  Total wall time in eT (sec):              0.25300
  Total cpu time in eT (sec):               0.26956

  Calculation ended: 2022-04-07 12:35:55 UTC -07:00

  - Implementation references:

     eT: https://doi.org/10.1063/5.0004713
     MLCC2 and MLCCSD: https://doi.org/10.1021/acs.jctc.9b00701
     Cholesky decomposition of ERIs: https://doi.org/10.1063/1.5083802

  eT terminated successfully!
