


                     eT 1.7 - an electronic structure program

  ------------------------------------------------------------------------
   Author list in alphabetical order:
  ------------------------------------------------------------------------
   J. H. Andersen, A. Balbi, S. Coriani, S. D. Folkestad, T. Giovannini, 
   L. Goletto, T. S. Haugland, A. Hutcheson, I-M. Høyvik, E. F. Kjønstad, 
   H. Koch, R. Matveeva, T. Moitra, R. H. Myhre, A. C. Paul, S. Roet, 
   E. RoncaM. Scavino, A. K. Schnack-Petersen, A. S. Skeidsvoll, Å. 
   H. Tveten
  ------------------------------------------------------------------------
   J. Chem. Phys. 152, 184103 (2020); https://doi.org/10.1063/5.0004713


   This is eT 1.7.0 Hydra
  ------------------------------------------------------------
  Configuration date: 2022-04-07 12:33:31 UTC -07:00
  Git branch:         release-v1.7.0
  Git hash:           c5c382d7d23365463896a87c37298e4a37e4c962
  Fortran compiler:   GNU 11.2.0
  C compiler:         GNU 11.2.0
  C++ compiler:       GNU 11.2.0
  LAPACK type:        SYSTEM_NATIVE
  BLAS type:          SYSTEM_NATIVE
  64-bit integers:    OFF
  OpenMP:             ON
  PCM:                OFF
  Forced batching:    OFF
  Runtime checks:     OFF
  ------------------------------------------------------------

  Calculation started: 2022-04-07 12:36:00 UTC -07:00


  :: Input file
  ================

     Note: geometry section is excluded from this print

     system
        name: H2O
        charge: 0
     end system

     method
       hf
       ccsd
     end method

     print
        output print level: verbose
     end print

     memory
        available: 8
     end memory

     solver cholesky
        threshold: 1.0d-11
     end solver cholesky

     solver scf
        algorithm:          scf-diis
        energy threshold:   1.0d-11
        gradient threshold: 1.0d-11
     end solver scf

     solver cc gs
        multimodel newton: on
        algorithm: newton-raphson
        energy threshold: 1.0d-11
        omega threshold:  1.0d-11
     end solver cc gs

     do
        ground state
     end do


  Running on 2 OMP threads
  Memory available for calculation: 8.000000 GB


  :: RHF wavefunction
  ======================

  Libint electron repulsion integral precision:  0.1000E-23

     ==============================================================================
                                     Geometry (angstrom)
     ==============================================================================
        Atom           X                  Y                  Z         # in input
     ==============================================================================
        Basis: sto-3g
        1  H     0.866810000000     0.601440000000     5.000000000000        1
        2  H    -0.866810000000     0.601440000000     5.000000000000        2
        3  O     0.000000000000    -0.075790000000     5.000000000000        3
     ==============================================================================

     ==============================================================================
                                     Geometry (a.u.)
     ==============================================================================
        Atom           X                  Y                  Z         # in input
     ==============================================================================
        Basis: sto-3g
        1  H     1.638033502034     1.136556880358     9.448630622825        1
        2  H    -1.638033502034     1.136556880358     9.448630622825        2
        3  O     0.000000000000    -0.143222342981     9.448630622825        3
     ==============================================================================

  - Cholesky decomposition of AO overlap to get linearly independent AOs:

     Linear dependence threshold:             0.10E-05
     Number of atomic orbitals:               7
     Number of orthonormal atomic orbitals:   7

  - Molecular orbital details:

     Number of occupied orbitals:         5
     Number of virtual orbitals:          2
     Number of molecular orbitals:        7


  :: Hartree-Fock engine
  =========================

  Drives the calculation of the Hartree-Fock state.

  This is a RHF ground state calculation.
  The following tasks will be performed:

     1) Generate initial SAD density
     2) Calculation of reference state (SCF-DIIS algorithm)


  1) Generate initial SAD density
     Generated atomic density for H  using UHF/sto-3g
     Generated atomic density for O  using UHF/sto-3g


  2) Calculation of reference state (SCF-DIIS algorithm)

  - Setting initial AO density to sad

     Energy of initial guess:               -74.363236511985
     Number of electrons in guess:           10.000000000000

  - Screening and integral thresholds:

     Coulomb screening threshold:    0.1000E-16
     Exchange screening threshold:   0.1000E-14
     ERI cutoff:                     0.1000E-16
     One-electron integral  cutoff:  0.1000E-21
     Cumulative Fock threshold:      0.1000E+01

  - SCF solver settings:

     Maximum iterations:                   100
     Acceleration type:                   diis

  - Convergence thresholds

     Residual threshold:            0.1000E-10
     Energy threshold:              0.1000E-10

  - DIIS tool settings:

     DIIS dimension:   8

     Storage (solver scf_errors): memory
     Storage (solver scf_parameters): memory

  Iteration       Energy (a.u.)      Max(grad.)    Delta E (a.u.)
  ---------------------------------------------------------------
     1           -74.889701962821     0.1071E+00     0.7489E+02
  Fock matrix construction using density differences
     2           -74.940474931397     0.1469E-01     0.5077E-01
  Fock matrix construction using density differences
     3           -74.942054999957     0.2353E-02     0.1580E-02
  Fock matrix construction using density differences
     4           -74.942080036553     0.5610E-04     0.2504E-04
  Fock matrix construction using density differences
     5           -74.942080053363     0.1780E-04     0.1681E-07
  Fock matrix construction using density differences
     6           -74.942080057695     0.2053E-06     0.4333E-08
  Fock matrix construction using density differences
     7           -74.942080057696     0.9667E-09     0.3411E-12
  Fock matrix construction using density differences
     8           -74.942080057696     0.7853E-12     0.5684E-13
  ---------------------------------------------------------------
  Convergence criterion met in 8 iterations!

  - Summary of RHF wavefunction energetics (a.u.):

     HOMO-LUMO gap:                  0.865206190622
     Nuclear repulsion energy:       8.002366974166
     Electronic energy:            -82.944447031862
     Total energy:                 -74.942080057696

  - Timings for the RHF ground state calculation

     Total wall time (sec):              0.02500
     Total cpu time (sec):               0.02189

  No frozen fock contributions!

  Libint electron repulsion integral precision:  0.1000E-23


  :: CCSD wavefunction
  =======================

     Bath orbital(s):         False

   - Number of orbitals:

     Occupied orbitals:    5
     Virtual orbitals:     2
     Molecular orbitals:   7
     Atomic orbitals:      7

   - Number of ground state amplitudes:

     Single excitation amplitudes:  10
     Double excitation amplitudes:  55


  Cholesky-decomposing electron repulsion integrals
  =================================================

  Cholesky decomposition of electronic repulsion integrals solver
  ---------------------------------------------------------------

  Performs a Cholesky decomposition of the two-electron electronic repulsion 
  integrals in the atomic orbital basis,

  (ab|cd) = sum_J L_ab^J L_cd^J.

  Once the Cholesky basis has been determined, the vectors L^J are constructed 
  and stored to disk. These may either be used directly, or be transformed 
  to the MO basis for use in post-HF calculations. For more information, 
  see S. D. Folkestad, E. F. Kjønstad and H. Koch, JCP, 150(19), (2019)

  - Cholesky decomposition settings:

     Target threshold is:   0.10E-10
     Span factor:           0.10E-01
     Max qual:                  1000

  - Cholesky decomposition ao details:

     Total number of AOs:                     7
     Total number of shell pairs:            15
     Total number of AO pairs:               28

  - Preparing diagonal for decomposition:

     Significant shell pairs:                15
     Significant AO pairs:                   28

     Construct shell pairs:                  15
     Construct AO pairs:                     28

  Iter.  #Sign. ao pairs / shell pairs   Max diagonal    #Qualified    #Cholesky    Cholesky array size
  -------------------------------------------------------------------------------------------------------
     1                22 /      11       0.47851E+01          17              9               198
     2                 6 /       6       0.47444E-01          16             22               132
     3                 2 /       2       0.40655E-03           4             26                52
     4                 0 /       0       0.80613E-06           2             28                 0
  -------------------------------------------------------------------------------------------------------

  - Summary of Cholesky decomposition of electronic repulsion integrals:

     Final number of Cholesky vectors: 28

 - Testing the Cholesky decomposition decomposition electronic repulsion integrals:

     Maximal difference between approximate and actual diagonal:              0.2342E-15
     Minimal element of difference between approximate and actual diagonal:  -0.1233E-15

  - Settings for integral handling:

     Cholesky vectors in memory: True
     ERI matrix in memory:       True

  - Finished decomposing the ERIs.

     Total wall time (sec):              0.01500
     Total cpu time (sec):               0.01086
  No MO preparations for ccsd


  Determining CC cluster amplitudes
  =================================

   - Davidson tool settings:

     Number of parameters:                   65
     Number of requested solutions:           1
     Max reduced space dimension:            50

     Storage (newton_raphson_amplitude_updator_trials): file
     Storage (newton_raphson_amplitude_updator_transforms): file

   - DIIS coupled cluster ground state solver
  ----------------------------------------------

  A DIIS CC ground state amplitude equations solver. It uses an extrapolation 
  of previous quasi-Newton perturbation theory estimates of the next amplitudes. 
  See Helgaker et al., Molecular Electronic Structure Theory, Chapter 
  13.

  - CC ground state solver settings:

  - Convergence thresholds

     Residual threshold:            0.1000E-10
     Energy threshold:              0.1000E-10
     Max number of iterations:      100

  - DIIS tool settings:

     DIIS dimension:   8

     Storage (cc_gs_diis_errors): file
     Storage (cc_gs_diis_parameters): file

  Iteration    Energy (a.u.)        |omega|       Delta E (a.u.)
  ---------------------------------------------------------------
    1           -74.991229760957     0.6492E-01     0.7499E+02

     Iteration     Residual norm
     -----------------------------
       1           0.5886E-02
       2           0.1525E-02
       3           0.2760E-03
     -----------------------------

    2           -75.005179365751     0.2565E-01     0.1395E-01

     Iteration     Residual norm
     -----------------------------
       1           0.9145E-03
       2           0.3832E-03
       3           0.6666E-04
     -----------------------------

    3           -75.012325260526     0.3128E-02     0.7146E-02

     Iteration     Residual norm
     -----------------------------
       1           0.1680E-03
       2           0.5166E-04
       3           0.4755E-05
     -----------------------------

    4           -75.012715705033     0.7256E-03     0.3904E-03

     Iteration     Residual norm
     -----------------------------
       1           0.2510E-04
       2           0.1143E-04
       3           0.4507E-06
     -----------------------------

    5           -75.012755943512     0.2771E-03     0.4024E-04

     Iteration     Residual norm
     -----------------------------
       1           0.5134E-05
       2           0.1529E-05
     -----------------------------

    6           -75.012761656871     0.3596E-04     0.5713E-05

     Iteration     Residual norm
     -----------------------------
       1           0.2466E-05
       2           0.9522E-06
       3           0.1131E-06
     -----------------------------

    7           -75.012759982045     0.5919E-05     0.1675E-05

     Iteration     Residual norm
     -----------------------------
       1           0.5629E-06
       2           0.1503E-06
       3           0.9045E-08
     -----------------------------

    8           -75.012760173122     0.9435E-06     0.1911E-06

     Iteration     Residual norm
     -----------------------------
       1           0.6579E-07
       2           0.1657E-07
       3           0.4666E-08
     -----------------------------

    9           -75.012760220205     0.1829E-06     0.4708E-07

     Iteration     Residual norm
     -----------------------------
       1           0.1649E-07
       2           0.3098E-08
       3           0.7607E-09
     -----------------------------

   10           -75.012760215055     0.4517E-07     0.5149E-08

     Iteration     Residual norm
     -----------------------------
       1           0.3024E-08
       2           0.7362E-09
       3           0.1997E-09
     -----------------------------

   11           -75.012760213134     0.9533E-08     0.1921E-08

     Iteration     Residual norm
     -----------------------------
       1           0.4243E-09
       2           0.1773E-09
       3           0.2412E-10
     -----------------------------

   12           -75.012760213738     0.1690E-08     0.6044E-09

     Iteration     Residual norm
     -----------------------------
       1           0.9882E-10
       2           0.3745E-10
       3           0.1821E-11
     -----------------------------

   13           -75.012760213796     0.3903E-09     0.5716E-10

     Iteration     Residual norm
     -----------------------------
       1           0.1208E-10
       2           0.2824E-11
     -----------------------------

   14           -75.012760213767     0.5637E-10     0.2859E-10

     Iteration     Residual norm
     -----------------------------
       1           0.2883E-11
       2           0.5334E-12
     -----------------------------

   15           -75.012760213765     0.8087E-11     0.2302E-11
  ---------------------------------------------------------------
  Convergence criterion met in 15 iterations!

  - Ground state summary:

     Final ground state energy (a.u.):   -75.012760213765

     Correlation energy (a.u.):           -0.070680156069

     Largest single amplitudes:
     -----------------------------------
        a       i         t(a,i)
     -----------------------------------
        1      4        0.021777989542
        1      2       -0.003289879849
        2      3        0.002501121772
        1      1        0.000048909218
        2      4       -0.000000000000
        1      3       -0.000000000000
        1      5       -0.000000000000
        2      2        0.000000000000
        2      5        0.000000000000
        2      1       -0.000000000000
     ------------------------------------

     Largest double amplitudes:
     --------------------------------------------------
        a      i       b      j         t(ai,bj)
     --------------------------------------------------
        2      3       2      3       -0.100157255349
        1      4       1      4       -0.079818358215
        2      3       1      4       -0.072254936156
        1      3       1      3       -0.058453048481
        2      4       2      4       -0.055380013844
        1      3       2      4       -0.055364812421
        1      2       1      4       -0.038674644785
        1      2       1      2       -0.031827790718
        1      2       2      3       -0.031626325294
        1      5       1      5       -0.026473018800
     --------------------------------------------------

  - Finished solving the CCSD ground state equations

     Total wall time (sec):              0.32700
     Total cpu time (sec):               0.16736

  - Cleaning up ccsd wavefunction

  ------------------------------------------------------------

  Peak memory usage during the execution of eT: 68.104 KB

  Total wall time in eT (sec):              0.37700
  Total cpu time in eT (sec):               0.20912

  Calculation ended: 2022-04-07 12:36:00 UTC -07:00

  - Implementation references:

     eT: https://doi.org/10.1063/5.0004713
     Cholesky decomposition of ERIs: https://doi.org/10.1063/1.5083802
     Multimodel Newton algorithm: https://doi.org/10.1063/5.0010989

  eT terminated successfully!
