


                     eT 1.7 - an electronic structure program

  ------------------------------------------------------------------------
   Author list in alphabetical order:
  ------------------------------------------------------------------------
   J. H. Andersen, A. Balbi, S. Coriani, S. D. Folkestad, T. Giovannini, 
   L. Goletto, T. S. Haugland, A. Hutcheson, I-M. Høyvik, E. F. Kjønstad, 
   H. Koch, R. Matveeva, T. Moitra, R. H. Myhre, A. C. Paul, S. Roet, 
   E. RoncaM. Scavino, A. K. Schnack-Petersen, A. S. Skeidsvoll, Å. 
   H. Tveten
  ------------------------------------------------------------------------
   J. Chem. Phys. 152, 184103 (2020); https://doi.org/10.1063/5.0004713


   This is eT 1.7.0 Hydra
  ------------------------------------------------------------
  Configuration date: 2022-04-07 12:33:31 UTC -07:00
  Git branch:         release-v1.7.0
  Git hash:           c5c382d7d23365463896a87c37298e4a37e4c962
  Fortran compiler:   GNU 11.2.0
  C compiler:         GNU 11.2.0
  C++ compiler:       GNU 11.2.0
  LAPACK type:        SYSTEM_NATIVE
  BLAS type:          SYSTEM_NATIVE
  64-bit integers:    OFF
  OpenMP:             ON
  PCM:                OFF
  Forced batching:    OFF
  Runtime checks:     OFF
  ------------------------------------------------------------

  Calculation started: 2022-04-07 12:34:46 UTC -07:00


  :: Input file
  ================

     Note: geometry section is excluded from this print

     system
        name: H2O He
        charge: 0
     end system

     method
        hf
        cc2
     end method

     memory
        available: 8
     end memory

     solver cholesky
        batches: 5
        threshold: 1.0d-10
     end solver cholesky

     solver scf
        algorithm:          scf-diis
        energy threshold:   1.0d-10
        gradient threshold: 1.0d-10
     end solver scf

     solver cc gs
        omega threshold:  1.0d-10
        energy threshold: 1.0d-10
     end solver cc gs

     do
        ground state
     end do


  Running on 2 OMP threads
  Memory available for calculation: 8.000000 GB


  :: RHF wavefunction
  ======================

     ==============================================================================
                                     Geometry (angstrom)
     ==============================================================================
        Atom           X                  Y                  Z         # in input
     ==============================================================================
        Basis: cc-pvtz
        1  H     0.866810000000     0.601440000000     5.000000000000        1
        2  H    -0.866810000000     0.601440000000     5.000000000000        2
        3  O     0.000000000000    -0.075790000000     5.000000000000        3
        4 He     0.100000000000    -0.020000000000     7.530000000000        4
     ==============================================================================

     ==============================================================================
                                     Geometry (a.u.)
     ==============================================================================
        Atom           X                  Y                  Z         # in input
     ==============================================================================
        Basis: cc-pvtz
        1  H     1.638033502034     1.136556880358     9.448630622825        1
        2  H    -1.638033502034     1.136556880358     9.448630622825        2
        3  O     0.000000000000    -0.143222342981     9.448630622825        3
        4 He     0.188972612457    -0.037794522491    14.229637717975        4
     ==============================================================================

  - Cholesky decomposition of AO overlap to get linearly independent AOs:

     Linear dependence threshold:             0.10E-05
     Number of atomic orbitals:               72
     Number of orthonormal atomic orbitals:   72

  - Molecular orbital details:

     Number of occupied orbitals:         6
     Number of virtual orbitals:         66
     Number of molecular orbitals:       72


  :: Hartree-Fock engine
  =========================

  Drives the calculation of the Hartree-Fock state.

  This is a RHF ground state calculation.
  The following tasks will be performed:

     1) Generate initial SAD density
     2) Calculation of reference state (SCF-DIIS algorithm)


  1) Generate initial SAD density


  2) Calculation of reference state (SCF-DIIS algorithm)

  - Setting initial AO density to sad

     Energy of initial guess:               -78.504367259661
     Number of electrons in guess:           12.000000000000

  - Screening and integral thresholds:

     Coulomb screening threshold:    0.1000E-15
     Exchange screening threshold:   0.1000E-13
     ERI cutoff:                     0.1000E-15
     One-electron integral  cutoff:  0.1000E-20
     Cumulative Fock threshold:      0.1000E+01

  - SCF solver settings:

     Maximum iterations:                   100
     Acceleration type:                   diis

  - Convergence thresholds

     Residual threshold:            0.1000E-09
     Energy threshold:              0.1000E-09

  - DIIS tool settings:

     DIIS dimension:   8

     Storage (solver scf_errors): memory
     Storage (solver scf_parameters): memory

  Iteration       Energy (a.u.)      Max(grad.)    Delta E (a.u.)
  ---------------------------------------------------------------
     1           -78.828779888791     0.7825E-01     0.7883E+02
     2           -78.858408480841     0.6521E-01     0.2963E-01
     3           -78.877112802050     0.4543E-02     0.1870E-01
     4           -78.877399713719     0.1937E-02     0.2869E-03
     5           -78.877443438041     0.3625E-03     0.4372E-04
     6           -78.877445874704     0.8440E-04     0.2437E-05
     7           -78.877445941939     0.7188E-05     0.6724E-07
     8           -78.877445942637     0.9985E-06     0.6984E-09
     9           -78.877445942676     0.3910E-06     0.3871E-10
    10           -78.877445942681     0.6734E-07     0.4860E-11
    11           -78.877445942681     0.1633E-07     0.4121E-12
    12           -78.877445942681     0.5292E-08     0.5684E-13
    13           -78.877445942681     0.1773E-08     0.7105E-13
    14           -78.877445942681     0.3502E-09     0.2132E-12
    15           -78.877445942681     0.8473E-10     0.1279E-12
  ---------------------------------------------------------------
  Convergence criterion met in 15 iterations!

  - Summary of RHF wavefunction energetics (a.u.):

     HOMO-LUMO gap:                  0.621789335113
     Nuclear repulsion energy:      12.116100574587
     Electronic energy:            -90.993546517268
     Total energy:                 -78.877445942681

  - Timings for the RHF ground state calculation

     Total wall time (sec):              1.45600
     Total cpu time (sec):               1.81991


  :: CC2 wavefunction
  ======================

     Bath orbital(s):         False

   - Number of orbitals:

     Occupied orbitals:    6
     Virtual orbitals:     66
     Molecular orbitals:   72
     Atomic orbitals:      72

   - Number of ground state amplitudes:

     Single excitation amplitudes:  396
     Double excitation amplitudes:  78606


  Cholesky-decomposing electron repulsion integrals
  =================================================

  Cholesky decomposition of electronic repulsion integrals solver
  ---------------------------------------------------------------

  Performs a Cholesky decomposition of the two-electron electronic repulsion 
  integrals in the atomic orbital basis,

  (ab|cd) = sum_J L_ab^J L_cd^J.

  Once the Cholesky basis has been determined, the vectors L^J are constructed 
  and stored to disk. These may either be used directly, or be transformed 
  to the MO basis for use in post-HF calculations. For more information, 
  see S. D. Folkestad, E. F. Kjønstad and H. Koch, JCP, 150(19), (2019)

  - Cholesky decomposition settings:

     Target threshold is:   0.10E-09
     Span factor:           0.10E-01
     Max qual:                  1000

  - Cholesky decomposition ao details:

     Total number of AOs:                    72
     Total number of shell pairs:           406
     Total number of AO pairs:             2628

     Significant shell pairs:               368
     Significant AO pairs:                 2304

     Construct shell pairs:                 403
     Construct AO pairs:                   2601

     Significant AO and shell pairs in batch 1:
        Significant shell pairs:            113
        Significant AO pairs:               465

     Significant AO and shell pairs in batch 2:
        Significant shell pairs:             63
        Significant AO pairs:               455

     Significant AO and shell pairs in batch 3:
        Significant shell pairs:             70
        Significant AO pairs:               470

     Significant AO and shell pairs in batch 4:
        Significant shell pairs:             76
        Significant AO pairs:               463

     Significant AO and shell pairs in batch 5:
        Significant shell pairs:             46
        Significant AO pairs:               451

  - Decomposing batched diagonal

  Batch 1:

  Iter.  #Sign. ao pairs / shell pairs   Max diagonal    #Qualified    #Cholesky    Cholesky array size
  -------------------------------------------------------------------------------------------------------
     1               450 /     107       0.13931E+01         186             33             14850
     2               367 /      89       0.12051E-01         274            113             41471
     3               299 /      71       0.11005E-03         245            208             62192
     4               179 /      49       0.10717E-05         194            283             50657
     5                 0 /       0       0.10388E-07         140            360                 0
  -------------------------------------------------------------------------------------------------------

  Batch 2:

  Iter.  #Sign. ao pairs / shell pairs   Max diagonal    #Qualified    #Cholesky    Cholesky array size
  -------------------------------------------------------------------------------------------------------
     1               424 /      56       0.13931E+01         177             34             14416
     2               408 /      50       0.13760E-01         300            122             49776
     3               348 /      38       0.13036E-03         253            223             77604
     4               193 /      25       0.12898E-05         189            315             60795
     5                15 /       1       0.12496E-07         101            384              5760
     6                 0 /       0       0.10703E-09           1            385                 0
  -------------------------------------------------------------------------------------------------------

  Batch 3:

  Iter.  #Sign. ao pairs / shell pairs   Max diagonal    #Qualified    #Cholesky    Cholesky array size
  -------------------------------------------------------------------------------------------------------
     1               446 /      67       0.10931E+01         244             43             19178
     2               374 /      54       0.10786E-01         316            122             45628
     3               347 /      45       0.99105E-04         253            207             71829
     4               256 /      36       0.96781E-06         205            285             72960
     5                 0 /       0       0.93348E-08         142            358                 0
  -------------------------------------------------------------------------------------------------------

  Batch 4:

  Iter.  #Sign. ao pairs / shell pairs   Max diagonal    #Qualified    #Cholesky    Cholesky array size
  -------------------------------------------------------------------------------------------------------
     1               443 /      70       0.48661E+01         127             27             11961
     2               407 /      62       0.46251E-01         286            115             46805
     3               334 /      51       0.44301E-03         179            176             58784
     4               209 /      32       0.43678E-05         150            238             49742
     5                76 /       8       0.42515E-07         110            277             21052
     6                 0 /       0       0.36791E-09          32            294                 0
  -------------------------------------------------------------------------------------------------------

  Batch 5:

  Iter.  #Sign. ao pairs / shell pairs   Max diagonal    #Qualified    #Cholesky    Cholesky array size
  -------------------------------------------------------------------------------------------------------
     1               420 /      41       0.20496E+01         218             86             36120
     2               250 /      30       0.20355E-01         178            160             40000
     3               152 /      18       0.12706E-03         111            225             34200
     4               108 /      10       0.88036E-06          56            261             28188
     5                 0 /       0       0.81027E-08          56            295                 0
  -------------------------------------------------------------------------------------------------------

  - Final decomposition step:

     Significant AO and shell pairs in final decomposition:
        Significant shell pairs:               302
        Significant AO pairs:                 2080

  Iter.  #Sign. ao pairs / shell pairs   Max diagonal    #Qualified    #Cholesky    Cholesky array size
  -------------------------------------------------------------------------------------------------------
     1              2046 /     291       0.48661E+01         468             76            155496
     2              1889 /     273       0.44584E-01        1000            294            555366
     3              1678 /     242       0.43132E-03         863            475            797050
     4              1535 /     204       0.42765E-05         969            734           1126690
     5               795 /      67       0.42276E-07         814           1022            812490
     6                 0 /       0       0.40406E-09         197           1106                 0
  -------------------------------------------------------------------------------------------------------

  - Summary of Cholesky decomposition of electronic repulsion integrals:

     Final number of Cholesky vectors: 1106

 - Testing the Cholesky decomposition decomposition electronic repulsion integrals:

     Maximal difference between approximate and actual diagonal:              0.9712E-10
     Minimal element of difference between approximate and actual diagonal:  -0.2563E-14

  - Settings for integral handling:

     Cholesky vectors in memory: True
     ERI matrix in memory:       False

  - Finished decomposing the ERIs.

     Total wall time (sec):              3.78500
     Total cpu time (sec):               3.33266


  Determining CC cluster amplitudes
  =================================

   - DIIS coupled cluster ground state solver
  ----------------------------------------------

  A DIIS CC ground state amplitude equations solver. It uses an extrapolation 
  of previous quasi-Newton perturbation theory estimates of the next amplitudes. 
  See Helgaker et al., Molecular Electronic Structure Theory, Chapter 
  13.

  - CC ground state solver settings:

  - Convergence thresholds

     Residual threshold:            0.1000E-09
     Energy threshold:              0.1000E-09
     Max number of iterations:      100

  - DIIS tool settings:

     DIIS dimension:   8

     Storage (cc_gs_diis_errors): file
     Storage (cc_gs_diis_parameters): file

  Iteration    Energy (a.u.)        |omega|       Delta E (a.u.)
  ---------------------------------------------------------------
    1           -79.196218411208     0.6541E-01     0.7920E+02
    2           -79.198404383439     0.9739E-02     0.2186E-02
    3           -79.198883494497     0.1263E-02     0.4791E-03
    4           -79.198905454078     0.3354E-03     0.2196E-04
    5           -79.198908022433     0.7916E-04     0.2568E-05
    6           -79.198907951383     0.1442E-04     0.7105E-07
    7           -79.198907844963     0.2764E-05     0.1064E-06
    8           -79.198907847896     0.8147E-06     0.2933E-08
    9           -79.198907849711     0.1157E-06     0.1816E-08
   10           -79.198907849930     0.2426E-07     0.2185E-09
   11           -79.198907850054     0.2750E-08     0.1236E-09
   12           -79.198907850105     0.2828E-09     0.5147E-10
   13           -79.198907850110     0.7638E-10     0.5144E-11
  ---------------------------------------------------------------
  Convergence criterion met in 13 iterations!

  - Ground state summary:

     Final ground state energy (a.u.):   -79.198907850110

     Correlation energy (a.u.):           -0.321461907429

     Largest single amplitudes:
     -----------------------------------
        a       i         t(a,i)
     -----------------------------------
        1      5        0.011284883204
        5      6        0.009506801206
       15      4       -0.008999619858
       14      5       -0.008067263868
        8      4       -0.007328076706
        9      6       -0.006866194233
       10      6       -0.006861275806
       34      4       -0.005969290541
        6      2       -0.005771246988
       35      5       -0.005434178953
     ------------------------------------

  - Finished solving the CC2 ground state equations

     Total wall time (sec):              0.85400
     Total cpu time (sec):               1.02410

  ------------------------------------------------------------

  Peak memory usage during the execution of eT: 194.000112 MB

  Total wall time in eT (sec):              6.14300
  Total cpu time in eT (sec):               6.21438

  Calculation ended: 2022-04-07 12:34:52 UTC -07:00

  - Implementation references:

     eT: https://doi.org/10.1063/5.0004713
     Cholesky decomposition of ERIs: https://doi.org/10.1063/1.5083802

  eT terminated successfully!
